kcu105_10gbaser_trd/hardware/vivado/runs/impl_run/.Xil/Vivado-31180-DESKTOP-4A374NS/hw_ila_data_4/zip_work/waveform.vcd
$date
        2019-Nov-14 20:25:58
$end
$version
        Vivado v2019.2 (64-bit)
$end
$timescale
        1ps
$end
$scope module dut $end
$var reg 64 " mac_phy_wrapper_i/mac_phy_i/system_ila_mac_phy2/inst/net_slot_0_axis_tdata [63:0] $end
$var reg 8 b mac_phy_wrapper_i/mac_phy_i/system_ila_mac_phy2/inst/net_slot_0_axis_tkeep [7:0] $end
$var reg 1 j mac_phy_wrapper_i/mac_phy_i/system_ila_mac_phy2/inst/net_slot_0_axis_tuser $end
$var reg 1 k mac_phy_wrapper_i/mac_phy_i/system_ila_mac_phy2/inst/net_slot_0_axis_tvalid $end
$var reg 1 l mac_phy_wrapper_i/mac_phy_i/system_ila_mac_phy2/inst/net_slot_0_axis_tready $end
$var reg 1 m mac_phy_wrapper_i/mac_phy_i/system_ila_mac_phy2/inst/net_slot_0_axis_tlast $end
$var reg 64 n mac_phy_wrapper_i/mac_phy_i/system_ila_mac_phy2/inst/net_slot_1_axis_tdata [63:0] $end
$var reg 8 P" mac_phy_wrapper_i/mac_phy_i/system_ila_mac_phy2/inst/net_slot_1_axis_tkeep [7:0] $end
$var reg 1 X" mac_phy_wrapper_i/mac_phy_i/system_ila_mac_phy2/inst/net_slot_1_axis_tuser $end
$var reg 1 Y" mac_phy_wrapper_i/mac_phy_i/system_ila_mac_phy2/inst/net_slot_1_axis_tvalid $end
$var reg 1 Z" mac_phy_wrapper_i/mac_phy_i/system_ila_mac_phy2/inst/net_slot_1_axis_tlast $end
$var reg 64 [" mac_phy_wrapper_i/mac_phy_i/system_ila_mac_phy2/inst/net_slot_2_axis_tdata [63:0] $end
$var reg 8 =# mac_phy_wrapper_i/mac_phy_i/system_ila_mac_phy2/inst/net_slot_2_axis_tkeep [7:0] $end
$var reg 1 E# mac_phy_wrapper_i/mac_phy_i/system_ila_mac_phy2/inst/net_slot_2_axis_tuser $end
$var reg 1 F# mac_phy_wrapper_i/mac_phy_i/system_ila_mac_phy2/inst/net_slot_2_axis_tvalid $end
$var reg 1 G# mac_phy_wrapper_i/mac_phy_i/system_ila_mac_phy2/inst/net_slot_2_axis_tready $end
$var reg 1 H# mac_phy_wrapper_i/mac_phy_i/system_ila_mac_phy2/inst/net_slot_2_axis_tlast $end
$var reg 64 I# mac_phy_wrapper_i/mac_phy_i/system_ila_mac_phy2/inst/net_slot_3_axis_tdata [63:0] $end
$var reg 8 +$ mac_phy_wrapper_i/mac_phy_i/system_ila_mac_phy2/inst/net_slot_3_axis_tkeep [7:0] $end
$var reg 1 3$ mac_phy_wrapper_i/mac_phy_i/system_ila_mac_phy2/inst/net_slot_3_axis_tuser $end
$var reg 1 4$ mac_phy_wrapper_i/mac_phy_i/system_ila_mac_phy2/inst/net_slot_3_axis_tvalid $end
$var reg 1 5$ mac_phy_wrapper_i/mac_phy_i/system_ila_mac_phy2/inst/net_slot_3_axis_tlast $end
$var reg 3 6$ Interface__i4_s0___s_axis_tx_0_1_ [2:0] $end
$var reg 3 9$ Interface__i4_s1___mac_phy_ch0_m_axis_rx_ [2:0] $end
$var reg 3 <$ Interface__i4_s2___s_axis_tx_1_1_ [2:0] $end
$var reg 3 ?$ Interface__i4_s3___mac_phy_ch1_m_axis_rx_ [2:0] $end
$var reg 3 B$ T_Channel__i4_s0___s_axis_tx_0_1_ [2:0] $end
$var reg 3 E$ T_Channel__i4_s1___mac_phy_ch0_m_axis_rx_ [2:0] $end
$var reg 3 H$ T_Channel__i4_s2___s_axis_tx_1_1_ [2:0] $end
$var reg 3 K$ T_Channel__i4_s3___mac_phy_ch1_m_axis_rx_ [2:0] $end
$var reg 1 N$ _TRIGGER $end
$var reg 1 O$ _WINDOW $end
$var reg 1 P$ _GAP $end
$upscope $end
$enddefinitions $end
#0
$dumpvars
b1001110010111011100111001011101110011100101110111001110010111011 "
b11111111 b
0j
1k
1l
0m
b0 n
b1 P"
0X"
0Y"
0Z"
b110110001001001011011000100100101101100010010010110110001001001 ["
b11111111 =#
0E#
1F#
1G#
0H#
b1110000000000000000000000000000000001111000 I#
b11111 +$
03$
04$
05$
b0 6$
b11 9$
b0 <$
b11 ?$
b0 B$
b11 E$
b0 H$
b11 K$
0N$
1O$
0P$
$end
#1
b111 =#
1H#
b1 6$
b1 <$
b1 B$
b10 H$
#2
b1000100010001000000000000000000000000000000000 ["
b11111111 =#
0H#
b1 H$
#3
b110110001001010011111010000000000010001000100010000000000000000 ["
#4
b11111 b
1m
b110110001001010011011000100101001101100010010100110110001001010 ["
b10 B$
#5
b1000100010001000000000000000000000000000000000 "
b11111111 b
0m
b1 B$
#6
b1001110010111100010011110000000000010001000100010000000000000000 "
0G#
b0 <$
b0 H$
#7
b1001110010111100100111001011110010011100101111001001110010111100 "
#9
0l
1G#
b0 6$
b1 <$
b0 B$
b1 H$
#12
1l
b1 6$
b1 B$
#19
b11111 b
1m
b10 B$
#20
b1000100010001000000000000000000000000000000000 "
b11111111 b
0m
b1 B$
#21
b1001110010111101010011110000000000010001000100010000000000000000 "
#22
b1001110010111101100111001011110110011100101111011001110010111101 "
b111 =#
1H#
b10 H$
#23
b1000100010001000000000000000000000000000000000 ["
b11111111 =#
0H#
b1 H$
#24
0l
b110110001001011011111010000000000010001000100010000000000000000 ["
b0 6$
b0 B$
#25
b110110001001011011011000100101101101100010010110110110001001011 ["
#27
1l
0G#
b1 6$
b0 <$
b1 B$
b0 H$
#29
1G#
b1 <$
b1 H$
#34
b11111 b
1m
b10 B$
#35
b1000100010001000000000000000000000000000000000 "
b11111111 b
0m
b1 B$
#36
b1001110010111110010011110000000000010001000100010000000000000000 "
#37
b1001110010111110100111001011111010011100101111101001110010111110 "
#39
0l
b0 6$
b0 B$
#42
1l
b111 =#
1H#
b1 6$
b1 B$
b10 H$
#43
b1000100010001000000000000000000000000000000000 ["
b11111111 =#
0H#
b1 H$
#44
b110110001001100011111010000000000010001000100010000000000000000 ["
#45
b110110001001100011011000100110001101100010011000110110001001100 ["
#47
0G#
b0 <$
b0 H$
#49
b11111 b
1m
b10 B$
#50
b1000100010001000000000000000000000000000000000 "
b11111111 b
0m
1G#
b1 <$
b1 B$
b1 H$
#51
b1001110010111111010011110000000000010001000100010000000000000000 "
#52
b1001110010111111100111001011111110011100101111111001110010111111 "
#54
0l
b0 6$
b0 B$
#57
1l
b1 6$
b1 B$
#63
b111 =#
1H#
b10 H$
#64
b11111 b
1m
b1000100010001000000000000000000000000000000000 ["
b11111111 =#
0H#
b10 B$
b1 H$
#65
b1000100010001000000000000000000000000000000000 "
b11111111 b
0m
b110110001001101011111010000000000010001000100010000000000000000 ["
b1 B$
#66
b1001110011000000010011110000000000010001000100010000000000000000 "
b110110001001101011011000100110101101100010011010110110001001101 ["
#67
b1001110011000000100111001100000010011100110000001001110011000000 "
#68
0G#
b0 <$
b0 H$
#69
0l
b0 6$
b0 B$
#70
1G#
b1 <$
b1 H$
#72
1l
b1 6$
b1 B$
#79
b11111 b
1m
b10 B$
#80
b1000100010001000000000000000000000000000000000 "
b11111111 b
0m
b1 B$
#81
b1001110011000001010011110000000000010001000100010000000000000000 "
#82
b1001110011000001100111001100000110011100110000011001110011000001 "
#83
b111 =#
1H#
b10 H$
#84
0l
b1000100010001000000000000000000000000000000000 ["
b11111111 =#
0H#
b0 6$
b0 B$
b1 H$
#85
b110110001001110011111010000000000010001000100010000000000000000 ["
#86
b110110001001110011011000100111001101100010011100110110001001110 ["
#87
1l
b1 6$
b1 B$
#88
0G#
b0 <$
b0 H$
#91
1G#
b1 <$
b1 H$
#94
b11111 b
1m
b10 B$
#95
b1000100010001000000000000000000000000000000000 "
b11111111 b
0m
b1 B$
#96
b1001110011000010010011110000000000010001000100010000000000000000 "
#97
b1001110011000010100111001100001010011100110000101001110011000010 "
#99
0l
b0 6$
b0 B$
#102
1l
b1 6$
b1 B$
#104
b111 =#
1H#
b10 H$
#105
b1000100010001000000000000000000000000000000000 ["
b11111111 =#
0H#
b1 H$
#106
b110110001001111011111010000000000010001000100010000000000000000 ["
#107
b110110001001111011011000100111101101100010011110110110001001111 ["
#109
b11111 b
1m
0G#
b0 <$
b10 B$
b0 H$
#110
b1000100010001000000000000000000000000000000000 "
b11111111 b
0m
b1 B$
#111
b1001110011000011010011110000000000010001000100010000000000000000 "
1G#
b1 <$
b1 H$
#112
b1001110011000011100111001100001110011100110000111001110011000011 "
#114
0l
b0 6$
b0 B$
#117
1l
b1 6$
b1 B$
#124
b11111 b
1m
b111 =#
1H#
b10 B$
b10 H$
#125
b1000100010001000000000000000000000000000000000 "
b11111111 b
0m
b1000100010001000000000000000000000000000000000 ["
b11111111 =#
0H#
b1 B$
b1 H$
#126
b1001110011000100010011110000000000010001000100010000000000000000 "
b110110001010000011111010000000000010001000100010000000000000000 ["
#127
b1001110011000100100111001100010010011100110001001001110011000100 "
b110110001010000011011000101000001101100010100000110110001010000 ["
#129
0l
0G#
b0 6$
b0 <$
b0 B$
b0 H$
#132
1l
1G#
b1 6$
b1 <$
b1 B$
b1 H$
#139
b11111 b
1m
b10 B$
#140
b1000100010001000000000000000000000000000000000 "
b11111111 b
0m
b1 B$
#141
b1001110011000101010011110000000000010001000100010000000000000000 "
#142
b1001110011000101100111001100010110011100110001011001110011000101 "
#144
0l
b0 6$
b0 B$
#145
b111 =#
1H#
b10 H$
#146
b1000100010001000000000000000000000000000000000 ["
b11111111 =#
0H#
b1 H$
#147
1l
b110110001010001011111010000000000010001000100010000000000000000 ["
b1 6$
b1 B$
#148
b110110001010001011011000101000101101100010100010110110001010001 ["
#150
0G#
b0 <$
b0 H$
#152
1G#
b1 <$
b1 H$
#154
b11111 b
1m
b10 B$
#155
b1000100010001000000000000000000000000000000000 "
b11111111 b
0m
b1 B$
#156
b1001110011000110010011110000000000010001000100010000000000000000 "
#157
b1001110011000110100111001100011010011100110001101001110011000110 "
#159
0l
b0 6$
b0 B$
#162
1l
b1 6$
b1 B$
#165
b111 =#
1H#
b10 H$
#166
b1000100010001000000000000000000000000000000000 ["
b11111111 =#
0H#
b1 H$
#167
b110110001010010011111010000000000010001000100010000000000000000 ["
#168
b110110001010010011011000101001001101100010100100110110001010010 ["
#169
b11111 b
1m
b10 B$
#170
b1000100010001000000000000000000000000000000000 "
b11111111 b
0m
0G#
b0 <$
b1 B$
b0 H$
#171
b1001110011000111010011110000000000010001000100010000000000000000 "
#172
b1001110011000111100111001100011110011100110001111001110011000111 "
#173
1G#
b1 <$
b1 H$
#174
0l
b0 6$
b0 B$
#177
1l
b1 6$
b1 B$
#184
b11111 b
1m
b10 B$
#185
b1000100010001000000000000000000000000000000000 "
b11111111 b
0m
b1 B$
#186
b1001110011001000010011110000000000010001000100010000000000000000 "
b111 =#
1H#
b10 H$
#187
b1001110011001000100111001100100010011100110010001001110011001000 "
b1000100010001000000000000000000000000000000000 ["
b11111111 =#
0H#
b1 H$
#188
b110110001010011011111010000000000010001000100010000000000000000 ["
#189
0l
b110110001010011011011000101001101101100010100110110110001010011 ["
b0 6$
b0 B$
#191
0G#
b0 <$
b0 H$
#192
1l
b1 6$
b1 B$
#193
1G#
b1 <$
b1 H$
#199
b11111 b
1m
b10 B$
#200
b1000100010001000000000000000000000000000000000 "
b11111111 b
0m
b1 B$
#201
b1001110011001001010011110000000000010001000100010000000000000000 "
#202
b1001110011001001100111001100100110011100110010011001110011001001 "
#204
0l
b0 6$
b0 B$
#206
b111 =#
1H#
b10 H$
#207
1l
b1000100010001000000000000000000000000000000000 ["
b11111111 =#
0H#
b1 6$
b1 B$
b1 H$
#208
b110110001010100011111010000000000010001000100010000000000000000 ["
#209
b110110001010100011011000101010001101100010101000110110001010100 ["
#211
0G#
b0 <$
b0 H$
#214
b11111 b
1m
1G#
b1 <$
b10 B$
b1 H$
#215
b1000100010001000000000000000000000000000000000 "
b11111111 b
0m
b1 B$
#216
b1001110011001010010011110000000000010001000100010000000000000000 "
#217
b1001110011001010100111001100101010011100110010101001110011001010 "
#219
0l
b0 6$
b0 B$
#222
1l
b1 6$
b1 B$
#227
b111 =#
1H#
b10 H$
#228
b1000100010001000000000000000000000000000000000 ["
b11111111 =#
0H#
b1 H$
#229
b11111 b
1m
b110110001010101011111010000000000010001000100010000000000000000 ["
b10 B$
#230
b1000100010001000000000000000000000000000000000 "
b11111111 b
0m
b110110001010101011011000101010101101100010101010110110001010101 ["
b1 B$
#231
b1001110011001011010011110000000000010001000100010000000000000000 "
#232
b1001110011001011100111001100101110011100110010111001110011001011 "
0G#
b0 <$
b0 H$
#234
0l
1G#
b0 6$
b1 <$
b0 B$
b1 H$
#237
1l
b1 6$
b1 B$
#244
b11111 b
1m
b10 B$
#245
b1000100010001000000000000000000000000000000000 "
b11111111 b
0m
b1 B$
#246
b1001110011001100010011110000000000010001000100010000000000000000 "
#247
b1001110011001100100111001100110010011100110011001001110011001100 "
b111 =#
1H#
b10 H$
#248
b1000100010001000000000000000000000000000000000 ["
b11111111 =#
0H#
b1 H$
#249
0l
b110110001010110011111010000000000010001000100010000000000000000 ["
b0 6$
b0 B$
#250
b110110001010110011011000101011001101100010101100110110001010110 ["
#252
1l
0G#
b1 6$
b0 <$
b1 B$
b0 H$
#255
1G#
b1 <$
b1 H$
#259
b11111 b
1m
b10 B$
#260
b1000100010001000000000000000000000000000000000 "
b11111111 b
0m
b1 B$
#261
b1001110011001101010011110000000000010001000100010000000000000000 "
#262
b1001110011001101100111001100110110011100110011011001110011001101 "
#264
0l
b0 6$
b0 B$
#267
1l
b1 6$
b1 B$
#268
b111 =#
1H#
b10 H$
#269
b1000100010001000000000000000000000000000000000 ["
b11111111 =#
0H#
b1 H$
#270
b110110001010111011111010000000000010001000100010000000000000000 ["
#271
b110110001010111011011000101011101101100010101110110110001010111 ["
#273
0G#
b0 <$
b0 H$
#274
b11111 b
1m
b10 B$
#275
b1000100010001000000000000000000000000000000000 "
b11111111 b
0m
1G#
b1 <$
b1 B$
b1 H$
#276
b1001110011001110010011110000000000010001000100010000000000000000 "
#277
b1001110011001110100111001100111010011100110011101001110011001110 "
#279
0l
b0 6$
b0 B$
#282
1l
b1 6$
b1 B$
#288
b111 =#
1H#
b10 H$
#289
b11111 b
1m
b1000100010001000000000000000000000000000000000 ["
b11111111 =#
0H#
b10 B$
b1 H$
#290
b1000100010001000000000000000000000000000000000 "
b11111111 b
0m
b110110001011000011111010000000000010001000100010000000000000000 ["
b1 B$
#291
b1001110011001111010011110000000000010001000100010000000000000000 "
b110110001011000011011000101100001101100010110000110110001011000 ["
#292
b1001110011001111100111001100111110011100110011111001110011001111 "
#293
0G#
b0 <$
b0 H$
#294
0l
b0 6$
b0 B$
#296
1G#
b1 <$
b1 H$
#297
1l
b1 6$
b1 B$
#304
b11111 b
1m
b10 B$
#305
b1000100010001000000000000000000000000000000000 "
b11111111 b
0m
b1 B$
#306
b1001110011010000010011110000000000010001000100010000000000000000 "
#307
b1001110011010000100111001101000010011100110100001001110011010000 "
#309
0l
b111 =#
1H#
b0 6$
b0 B$
b10 H$
#310
b1000100010001000000000000000000000000000000000 ["
b11111111 =#
0H#
b1 H$
#311
b110110001011001011111010000000000010001000100010000000000000000 ["
#312
1l
b110110001011001011011000101100101101100010110010110110001011001 ["
b1 6$
b1 B$
#314
0G#
b0 <$
b0 H$
#316
1G#
b1 <$
b1 H$
#319
b11111 b
1m
b10 B$
#320
b1000100010001000000000000000000000000000000000 "
b11111111 b
0m
b1 B$
#321
b1001110011010001010011110000000000010001000100010000000000000000 "
#322
b1001110011010001100111001101000110011100110100011001110011010001 "
#324
0l
b0 6$
b0 B$
#327
1l
b1 6$
b1 B$
#329
b111 =#
1H#
b10 H$
#330
b1000100010001000000000000000000000000000000000 ["
b11111111 =#
0H#
b1 H$
#331
b110110001011010011111010000000000010001000100010000000000000000 ["
#332
b110110001011010011011000101101001101100010110100110110001011010 ["
#334
b11111 b
1m
0G#
b0 <$
b10 B$
b0 H$
#335
b1000100010001000000000000000000000000000000000 "
b11111111 b
0m
b1 B$
#336
b1001110011010010010011110000000000010001000100010000000000000000 "
#337
b1001110011010010100111001101001010011100110100101001110011010010 "
1G#
b1 <$
b1 H$
#339
0l
b0 6$
b0 B$
#342
1l
b1 6$
b1 B$
#349
b11111 b
1m
b10 B$
#350
b1000100010001000000000000000000000000000000000 "
b11111111 b
0m
b111 =#
1H#
b1 B$
b10 H$
#351
b1001110011010011010011110000000000010001000100010000000000000000 "
b1000100010001000000000000000000000000000000000 ["
b11111111 =#
0H#
b1 H$
#352
b1001110011010011100111001101001110011100110100111001110011010011 "
b110110001011011011111010000000000010001000100010000000000000000 ["
#353
b110110001011011011011000101101101101100010110110110110001011011 ["
#354
0l
b0 6$
b0 B$
#355
0G#
b0 <$
b0 H$
#357
1l
1G#
b1 6$
b1 <$
b1 B$
b1 H$
#364
b11111 b
1m
b10 B$
#365
b1000100010001000000000000000000000000000000000 "
b11111111 b
0m
b1 B$
#366
b1001110011010100010011110000000000010001000100010000000000000000 "
#367
b1001110011010100100111001101010010011100110101001001110011010100 "
#369
0l
b0 6$
b0 B$
#370
b111 =#
1H#
b10 H$
#371
b1000100010001000000000000000000000000000000000 ["
b11111111 =#
0H#
b1 H$
#372
1l
b110110001011100011111010000000000010001000100010000000000000000 ["
b1 6$
b1 B$
#373
b110110001011100011011000101110001101100010111000110110001011100 ["
#375
0G#
b0 <$
b0 H$
#378
1G#
b1 <$
b1 H$
#379
b11111 b
1m
b10 B$
#380
b1000100010001000000000000000000000000000000000 "
b11111111 b
0m
b1 B$
#381
b1001110011010101010011110000000000010001000100010000000000000000 "
#382
b1001110011010101100111001101010110011100110101011001110011010101 "
#384
0l
b0 6$
b0 B$
#387
1l
b1 6$
b1 B$
#391
b111 =#
1H#
b10 H$
#392
b1000100010001000000000000000000000000000000000 ["
b11111111 =#
0H#
b1 H$
#393
b110110001011101011111010000000000010001000100010000000000000000 ["
#394
b11111 b
1m
b110110001011101011011000101110101101100010111010110110001011101 ["
b10 B$
#395
b1000100010001000000000000000000000000000000000 "
b11111111 b
0m
b1 B$
#396
b1001110011010110010011110000000000010001000100010000000000000000 "
0G#
b0 <$
b0 H$
#397
b1001110011010110100111001101011010011100110101101001110011010110 "
#398
1G#
b1 <$
b1 H$
#399
0l
b0 6$
b0 B$
#402
1l
b1 6$
b1 B$
#409
b11111 b
1m
b10 B$
#410
b1000100010001000000000000000000000000000000000 "
b11111111 b
0m
b1 B$
#411
b1001110011010111010011110000000000010001000100010000000000000000 "
b111 =#
1H#
b10 H$
#412
b1001110011010111100111001101011110011100110101111001110011010111 "
b1000100010001000000000000000000000000000000000 ["
b11111111 =#
0H#
b1 H$
#413
b110110001011110011111010000000000010001000100010000000000000000 ["
#414
0l
b110110001011110011011000101111001101100010111100110110001011110 ["
b0 6$
b0 B$
#416
0G#
b0 <$
b0 H$
#417
1l
b1 6$
b1 B$
#419
1G#
b1 <$
b1 H$
#424
b11111 b
1m
b10 B$
#425
b1000100010001000000000000000000000000000000000 "
b11111111 b
0m
b1 B$
#426
b1001110011011000010011110000000000010001000100010000000000000000 "
#427
b1001110011011000100111001101100010011100110110001001110011011000 "
#429
0l
b0 6$
b0 B$
#432
1l
b111 =#
1H#
b1 6$
b1 B$
b10 H$
#433
b1000100010001000000000000000000000000000000000 ["
b11111111 =#
0H#
b1 H$
#434
b110110001011111011111010000000000010001000100010000000000000000 ["
#435
b110110001011111011011000101111101101100010111110110110001011111 ["
#437
0G#
b0 <$
b0 H$
#439
b11111 b
1m
1G#
b1 <$
b10 B$
b1 H$
#440
b1000100010001000000000000000000000000000000000 "
b11111111 b
0m
b1 B$
#441
b1001110011011001010011110000000000010001000100010000000000000000 "
#442
b1001110011011001100111001101100110011100110110011001110011011001 "
#444
0l
b0 6$
b0 B$
#447
1l
b1 6$
b1 B$
#452
b111 =#
1H#
b10 H$
#453
b1000100010001000000000000000000000000000000000 ["
b11111111 =#
0H#
b1 H$
#454
b11111 b
1m
b110110001100000011111010000000000010001000100010000000000000000 ["
b10 B$
#455
b1000100010001000000000000000000000000000000000 "
b11111111 b
0m
b110110001100000011011000110000001101100011000000110110001100000 ["
b1 B$
#456
b1001110011011010010011110000000000010001000100010000000000000000 "
#457
b1001110011011010100111001101101010011100110110101001110011011010 "
0G#
b0 <$
b0 H$
#459
0l
b0 6$
b0 B$
#460
1G#
b1 <$
b1 H$
#462
1l
b1 6$
b1 B$
#469
b11111 b
1m
b10 B$
#470
b1000100010001000000000000000000000000000000000 "
b11111111 b
0m
b1 B$
#471
b1001110011011011010011110000000000010001000100010000000000000000 "
#472
b1001110011011011100111001101101110011100110110111001110011011011 "
#473
b111 =#
1H#
b10 H$
#474
0l
b1000100010001000000000000000000000000000000000 ["
b11111111 =#
0H#
b0 6$
b0 B$
b1 H$
#475
b110110001100001011111010000000000010001000100010000000000000000 ["
#476
b110110001100001011011000110000101101100011000010110110001100001 ["
#477
1l
b1 6$
b1 B$
#478
0G#
b0 <$
b0 H$
#480
1G#
b1 <$
b1 H$
#484
b11111 b
1m
b10 B$
#485
b1000100010001000000000000000000000000000000000 "
b11111111 b
0m
b1 B$
#486
b1001110011011100010011110000000000010001000100010000000000000000 "
#487
b1001110011011100100111001101110010011100110111001001110011011100 "
#489
0l
b0 6$
b0 B$
#492
1l
b1 6$
b1 B$
#493
b111 =#
1H#
b10 H$
#494
b1000100010001000000000000000000000000000000000 ["
b11111111 =#
0H#
b1 H$
#495
b110110001100010011111010000000000010001000100010000000000000000 ["
#496
b110110001100010011011000110001001101100011000100110110001100010 ["
#498
0G#
b0 <$
b0 H$
#499
b11111 b
1m
b10 B$
#500
b1000100010001000000000000000000000000000000000 "
b11111111 b
0m
b1 B$
#501
b1001110011011101010011110000000000010001000100010000000000000000 "
1G#
b1 <$
b1 H$
#502
b1001110011011101100111001101110110011100110111011001110011011101 "
#504
0l
b0 6$
b0 B$
#507
1l
b1 6$
b1 B$
#514
b11111 b
1m
b111 =#
1H#
b10 B$
b10 H$
#515
b1000100010001000000000000000000000000000000000 "
b11111111 b
0m
b1000100010001000000000000000000000000000000000 ["
b11111111 =#
0H#
b1 B$
b1 H$
#516
b1001110011011110010011110000000000010001000100010000000000000000 "
b110110001100011011111010000000000010001000100010000000000000000 ["
#517
b1001110011011110100111001101111010011100110111101001110011011110 "
b110110001100011011011000110001101101100011000110110110001100011 ["
#519
0l
0G#
b0 6$
b0 <$
b0 B$
b0 H$
#521
1G#
b1 <$
b1 H$
#522
1l
b1 6$
b1 B$
#529
b11111 b
1m
b10 B$
#530
b1000100010001000000000000000000000000000000000 "
b11111111 b
0m
b1 B$
#531
b1001110011011111010011110000000000010001000100010000000000000000 "
#532
b1001110011011111100111001101111110011100110111111001110011011111 "
#534
0l
b111 =#
1H#
b0 6$
b0 B$
b10 H$
#535
b1000100010001000000000000000000000000000000000 ["
b11111111 =#
0H#
b1 H$
#536
b110110001100100011111010000000000010001000100010000000000000000 ["
#537
1l
b110110001100100011011000110010001101100011001000110110001100100 ["
b1 6$
b1 B$
#539
0G#
b0 <$
b0 H$
#542
1G#
b1 <$
b1 H$
#544
b11111 b
1m
b10 B$
#545
b1000100010001000000000000000000000000000000000 "
b11111111 b
0m
b1 B$
#546
b1001110011100000010011110000000000010001000100010000000000000000 "
#547
b1001110011100000100111001110000010011100111000001001110011100000 "
#549
0l
b0 6$
b0 B$
#552
1l
b1 6$
b1 B$
#555
b111 =#
1H#
b10 H$
#556
b1000100010001000000000000000000000000000000000 ["
b11111111 =#
0H#
b1 H$
#557
b110110001100101011111010000000000010001000100010000000000000000 ["
#558
b110110001100101011011000110010101101100011001010110110001100101 ["
#559
b11111 b
1m
b10 B$
#560
b1000100010001000000000000000000000000000000000 "
b11111111 b
0m
0G#
b0 <$
b1 B$
b0 H$
#561
b1001110011100001010011110000000000010001000100010000000000000000 "
#562
b1001110011100001100111001110000110011100111000011001110011100001 "
1G#
b1 <$
b1 H$
#564
0l
b0 6$
b0 B$
#567
1l
b1 6$
b1 B$
#574
b11111 b
1m
b10 B$
#575
b1000100010001000000000000000000000000000000000 "
b11111111 b
0m
b111 =#
1H#
b1 B$
b10 H$
#576
b1001110011100010010011110000000000010001000100010000000000000000 "
b1000100010001000000000000000000000000000000000 ["
b11111111 =#
0H#
b1 H$
#577
b1001110011100010100111001110001010011100111000101001110011100010 "
b110110001100110011111010000000000010001000100010000000000000000 ["
#578
b110110001100110011011000110011001101100011001100110110001100110 ["
#579
0l
b0 6$
b0 B$
#580
0G#
b0 <$
b0 H$
#582
1l
b1 6$
b1 B$
#583
1G#
b1 <$
b1 H$
#589
b11111 b
1m
b10 B$
#590
b1000100010001000000000000000000000000000000000 "
b11111111 b
0m
b1 B$
#591
b1001110011100011010011110000000000010001000100010000000000000000 "
#592
b1001110011100011100111001110001110011100111000111001110011100011 "
#594
0l
b0 6$
b0 B$
#596
b111 =#
1H#
b10 H$
#597
1l
b1000100010001000000000000000000000000000000000 ["
b11111111 =#
0H#
b1 6$
b1 B$
b1 H$
#598
b110110001100111011111010000000000010001000100010000000000000000 ["
#599
b110110001100111011011000110011101101100011001110110110001100111 ["
#601
0G#
b0 <$
b0 H$
#603
1G#
b1 <$
b1 H$
#604
b11111 b
1m
b10 B$
#605
b1000100010001000000000000000000000000000000000 "
b11111111 b
0m
b1 B$
#606
b1001110011100100010011110000000000010001000100010000000000000000 "
#607
b1001110011100100100111001110010010011100111001001001110011100100 "
#609
0l
b0 6$
b0 B$
#612
1l
b1 6$
b1 B$
#616
b111 =#
1H#
b10 H$
#617
b1000100010001000000000000000000000000000000000 ["
b11111111 =#
0H#
b1 H$
#618
b110110001101000011111010000000000010001000100010000000000000000 ["
#619
b11111 b
1m
b110110001101000011011000110100001101100011010000110110001101000 ["
b10 B$
#620
b1000100010001000000000000000000000000000000000 "
b11111111 b
0m
b1 B$
#621
b1001110011100101010011110000000000010001000100010000000000000000 "
0G#
b0 <$
b0 H$
#622
b1001110011100101100111001110010110011100111001011001110011100101 "
#624
0l
1G#
b0 6$
b1 <$
b0 B$
b1 H$
#627
1l
b1 6$
b1 B$
#634
b11111 b
1m
b10 B$
#635
b1000100010001000000000000000000000000000000000 "
b11111111 b
0m
b1 B$
#636
b1001110011100110010011110000000000010001000100010000000000000000 "
#637
b1001110011100110100111001110011010011100111001101001110011100110 "
b111 =#
1H#
b10 H$
#638
b1000100010001000000000000000000000000000000000 ["
b11111111 =#
0H#
b1 H$
#639
0l
b110110001101001011111010000000000010001000100010000000000000000 ["
b0 6$
b0 B$
#640
b110110001101001011011000110100101101100011010010110110001101001 ["
#642
1l
0G#
b1 6$
b0 <$
b1 B$
b0 H$
#644
1G#
b1 <$
b1 H$
#649
b11111 b
1m
b10 B$
#650
b1000100010001000000000000000000000000000000000 "
b11111111 b
0m
b1 B$
#651
b1001110011100111010011110000000000010001000100010000000000000000 "
#652
b1001110011100111100111001110011110011100111001111001110011100111 "
#654
0l
b0 6$
b0 B$
#657
1l
b111 =#
1H#
b1 6$
b1 B$
b10 H$
#658
b1000100010001000000000000000000000000000000000 ["
b11111111 =#
0H#
b1 H$
#659
b110110001101010011111010000000000010001000100010000000000000000 ["
#660
b110110001101010011011000110101001101100011010100110110001101010 ["
#662
0G#
b0 <$
b0 H$
#664
b11111 b
1m
b10 B$
#665
b1000100010001000000000000000000000000000000000 "
b11111111 b
0m
1G#
b1 <$
b1 B$
b1 H$
#666
b1001110011101000010011110000000000010001000100010000000000000000 "
#667
b1001110011101000100111001110100010011100111010001001110011101000 "
#669
0l
b0 6$
b0 B$
#672
1l
b1 6$
b1 B$
#678
b111 =#
1H#
b10 H$
#679
b11111 b
1m
b1000100010001000000000000000000000000000000000 ["
b11111111 =#
0H#
b10 B$
b1 H$
#680
b1000100010001000000000000000000000000000000000 "
b11111111 b
0m
b110110001101011011111010000000000010001000100010000000000000000 ["
b1 B$
#681
b1001110011101001010011110000000000010001000100010000000000000000 "
b110110001101011011011000110101101101100011010110110110001101011 ["
#682
b1001110011101001100111001110100110011100111010011001110011101001 "
#683
0G#
b0 <$
b0 H$
#684
0l
b0 6$
b0 B$
#685
1G#
b1 <$
b1 H$
#687
1l
b1 6$
b1 B$
#694
b11111 b
1m
b10 B$
#695
b1000100010001000000000000000000000000000000000 "
b11111111 b
0m
b1 B$
#696
b1001110011101010010011110000000000010001000100010000000000000000 "
#697
b1001110011101010100111001110101010011100111010101001110011101010 "
#698
b111 =#
1H#
b10 H$
#699
0l
b1000100010001000000000000000000000000000000000 ["
b11111111 =#
0H#
b0 6$
b0 B$
b1 H$
#700
b110110001101100011111010000000000010001000100010000000000000000 ["
#701
b110110001101100011011000110110001101100011011000110110001101100 ["
#702
1l
b1 6$
b1 B$
#703
0G#
b0 <$
b0 H$
#706
1G#
b1 <$
b1 H$
#709
b11111 b
1m
b10 B$
#710
b1000100010001000000000000000000000000000000000 "
b11111111 b
0m
b1 B$
#711
b1001110011101011010011110000000000010001000100010000000000000000 "
#712
b1001110011101011100111001110101110011100111010111001110011101011 "
#714
0l
b0 6$
b0 B$
#717
1l
b1 6$
b1 B$
#719
b111 =#
1H#
b10 H$
#720
b1000100010001000000000000000000000000000000000 ["
b11111111 =#
0H#
b1 H$
#721
b110110001101101011111010000000000010001000100010000000000000000 ["
#722
b110110001101101011011000110110101101100011011010110110001101101 ["
#724
b11111 b
1m
0G#
b0 <$
b10 B$
b0 H$
#725
b1000100010001000000000000000000000000000000000 "
b11111111 b
0m
b1 B$
#726
b1001110011101100010011110000000000010001000100010000000000000000 "
1G#
b1 <$
b1 H$
#727
b1001110011101100100111001110110010011100111011001001110011101100 "
#729
0l
b0 6$
b0 B$
