kcu105_10gbaser_trd/hardware/vivado/runs/impl_run/.Xil/Vivado-11460-DESKTOP-I48MRRI/hw_ila_data_4/zip_work/waveform.vcd
$date
        2019-Oct-23 15:08:59
$end
$version
        Vivado v2017.3 (64-bit)
$end
$timescale
        1ps
$end
$scope module dut $end
$var reg 64 " mac_phy_wrapper_i/mac_phy_i/system_ila_mac_phy2/inst/net_slot_0_axis_tdata [63:0] $end
$var reg 8 b mac_phy_wrapper_i/mac_phy_i/system_ila_mac_phy2/inst/net_slot_0_axis_tkeep [7:0] $end
$var reg 1 j mac_phy_wrapper_i/mac_phy_i/system_ila_mac_phy2/inst/net_slot_0_axis_tuser $end
$var reg 1 k mac_phy_wrapper_i/mac_phy_i/system_ila_mac_phy2/inst/net_slot_0_axis_tvalid $end
$var reg 1 l mac_phy_wrapper_i/mac_phy_i/system_ila_mac_phy2/inst/net_slot_0_axis_tready $end
$var reg 1 m mac_phy_wrapper_i/mac_phy_i/system_ila_mac_phy2/inst/net_slot_0_axis_tlast $end
$var reg 64 n mac_phy_wrapper_i/mac_phy_i/system_ila_mac_phy2/inst/net_slot_1_axis_tdata [63:0] $end
$var reg 8 P" mac_phy_wrapper_i/mac_phy_i/system_ila_mac_phy2/inst/net_slot_1_axis_tkeep [7:0] $end
$var reg 1 X" mac_phy_wrapper_i/mac_phy_i/system_ila_mac_phy2/inst/net_slot_1_axis_tuser $end
$var reg 1 Y" mac_phy_wrapper_i/mac_phy_i/system_ila_mac_phy2/inst/net_slot_1_axis_tvalid $end
$var reg 1 Z" mac_phy_wrapper_i/mac_phy_i/system_ila_mac_phy2/inst/net_slot_1_axis_tlast $end
$var reg 64 [" mac_phy_wrapper_i/mac_phy_i/system_ila_mac_phy2/inst/net_slot_2_axis_tdata [63:0] $end
$var reg 8 =# mac_phy_wrapper_i/mac_phy_i/system_ila_mac_phy2/inst/net_slot_2_axis_tkeep [7:0] $end
$var reg 1 E# mac_phy_wrapper_i/mac_phy_i/system_ila_mac_phy2/inst/net_slot_2_axis_tuser $end
$var reg 1 F# mac_phy_wrapper_i/mac_phy_i/system_ila_mac_phy2/inst/net_slot_2_axis_tvalid $end
$var reg 1 G# mac_phy_wrapper_i/mac_phy_i/system_ila_mac_phy2/inst/net_slot_2_axis_tready $end
$var reg 1 H# mac_phy_wrapper_i/mac_phy_i/system_ila_mac_phy2/inst/net_slot_2_axis_tlast $end
$var reg 64 I# mac_phy_wrapper_i/mac_phy_i/system_ila_mac_phy2/inst/net_slot_3_axis_tdata [63:0] $end
$var reg 8 +$ mac_phy_wrapper_i/mac_phy_i/system_ila_mac_phy2/inst/net_slot_3_axis_tkeep [7:0] $end
$var reg 1 3$ mac_phy_wrapper_i/mac_phy_i/system_ila_mac_phy2/inst/net_slot_3_axis_tuser $end
$var reg 1 4$ mac_phy_wrapper_i/mac_phy_i/system_ila_mac_phy2/inst/net_slot_3_axis_tvalid $end
$var reg 1 5$ mac_phy_wrapper_i/mac_phy_i/system_ila_mac_phy2/inst/net_slot_3_axis_tlast $end
$var reg 3 6$ Interface__i4_s0___s_axis_tx_0_1_ [2:0] $end
$var reg 3 9$ Interface__i4_s1___mac_phy_ch0_m_axis_rx_ [2:0] $end
$var reg 3 <$ Interface__i4_s2___s_axis_tx_1_1_ [2:0] $end
$var reg 3 ?$ Interface__i4_s3___mac_phy_ch1_m_axis_rx_ [2:0] $end
$var reg 3 B$ T_Channel__i4_s0___s_axis_tx_0_1_ [2:0] $end
$var reg 3 E$ T_Channel__i4_s1___mac_phy_ch0_m_axis_rx_ [2:0] $end
$var reg 3 H$ T_Channel__i4_s2___s_axis_tx_1_1_ [2:0] $end
$var reg 3 K$ T_Channel__i4_s3___mac_phy_ch1_m_axis_rx_ [2:0] $end
$var reg 1 N$ _TRIGGER $end
$var reg 1 O$ _WINDOW $end
$var reg 1 P$ _GAP $end
$upscope $end
$enddefinitions $end
#0
$dumpvars
b1100000001010000110000000101000011000000010100001100000001010 "
b11111111 b
0j
1k
1l
0m
b1100000000111000110000000011100011000000001110001100000000111 n
b11111111 P"
0X"
1Y"
0Z"
b1100000001110000110000000111000011000000011100001100000001110 ["
b11111111 =#
0E#
1F#
0G#
0H#
b1100000001011000110000000101100011000000010110001100000001011 I#
b11111111 +$
03$
14$
05$
b0 6$
b0 9$
b0 <$
b0 ?$
b0 B$
b0 E$
b0 H$
b0 K$
0N$
1O$
0P$
$end
#1
0l
b1 9$
b1 ?$
b1 E$
b1 K$
#2
1G#
b1 <$
b1 H$
#3
1l
b1 6$
b1 B$
#12
b10111101010001111100000111110100000010110001100000001011 I#
b111 +$
13$
15$
b10 K$
#13
b0 I#
03$
04$
05$
b0 ?$
b0 K$
#15
b11100010001101000100110110100110000001110001100000000111 n
b111 P"
1X"
1Z"
b111 =#
1H#
b10 E$
b10 H$
#16
b11111101101100011101001110111100000010100001100000001010 "
b111 b
1m
b101010101010101010101010000000000000000000000000000000000000000 n
b1 P"
0X"
0Y"
0Z"
b1000100010001000000000000000000000000000000000 ["
b11111111 =#
0H#
b1000100010001000000000000000000000000000000000 I#
b11111111 +$
14$
b0 9$
b1 ?$
b10 B$
b0 E$
b1 H$
b1 K$
#17
b1100110011001100000000000000000000000000000000 "
b11111111 b
0m
b1100000001111011111010000000000010001000100010000000000000000 ["
b1100000001100011111010000000000010001000100010000000000000000 I#
b1 B$
#18
b1100000001011011111010000000000010001000100010000000000000000 "
b1100110011001100000000000000000000000000000000 n
b11111111 P"
1Y"
b1100000001111000110000000111100011000000011110001100000001111 ["
b1100000001100000110000000110000011000000011000001100000001100 I#
b1 9$
b1 E$
#19
b1100000001011000110000000101100011000000010110001100000001011 "
b1100000001000011111010000000000010001000100010000000000000000 n
#20
b1100000001000000110000000100000011000000010000001100000001000 n
0G#
b0 <$
b0 H$
#21
0l
b0 6$
b0 B$
#22
1G#
b1 <$
b1 H$
#24
1l
b1 6$
b1 B$
#33
b10100100111101001011100001001101000011000001100000001100 I#
b111 +$
13$
15$
b10 K$
#34
b0 I#
03$
04$
05$
b0 ?$
b0 K$
#35
b10010001101001001010110010011100000010000001100000001000 n
b111 P"
1X"
1Z"
b111 =#
1H#
b10 E$
b10 H$
#36
b0 n
0X"
0Y"
0Z"
b1000100010001000000000000000000000000000000000 ["
b11111111 =#
0H#
b0 9$
b0 E$
b1 H$
#37
b10111101010001111100000111110100000010110001100000001011 "
b111 b
1m
b1100000010000011111010000000000010001000100010000000000000000 ["
b1000100010001000000000000000000000000000000000 I#
b11111111 +$
14$
b1 ?$
b10 B$
b1 K$
#38
b1100110011001100000000000000000000000000000000 "
b11111111 b
0m
b1100000010000000110000001000000011000000100000001100000010000 ["
b1100000001101011111010000000000010001000100010000000000000000 I#
b1 B$
#39
b1100000001100011111010000000000010001000100010000000000000000 "
b1100110011001100000000000000000000000000000000 n
b11111111 P"
1Y"
b1100000001101000110000000110100011000000011010001100000001101 I#
b1 9$
b1 E$
#40
b1100000001100000110000000110000011000000011000001100000001100 "
b1100000001001011111010000000000010001000100010000000000000000 n
0G#
b0 <$
b0 H$
#41
b1100000001001000110000000100100011000000010010001100000001001 n
#42
0l
b0 6$
b0 B$
#43
1G#
b1 <$
b1 H$
#44
1l
b1 6$
b1 B$
#54
b11100100000000101010101000000101000011010001100000001101 I#
b111 +$
13$
15$
b10 K$
#55
b101010101010101010101010000000000000000000000000000000000000000 I#
b1 +$
03$
04$
05$
b0 ?$
b0 K$
#56
b11010001010100101011111011010100000010010001100000001001 n
b111 P"
1X"
1Z"
b111 =#
1H#
b10 E$
b10 H$
#57
b10100100111101001011100001001101000011000001100000001100 "
b111 b
1m
b0 n
0X"
0Y"
0Z"
b1000100010001000000000000000000000000000000000 ["
b11111111 =#
0H#
b1000100010001000000000000000000000000000000000 I#
b11111111 +$
14$
b0 9$
b1 ?$
b10 B$
b0 E$
b1 H$
b1 K$
#58
b1100110011001100000000000000000000000000000000 "
b11111111 b
0m
b1100000010001011111010000000000010001000100010000000000000000 ["
b1100000001110011111010000000000010001000100010000000000000000 I#
b1 B$
#59
b1100000001101011111010000000000010001000100010000000000000000 "
b1100000010001000110000001000100011000000100010001100000010001 ["
b1100000001110000110000000111000011000000011100001100000001110 I#
#60
b1100000001101000110000000110100011000000011010001100000001101 "
b1100110011001100000000000000000000000000000000 n
b11111111 P"
1Y"
b1 9$
b1 E$
#61
b1100000001010011111010000000000010001000100010000000000000000 n
0G#
b0 <$
b0 H$
#62
0l
b1100000001010000110000000101000011000000010100001100000001010 n
b0 6$
b0 B$
#63
1G#
b1 <$
b1 H$
#65
1l
b1 6$
b1 B$
#74
b100101000110001001110011011101000011100001100000001110 I#
b111 +$
13$
15$
b10 K$
#75
b0 I#
b1 +$
03$
04$
05$
b0 ?$
b0 K$
#76
b111 =#
1H#
b10 H$
#77
b10000010010001000100000001100000010100001100000001010 n
b111 P"
1X"
1Z"
b1000100010001000000000000000000000000000000000 ["
b11111111 =#
0H#
b1000100010001000000000000000000000000000000000 I#
b11111111 +$
14$
b1 ?$
b10 E$
b1 H$
b1 K$
#78
b11100100000000101010101000000101000011010001100000001101 "
b111 b
1m
b101010101010101010101010000000000000000000000000000000000000000 n
b1 P"
0X"
0Y"
0Z"
b1100000010010011111010000000000010001000100010000000000000000 ["
b1100000001111011111010000000000010001000100010000000000000000 I#
b0 9$
b10 B$
b0 E$
#79
b1100110011001100000000000000000000000000000000 "
b11111111 b
0m
b1100000010010000110000001001000011000000100100001100000010010 ["
b1100000001111000110000000111100011000000011110001100000001111 I#
b1 B$
#80
b1100000001110011111010000000000010001000100010000000000000000 "
b1100110011001100000000000000000000000000000000 n
b11111111 P"
1Y"
b1 9$
b1 E$
#81
b1100000001110000110000000111000011000000011100001100000001110 "
b1100000001011011111010000000000010001000100010000000000000000 n
0G#
b0 <$
b0 H$
#82
b1100000001011000110000000101100011000000010110001100000001011 n
#83
0l
b0 6$
b0 B$
#84
1G#
b1 <$
b1 H$
#85
1l
b1 6$
b1 B$
#94
b1100101111011101000111010010101000011110001100000001111 I#
b111 +$
13$
15$
b10 K$
#95
b0 I#
03$
04$
05$
b0 ?$
b0 K$
#97
b1010000101111101001101001000100000010110001100000001011 n
b111 P"
1X"
1Z"
b111 =#
1H#
b10 E$
b10 H$
#98
b100101000110001001110011011101000011100001100000001110 "
b111 b
1m
b0 n
b1 P"
0X"
0Y"
0Z"
b1000100010001000000000000000000000000000000000 ["
b11111111 =#
0H#
b1000100010001000000000000000000000000000000000 I#
b11111111 +$
14$
b0 9$
b1 ?$
b10 B$
b0 E$
b1 H$
b1 K$
#99
b1100110011001100000000000000000000000000000000 "
b11111111 b
0m
b1100000010011011111010000000000010001000100010000000000000000 ["
b1100000010000011111010000000000010001000100010000000000000000 I#
b1 B$
#100
b1100000001111011111010000000000010001000100010000000000000000 "
b1100110011001100000000000000000000000000000000 n
b11111111 P"
1Y"
b1100000010011000110000001001100011000000100110001100000010011 ["
b1100000010000000110000001000000011000000100000001100000010000 I#
b1 9$
b1 E$
#101
b1100000001111000110000000111100011000000011110001100000001111 "
b1100000001100011111010000000000010001000100010000000000000000 n
#102
b1100000001100000110000000110000011000000011000001100000001100 n
0G#
b0 <$
b0 H$
#103
0l
b0 6$
b0 B$
#104
1G#
b1 <$
b1 H$
#106
1l
b1 6$
b1 B$
#115
b11000010001110010101111010101001000100000001100000010000 I#
b111 +$
13$
15$
b10 K$
#116
b101010101010101010101010000000000000000000000000000000000000000 I#
b1 +$
03$
04$
05$
b0 ?$
b0 K$
#117
b1001001000011011110001111111101000011000001100000001100 n
b111 P"
1X"
1Z"
b111 =#
1H#
b10 E$
b10 H$
#118
b0 n
0X"
0Y"
0Z"
b1000100010001000000000000000000000000000000000 ["
b11111111 =#
0H#
b1000100010001000000000000000000000000000000000 I#
b11111111 +$
14$
b0 9$
b1 ?$
b0 E$
b1 H$
b1 K$
#119
b1100101111011101000111010010101000011110001100000001111 "
b111 b
1m
b1100000010100011111010000000000010001000100010000000000000000 ["
b1100000010001011111010000000000010001000100010000000000000000 I#
b10 B$
#120
b1100110011001100000000000000000000000000000000 "
b11111111 b
0m
b1100000010100000110000001010000011000000101000001100000010100 ["
b1100000010001000110000001000100011000000100010001100000010001 I#
b1 B$
#121
b1100000010000011111010000000000010001000100010000000000000000 "
b1100110011001100000000000000000000000000000000 n
b11111111 P"
1Y"
b1 9$
b1 E$
#122
b1100000010000000110000001000000011000000100000001100000010000 "
b1100000001101011111010000000000010001000100010000000000000000 n
0G#
b0 <$
b0 H$
#123
b1100000001101000110000000110100011000000011010001100000001101 n
#124
0l
b0 6$
b0 B$
#125
1G#
b1 <$
b1 H$
#126
1l
b1 6$
b1 B$
#135
b10000010110011110100110011100001000100010001100000010001 I#
b111 +$
13$
15$
b10 K$
#136
b0 I#
03$
04$
05$
b0 ?$
b0 K$
#138
b1001111110111111000110110101000011010001100000001101 n
b111 P"
1X"
1Z"
b111 =#
1H#
b10 E$
b10 H$
#139
b11000010001110010101111010101001000100000001100000010000 "
b111 b
1m
b101010101010101010101010000000000000000000000000000000000000000 n
b1 P"
0X"
0Y"
0Z"
b1000100010001000000000000000000000000000000000 ["
b11111111 =#
0H#
b1000100010001000000000000000000000000000000000 I#
b11111111 +$
14$
b0 9$
b1 ?$
b10 B$
b0 E$
b1 H$
b1 K$
#140
b1100110011001100000000000000000000000000000000 "
b11111111 b
0m
b1100000010101011111010000000000010001000100010000000000000000 ["
b1100000010010011111010000000000010001000100010000000000000000 I#
b1 B$
#141
b1100000010001011111010000000000010001000100010000000000000000 "
b1100110011001100000000000000000000000000000000 n
b11111111 P"
1Y"
b1100000010101000110000001010100011000000101010001100000010101 ["
b1100000010010000110000001001000011000000100100001100000010010 I#
b1 9$
b1 E$
#142
b1100000010001000110000001000100011000000100010001100000010001 "
b1100000001110011111010000000000010001000100010000000000000000 n
#143
b1100000001110000110000000111000011000000011100001100000001110 n
0G#
b0 <$
b0 H$
#144
0l
b0 6$
b0 B$
#145
1G#
b1 <$
b1 H$
#147
1l
b1 6$
b1 B$
#156
b1000011110101010111101000111001000100100001100000010010 I#
b111 +$
13$
15$
b10 K$
#157
b0 I#
03$
04$
05$
b0 ?$
b0 K$
#158
b11001000111000011100011101101101000011100001100000001110 n
b111 P"
1X"
1Z"
b111 =#
1H#
b10 E$
b10 H$
#159
b0 n
0X"
0Y"
0Z"
b1000100010001000000000000000000000000000000000 ["
b11111111 =#
0H#
b0 9$
b0 E$
b1 H$
#160
b10000010110011110100110011100001000100010001100000010001 "
b111 b
1m
b1100000010110011111010000000000010001000100010000000000000000 ["
b1000100010001000000000000000000000000000000000 I#
b11111111 +$
14$
b1 ?$
b10 B$
b1 K$
#161
b1100110011001100000000000000000000000000000000 "
b11111111 b
0m
b1100000010110000110000001011000011000000101100001100000010110 ["
b1100000010011011111010000000000010001000100010000000000000000 I#
b1 B$
#162
b1100000010010011111010000000000010001000100010000000000000000 "
b1100110011001100000000000000000000000000000000 n
b11111111 P"
1Y"
b1100000010011000110000001001100011000000100110001100000010011 I#
b1 9$
b1 E$
#163
b1100000010010000110000001001000011000000100100001100000010010 "
b1100000001111011111010000000000010001000100010000000000000000 n
0G#
b0 <$
b0 H$
#164
b1100000001111000110000000111100011000000011110001100000001111 n
#165
0l
b0 6$
b0 B$
#166
1G#
b1 <$
b1 H$
#167
1l
b1 6$
b1 B$
#177
b11001000110110100001110001000100110001100000010011 I#
b111 +$
13$
15$
b10 K$
#178
b101010101010101010101010000000000000000000000000000000000000000 I#
b1 +$
03$
04$
05$
b0 ?$
b0 K$
#179
b10001000000101111101010100100101000011110001100000001111 n
b111 P"
1X"
1Z"
b111 =#
1H#
b10 E$
b10 H$
#180
b1000011110101010111101000111001000100100001100000010010 "
b111 b
1m
b0 n
0X"
0Y"
0Z"
b1000100010001000000000000000000000000000000000 ["
b11111111 =#
0H#
b1000100010001000000000000000000000000000000000 I#
b11111111 +$
14$
b0 9$
b1 ?$
b10 B$
b0 E$
b1 H$
b1 K$
#181
b1100110011001100000000000000000000000000000000 "
b11111111 b
0m
b1100000010111011111010000000000010001000100010000000000000000 ["
b1100000010100011111010000000000010001000100010000000000000000 I#
b1 B$
#182
b1100000010011011111010000000000010001000100010000000000000000 "
b1100000010111000110000001011100011000000101110001100000010111 ["
b1100000010100000110000001010000011000000101000001100000010100 I#
#183
b1100000010011000110000001001100011000000100110001100000010011 "
b1100110011001100000000000000000000000000000000 n
b11111111 P"
1Y"
b1 9$
b1 E$
#184
b1100000010000011111010000000000010001000100010000000000000000 n
0G#
b0 <$
b0 H$
#185
0l
b1100000010000000110000001000000011000000100000001100000010000 n
b0 6$
b0 B$
#186
1G#
b1 <$
b1 H$
#188
1l
b1 6$
b1 B$
#197
b11010100100000001000111001000000101000001100000010100 I#
b111 +$
13$
15$
b10 K$
#198
b0 I#
b1 +$
03$
04$
05$
b0 ?$
b0 K$
#199
b111 =#
1H#
b10 H$
#200
b101111110000000000010100011001000100000001100000010000 n
b111 P"
1X"
1Z"
b1000100010001000000000000000000000000000000000 ["
b11111111 =#
0H#
b1000100010001000000000000000000000000000000000 I#
b11111111 +$
14$
b1 ?$
b10 E$
b1 H$
b1 K$
#201
b11001000110110100001110001000100110001100000010011 "
b111 b
1m
b101010101010101010101010000000000000000000000000000000000000000 n
b1 P"
0X"
0Y"
0Z"
b1100000011000011111010000000000010001000100010000000000000000 ["
b1100000010101011111010000000000010001000100010000000000000000 I#
b0 9$
b10 B$
b0 E$
#202
b1100110011001100000000000000000000000000000000 "
b11111111 b
0m
b1100000011000000110000001100000011000000110000001100000011000 ["
b1100000010101000110000001010100011000000101010001100000010101 I#
b1 B$
#203
b1100000010100011111010000000000010001000100010000000000000000 "
b1100110011001100000000000000000000000000000000 n
b11111111 P"
1Y"
b1 9$
b1 E$
#204
b1100000010100000110000001010000011000000101000001100000010100 "
b1100000010001011111010000000000010001000100010000000000000000 n
0G#
b0 <$
b0 H$
#205
b1100000010001000110000001000100011000000100010001100000010001 n
#206
0l
b0 6$
b0 B$
#207
1G#
b1 <$
b1 H$
#208
1l
b1 6$
b1 B$
#217
b1011010011001100000001110000000000101010001100000010101 I#
b111 +$
13$
15$
b10 K$
#218
b0 I#
03$
04$
05$
b0 ?$
b0 K$
#220
b1101111001101100001011101010001000100010001100000010001 n
b111 P"
1X"
1Z"
b111 =#
1H#
b10 E$
b10 H$
#221
b11010100100000001000111001000000101000001100000010100 "
b111 b
1m
b0 n
b1 P"
0X"
0Y"
0Z"
b1000100010001000000000000000000000000000000000 ["
b11111111 =#
0H#
b1000100010001000000000000000000000000000000000 I#
b11111111 +$
14$
b0 9$
b1 ?$
b10 B$
b0 E$
b1 H$
b1 K$
#222
b1100110011001100000000000000000000000000000000 "
b11111111 b
0m
b1100000011001011111010000000000010001000100010000000000000000 ["
b1100000010110011111010000000000010001000100010000000000000000 I#
b1 B$
#223
b1100000010101011111010000000000010001000100010000000000000000 "
b1100110011001100000000000000000000000000000000 n
b11111111 P"
1Y"
b1100000011001000110000001100100011000000110010001100000011001 ["
b1100000010110000110000001011000011000000101100001100000010110 I#
b1 9$
b1 E$
#224
b1100000010101000110000001010100011000000101010001100000010101 "
b1100000010010011111010000000000010001000100010000000000000000 n
#225
b1100000010010000110000001001000011000000100100001100000010010 n
0G#
b0 <$
b0 H$
#226
0l
b0 6$
b0 B$
#227
1G#
b1 <$
b1 H$
#229
1l
b1 6$
b1 B$
#238
b10011011011111000011010101011000000101100001100000010110 I#
b111 +$
13$
15$
b10 K$
#239
b101010101010101010101010000000000000000000000000000000000000000 I#
b1 +$
03$
04$
05$
b0 ?$
b0 K$
#240
b10101110001011000010000110001001000100100001100000010010 n
b111 P"
1X"
1Z"
b111 =#
1H#
b10 E$
b10 H$
#241
b0 n
0X"
0Y"
0Z"
b1000100010001000000000000000000000000000000000 ["
b11111111 =#
0H#
b1000100010001000000000000000000000000000000000 I#
b11111111 +$
14$
b0 9$
b1 ?$
b0 E$
b1 H$
b1 K$
#242
b1011010011001100000001110000000000101010001100000010101 "
b111 b
1m
b1100000011010011111010000000000010001000100010000000000000000 ["
b1100000010111011111010000000000010001000100010000000000000000 I#
b10 B$
#243
b1100110011001100000000000000000000000000000000 "
b11111111 b
0m
b1100000011010000110000001101000011000000110100001100000011010 ["
b1100000010111000110000001011100011000000101110001100000010111 I#
b1 B$
#244
b1100000010110011111010000000000010001000100010000000000000000 "
b1100110011001100000000000000000000000000000000 n
b11111111 P"
1Y"
b1 9$
b1 E$
#245
b1100000010110000110000001011000011000000101100001100000010110 "
b1100000010011011111010000000000010001000100010000000000000000 n
0G#
b0 <$
b0 H$
#246
b1100000010011000110000001001100011000000100110001100000010011 n
#247
0l
b0 6$
b0 B$
#248
1G#
b1 <$
b1 H$
#249
1l
b1 6$
b1 B$
#258
b11011011100010100010011100010000000101110001100000010111 I#
b111 +$
13$
15$
b10 K$
#259
b0 I#
03$
04$
05$
b0 ?$
b0 K$
#261
b11101110110110100011001111000001000100110001100000010011 n
b111 P"
1X"
1Z"
b111 =#
1H#
b10 E$
b10 H$
#262
b10011011011111000011010101011000000101100001100000010110 "
b111 b
1m
b101010101010101010101010000000000000000000000000000000000000000 n
b1 P"
0X"
0Y"
0Z"
b1000100010001000000000000000000000000000000000 ["
b11111111 =#
0H#
b1000100010001000000000000000000000000000000000 I#
b11111111 +$
14$
b0 9$
b1 ?$
b10 B$
b0 E$
b1 H$
b1 K$
#263
b1100110011001100000000000000000000000000000000 "
b11111111 b
0m
b1100000011011011111010000000000010001000100010000000000000000 ["
b1100000011000011111010000000000010001000100010000000000000000 I#
b1 B$
#264
b1100000010111011111010000000000010001000100010000000000000000 "
b1100110011001100000000000000000000000000000000 n
b11111111 P"
1Y"
b1100000011011000110000001101100011000000110110001100000011011 ["
b1100000011000000110000001100000011000000110000001100000011000 I#
b1 9$
b1 E$
#265
b1100000010111000110000001011100011000000101110001100000010111 "
b1100000010100011111010000000000010001000100010000000000000000 n
#266
b1100000010100000110000001010000011000000101000001100000010100 n
0G#
b0 <$
b0 H$
#267
0l
b0 6$
b0 B$
#268
1G#
b1 <$
b1 H$
#270
1l
b1 6$
b1 B$
#279
b10101000000110101100011000101010000110000001100000011000 I#
b111 +$
13$
15$
b10 K$
#280
b0 I#
03$
04$
05$
b0 ?$
b0 K$
#281
b11110111011010010100101001111000000101000001100000010100 n
b111 P"
1X"
1Z"
b111 =#
1H#
b10 E$
b10 H$
#282
b0 n
0X"
0Y"
0Z"
b1000100010001000000000000000000000000000000000 ["
b11111111 =#
0H#
b0 9$
b0 E$
b1 H$
#283
b11011011100010100010011100010000000101110001100000010111 "
b111 b
1m
b1100000011100011111010000000000010001000100010000000000000000 ["
b1000100010001000000000000000000000000000000000 I#
b11111111 +$
14$
b1 ?$
b10 B$
b1 K$
#284
b1100110011001100000000000000000000000000000000 "
b11111111 b
0m
b1100000011100000110000001110000011000000111000001100000011100 ["
b1100000011001011111010000000000010001000100010000000000000000 I#
b1 B$
#285
b1100000011000011111010000000000010001000100010000000000000000 "
b1100110011001100000000000000000000000000000000 n
b11111111 P"
1Y"
b1100000011001000110000001100100011000000110010001100000011001 I#
b1 9$
b1 E$
#286
b1100000011000000110000001100000011000000110000001100000011000 "
b1100000010101011111010000000000010001000100010000000000000000 n
0G#
b0 <$
b0 H$
#287
b1100000010101000110000001010100011000000101010001100000010101 n
#288
0l
b0 6$
b0 B$
#289
1G#
b1 <$
b1 H$
#290
1l
b1 6$
b1 B$
#300
b11101000111011001101010001100010000110010001100000011001 I#
b111 +$
13$
15$
b10 K$
#301
b101010101010101010101010000000000000000000000000000000000000000 I#
b1 +$
03$
04$
05$
b0 ?$
b0 K$
#302
b10110111100111110101100000110000000101010001100000010101 n
b111 P"
1X"
1Z"
b111 =#
1H#
b10 E$
b10 H$
#303
b10101000000110101100011000101010000110000001100000011000 "
b111 b
1m
b0 n
0X"
0Y"
0Z"
b1000100010001000000000000000000000000000000000 ["
b11111111 =#
0H#
b1000100010001000000000000000000000000000000000 I#
b11111111 +$
14$
b0 9$
b1 ?$
b10 B$
b0 E$
b1 H$
b1 K$
#304
b1100110011001100000000000000000000000000000000 "
b11111111 b
0m
b1100000011101011111010000000000010001000100010000000000000000 ["
b1100000011010011111010000000000010001000100010000000000000000 I#
b1 B$
#305
b1100000011001011111010000000000010001000100010000000000000000 "
b1100000011101000110000001110100011000000111010001100000011101 ["
b1100000011010000110000001101000011000000110100001100000011010 I#
#306
b1100000011001000110000001100100011000000110010001100000011001 "
b1100110011001100000000000000000000000000000000 n
b11111111 P"
1Y"
b1 9$
b1 E$
#307
b1100000010110011111010000000000010001000100010000000000000000 n
0G#
b0 <$
b0 H$
#308
0l
b1100000010110000110000001011000011000000101100001100000010110 n
b0 6$
b0 B$
#309
1G#
b1 <$
b1 H$
#311
1l
b1 6$
b1 B$
#320
b101001111101101110001010111010000110100001100000011010 I#
b111 +$
13$
15$
b10 K$
#321
b0 I#
b1 +$
03$
04$
05$
b0 ?$
b0 K$
#322
b111 =#
1H#
b10 H$
#323
b1110110100001010110111011101000000101100001100000010110 n
b111 P"
1X"
1Z"
b1000100010001000000000000000000000000000000000 ["
b11111111 =#
0H#
b1000100010001000000000000000000000000000000000 I#
b11111111 +$
14$
b1 ?$
b10 E$
b1 H$
b1 K$
#324
b11101000111011001101010001100010000110010001100000011001 "
b111 b
1m
b101010101010101010101010000000000000000000000000000000000000000 n
b1 P"
0X"
0Y"
0Z"
b1100000011110011111010000000000010001000100010000000000000000 ["
b1100000011011011111010000000000010001000100010000000000000000 I#
b0 9$
b10 B$
b0 E$
#325
b1100110011001100000000000000000000000000000000 "
b11111111 b
0m
b1100000011110000110000001111000011000000111100001100000011110 ["
b1100000011011000110000001101100011000000110110001100000011011 I#
b1 B$
#326
b1100000011010011111010000000000010001000100010000000000000000 "
b1100110011001100000000000000000000000000000000 n
b11111111 P"
1Y"
b1 9$
b1 E$
#327
b1100000011010000110000001101000011000000110100001100000011010 "
b1100000010111011111010000000000010001000100010000000000000000 n
0G#
b0 <$
b0 H$
#328
b1100000010111000110000001011100011000000101110001100000010111 n
#329
0l
b0 6$
b0 B$
#330
1G#
b1 <$
b1 H$
#331
1l
b1 6$
b1 B$
#340
b1101001000000001111000011110010000110110001100000011011 I#
b111 +$
13$
15$
b10 K$
#341
b0 I#
03$
04$
05$
b0 ?$
b0 K$
#343
b110110011100110111110010100000000101110001100000010111 n
b111 P"
1X"
1Z"
b111 =#
1H#
b10 E$
b10 H$
#344
b101001111101101110001010111010000110100001100000011010 "
b111 b
1m
b0 n
b1 P"
0X"
0Y"
0Z"
b1000100010001000000000000000000000000000000000 ["
b11111111 =#
0H#
b1000100010001000000000000000000000000000000000 I#
b11111111 +$
14$
b0 9$
b1 ?$
b10 B$
b0 E$
b1 H$
b1 K$
#345
b1100110011001100000000000000000000000000000000 "
b11111111 b
0m
b1100000011111011111010000000000010001000100010000000000000000 ["
b1100000011100011111010000000000010001000100010000000000000000 I#
b1 B$
#346
b1100000011011011111010000000000010001000100010000000000000000 "
b1100110011001100000000000000000000000000000000 n
b11111111 P"
1Y"
b1100000011111000110000001111100011000000111110001100000011111 ["
b1100000011100000110000001110000011000000111000001100000011100 I#
b1 9$
b1 E$
#347
b1100000011011000110000001101100011000000110110001100000011011 "
b1100000011000011111010000000000010001000100010000000000000000 n
#348
b1100000011000000110000001100000011000000110000001100000011000 n
0G#
b0 <$
b0 H$
#349
0l
b0 6$
b0 B$
#350
1G#
b1 <$
b1 H$
#352
1l
b1 6$
b1 B$
#361
b1110000101100111000100101001011000111000001100000011100 I#
b111 +$
13$
15$
b10 K$
#362
b101010101010101010101010000000000000000000000000000000000000000 I#
b1 +$
03$
04$
05$
b0 ?$
b0 K$
#363
b1000101111000111001110110011010000110000001100000011000 n
b111 P"
1X"
1Z"
b111 =#
1H#
b10 E$
b10 H$
#364
b0 n
0X"
0Y"
0Z"
b1000100010001000000000000000000000000000000000 ["
b11111111 =#
0H#
b1000100010001000000000000000000000000000000000 I#
b11111111 +$
14$
b0 9$
b1 ?$
b0 E$
b1 H$
b1 K$
#365
b1101001000000001111000011110010000110110001100000011011 "
b111 b
1m
b1100000100000011111010000000000010001000100010000000000000000 ["
b1100000011101011111010000000000010001000100010000000000000000 I#
b10 B$
#366
b1100110011001100000000000000000000000000000000 "
b11111111 b
0m
b1100000100000000110000010000000011000001000000001100000100000 ["
b1100000011101000110000001110100011000000111010001100000011101 I#
b1 B$
#367
b1100000011100011111010000000000010001000100010000000000000000 "
b1100110011001100000000000000000000000000000000 n
b11111111 P"
1Y"
b1 9$
b1 E$
#368
b1100000011100000110000001110000011000000111000001100000011100 "
b1100000011001011111010000000000010001000100010000000000000000 n
0G#
b0 <$
b0 H$
#369
b1100000011001000110000001100100011000000110010001100000011001 n
#370
0l
b0 6$
b0 B$
#371
1G#
b1 <$
b1 H$
#372
1l
b1 6$
b1 B$
#381
b110000010001011001101100000011000111010001100000011101 I#
b111 +$
13$
15$
b10 K$
#382
b0 I#
03$
04$
05$
b0 ?$
b0 K$
#384
b101000101011000111111010010000110010001100000011001 n
b111 P"
1X"
1Z"
b111 =#
1H#
b10 E$
b10 H$
#385
b1110000101100111000100101001011000111000001100000011100 "
b111 b
1m
b101010101010101010101010000000000000000000000000000000000000000 n
b1 P"
0X"
0Y"
0Z"
b1000100010001000000000000000000000000000000000 ["
b11111111 =#
0H#
b1000100010001000000000000000000000000000000000 I#
b11111111 +$
14$
b0 9$
b1 ?$
b10 B$
b0 E$
b1 H$
b1 K$
#386
b1100110011001100000000000000000000000000000000 "
b11111111 b
0m
b1100000100001011111010000000000010001000100010000000000000000 ["
b1100000011110011111010000000000010001000100010000000000000000 I#
b1 B$
