kcu105_10gbaser_trd/hardware/vivado/runs/impl_run/.Xil/Vivado-23532-DESKTOP-I48MRRI/hw_ila_data_2/zip_work/waveform.vcd
$date
        2019-Nov-05 19:11:39
$end
$version
        Vivado v2018.3 (64-bit)
$end
$timescale
        1ps
$end
$scope module dut $end
$var reg 64 " axi_stream_gen_mon_1/rx_axis_tdata [63:0] $end
$var reg 8 b axi_stream_gen_mon_1/rx_axis_tkeep [7:0] $end
$var reg 1 j axi_stream_gen_mon_1/rx_axis_tvalid $end
$var reg 1 k axi_stream_gen_mon_1/rx_axis_tlast $end
$var reg 1 l axi_stream_gen_mon_1/rx_axis_tuser $end
$var reg 1 m axi_stream_gen_mon_1/rx_axis_tready $end
$var reg 64 n axi_stream_gen_mon_1/tx_axis_tdata [63:0] $end
$var reg 8 P" axi_stream_gen_mon_1/tx_axis_tkeep [7:0] $end
$var reg 1 X" axi_stream_gen_mon_1/tx_axis_tvalid $end
$var reg 1 Y" axi_stream_gen_mon_1/tx_axis_tlast $end
$var reg 1 Z" axi_stream_gen_mon_1/tx_axis_tuser $end
$var reg 1 [" axi_stream_gen_mon_1/tx_axis_tready_1 $end
$var reg 64 \" axi_stream_gen_mon_1/tx_axis_tdata_lb [63:0] $end
$var reg 8 ># axi_stream_gen_mon_1/tx_axis_tkeep_lb [7:0] $end
$var reg 1 F# axi_stream_gen_mon_1/tx_axis_tvalid_lb $end
$var reg 1 G# axi_stream_gen_mon_1/tx_axis_tlast_lb $end
$var reg 1 H# axi_stream_gen_mon_1/tx_axis_tuser_lb $end
$var reg 1 I# axi_stream_gen_mon_1/rx_axis_tready_lb $end
$var reg 64 J# axi_stream_gen_mon_1/tx_axis_tdata_g [63:0] $end
$var reg 8 ,$ axi_stream_gen_mon_1/tx_axis_tkeep_g [7:0] $end
$var reg 1 4$ axi_stream_gen_mon_1/tx_axis_tvalid_g $end
$var reg 1 5$ axi_stream_gen_mon_1/tx_axis_tlast_g $end
$var reg 1 6$ axi_stream_gen_mon_1/tx_axis_tuser_g $end
$var reg 1 7$ axi_stream_gen_mon_1/tx_axis_tready $end
$var reg 1 8$ _TRIGGER $end
$var reg 1 9$ _WINDOW $end
$var reg 1 :$ _GAP $end
$upscope $end
$enddefinitions $end
#0
$dumpvars
b10000011111111001000001111111100100000111111110010000011111111 "
b11111111 b
1j
0k
0l
1m
b10000100000110001000010000011000100001000001100010000100000110 n
b11111111 P"
1X"
0Y"
0Z"
1["
b1100110011001100000000000000000000000000000000 \"
b11111111 >#
1F#
0G#
0H#
1I#
b10000100000110001000010000011000100001000001100010000100000110 J#
b11111111 ,$
14$
05$
06$
17$
08$
19$
0:$
$end
#7
b10010000000101101000010001001100111111110010000011111111 "
b111 b
1k
1l
#8
b0 "
0j
0k
0l
#9
b111 P"
1Y"
b111 ,$
15$
#10
b1000100010001000000000000000000000000000000000 n
b11111111 P"
0Y"
b111 >#
1G#
b1000100010001000000000000000000000000000000000 J#
b11111111 ,$
05$
#11
b1100110011001100000000000000000000000000000000 "
b11111111 b
1j
b10000100000111011111010000000000010001000100010000000000000000 n
b11111111 >#
0G#
b10000100000111011111010000000000010001000100010000000000000000 J#
#12
b10000100000000011111010000000000010001000100010000000000000000 "
b10000100000111001000010000011100100001000001110010000100000111 n
b10000100000111001000010000011100100001000001110010000100000111 J#
#13
b10000100000000001000010000000000100001000000000010000100000000 "
#14
0["
07$
#16
1["
17$
#28
b10011110010101010100000100111001000000000010000100000000 "
b111 b
1k
1l
#29
b101010101010101010101010000000000000000000000000000000000000000 "
b1 b
0j
0k
0l
b111 P"
1Y"
b111 ,$
15$
#30
b1000100010001000000000000000000000000000000000 n
b11111111 P"
0Y"
b111 >#
1G#
b1000100010001000000000000000000000000000000000 J#
b11111111 ,$
05$
#31
b1100110011001100000000000000000000000000000000 "
b11111111 b
1j
b10000100001000011111010000000000010001000100010000000000000000 n
b11111111 >#
0G#
b10000100001000011111010000000000010001000100010000000000000000 J#
#32
b10000100000001011111010000000000010001000100010000000000000000 "
b10000100001000001000010000100000100001000010000010000100001000 n
b10000100001000001000010000100000100001000010000010000100001000 J#
#33
b10000100000001001000010000000100100001000000010010000100000001 "
#34
0["
07$
#37
1["
17$
#48
b11011110101000110101001101110001000000010010000100000001 "
b111 b
1k
1l
#49
b0 "
0j
0k
0l
#50
b111 P"
1Y"
b111 ,$
15$
#51
b1000100010001000000000000000000000000000000000 n
b11111111 P"
0Y"
b111 >#
1G#
b1000100010001000000000000000000000000000000000 J#
b11111111 ,$
05$
#52
b1100110011001100000000000000000000000000000000 "
b11111111 b
1j
b10000100001001011111010000000000010001000100010000000000000000 n
b11111111 >#
0G#
b10000100001001011111010000000000010001000100010000000000000000 J#
#53
b10000100000010011111010000000000010001000100010000000000000000 "
b10000100001001001000010000100100100001000010010010000100001001 n
b10000100001001001000010000100100100001000010010010000100001001 J#
#54
b10000100000010001000010000001000100001000000100010000100000010 "
#55
0["
07$
#57
1["
17$
#69
b11111101110010110010110101001000000100010000100000010 "
b111 b
1k
1l
#70
b0 "
0j
0k
0l
b111 P"
1Y"
b111 ,$
15$
#71
b1000100010001000000000000000000000000000000000 n
b11111111 P"
0Y"
b111 >#
1G#
b1000100010001000000000000000000000000000000000 J#
b11111111 ,$
05$
#72
b10000100001010011111010000000000010001000100010000000000000000 n
b11111111 >#
0G#
b10000100001010011111010000000000010001000100010000000000000000 J#
#73
b1100110011001100000000000000000000000000000000 "
b11111111 b
1j
b10000100001010001000010000101000100001000010100010000100001010 n
b10000100001010001000010000101000100001000010100010000100001010 J#
#74
b10000100000011011111010000000000010001000100010000000000000000 "
#75
b10000100000011001000010000001100100001000000110010000100000011 "
0["
07$
#78
1["
17$
#90
b1011111010011110111011111100001000000110010000100000011 "
b111 b
1k
1l
#91
b101010101010101010101010000000000000000000000000000000000000000 "
b1 b
0j
0k
0l
b111 P"
1Y"
b111 ,$
15$
#92
b1000100010001000000000000000000000000000000000 n
b11111111 P"
0Y"
b111 >#
1G#
b1000100010001000000000000000000000000000000000 J#
b11111111 ,$
05$
#93
b1100110011001100000000000000000000000000000000 "
b11111111 b
1j
b10000100001011011111010000000000010001000100010000000000000000 n
b11111111 >#
0G#
b10000100001011011111010000000000010001000100010000000000000000 J#
#94
b10000100000100011111010000000000010001000100010000000000000000 "
b10000100001011001000010000101100100001000010110010000100001011 n
b10000100001011001000010000101100100001000010110010000100001011 J#
#95
b10000100000100001000010000010000100001000001000010000100000100 "
#96
0["
07$
#98
1["
17$
#110
b1000110111111000000111001011000000001000010000100000100 "
b111 b
1k
1l
#111
b0 "
b1 b
0j
0k
0l
b111 P"
1Y"
b111 ,$
15$
#112
b1000100010001000000000000000000000000000000000 n
b11111111 P"
0Y"
b111 >#
1G#
b1000100010001000000000000000000000000000000000 J#
b11111111 ,$
05$
#113
b1100110011001100000000000000000000000000000000 "
b11111111 b
1j
b10000100001100011111010000000000010001000100010000000000000000 n
b11111111 >#
0G#
b10000100001100011111010000000000010001000100010000000000000000 J#
#114
b10000100000101011111010000000000010001000100010000000000000000 "
b10000100001100001000010000110000100001000011000010000100001100 n
b10000100001100001000010000110000100001000011000010000100001100 J#
#115
b10000100000101001000010000010100100001000001010010000100000101 "
#116
0["
07$
#119
1["
17$
#130
b110000010100001110000010000000001010010000100000101 "
b111 b
1k
1l
#131
b0 "
0j
0k
0l
#132
b111 P"
1Y"
b111 ,$
15$
#133
b1000100010001000000000000000000000000000000000 n
b11111111 P"
0Y"
b111 >#
1G#
b1000100010001000000000000000000000000000000000 J#
b11111111 ,$
05$
#134
b1100110011001100000000000000000000000000000000 "
b11111111 b
1j
b10000100001101011111010000000000010001000100010000000000000000 n
b11111111 >#
0G#
b10000100001101011111010000000000010001000100010000000000000000 J#
#135
b10000100000110011111010000000000010001000100010000000000000000 "
b10000100001101001000010000110100100001000011010010000100001101 n
b10000100001101001000010000110100100001000011010010000100001101 J#
#136
b10000100000110001000010000011000100001000001100010000100000110 "
#137
0["
07$
#139
1["
17$
#151
b11000111000100000010101011001000000001100010000100000110 "
b111 b
1k
1l
#152
b101010101010101010101010000000000000000000000000000000000000000 "
b1 b
0j
0k
0l
b111 P"
1Y"
b111 ,$
15$
#153
b1000100010001000000000000000000000000000000000 n
b11111111 P"
0Y"
b111 >#
1G#
b1000100010001000000000000000000000000000000000 J#
b11111111 ,$
05$
#154
b1100110011001100000000000000000000000000000000 "
b11111111 b
1j
b10000100001110011111010000000000010001000100010000000000000000 n
b11111111 >#
0G#
b10000100001110011111010000000000010001000100010000000000000000 J#
#155
b10000100000111011111010000000000010001000100010000000000000000 "
b10000100001110001000010000111000100001000011100010000100001110 n
b10000100001110001000010000111000100001000011100010000100001110 J#
#156
b10000100000111001000010000011100100001000001110010000100000111 "
#157
0["
07$
#160
1["
17$
#171
b10000111111001100011100010000000000001110010000100000111 "
b111 b
1k
1l
#172
b0 "
0j
0k
0l
#173
b111 P"
1Y"
b111 ,$
15$
#174
b1000100010001000000000000000000000000000000000 n
b11111111 P"
0Y"
b111 >#
1G#
b1000100010001000000000000000000000000000000000 J#
b11111111 ,$
05$
#175
b1100110011001100000000000000000000000000000000 "
b11111111 b
1j
b10000100001111011111010000000000010001000100010000000000000000 n
b11111111 >#
0G#
b10000100001111011111010000000000010001000100010000000000000000 J#
#176
b10000100001000011111010000000000010001000100010000000000000000 "
b10000100001111001000010000111100100001000011110010000100001111 n
b10000100001111001000010000111100100001000011110010000100001111 J#
#177
b10000100001000001000010000100000100001000010000010000100001000 "
#178
0["
07$
#180
1["
17$
#192
b11110100011101101101100110111010000010000010000100001000 "
b111 b
1k
1l
#193
b0 "
0j
0k
0l
b111 P"
1Y"
b111 ,$
15$
#194
b1000100010001000000000000000000000000000000000 n
b11111111 P"
0Y"
b111 >#
1G#
b1000100010001000000000000000000000000000000000 J#
b11111111 ,$
05$
#195
b10000100010000011111010000000000010001000100010000000000000000 n
b11111111 >#
0G#
b10000100010000011111010000000000010001000100010000000000000000 J#
#196
b1100110011001100000000000000000000000000000000 "
b11111111 b
1j
b10000100010000001000010001000000100001000100000010000100010000 n
b10000100010000001000010001000000100001000100000010000100010000 J#
#197
b10000100001001011111010000000000010001000100010000000000000000 "
#198
b10000100001001001000010000100100100001000010010010000100001001 "
0["
07$
#201
1["
17$
#213
b10110100100000001100101111110010000010010010000100001001 "
b111 b
1k
1l
#214
b101010101010101010101010000000000000000000000000000000000000000 "
b1 b
0j
0k
0l
b111 P"
1Y"
b111 ,$
15$
#215
b1000100010001000000000000000000000000000000000 n
b11111111 P"
0Y"
b111 >#
1G#
b1000100010001000000000000000000000000000000000 J#
b11111111 ,$
05$
#216
b1100110011001100000000000000000000000000000000 "
b11111111 b
1j
b10000100010001011111010000000000010001000100010000000000000000 n
b11111111 >#
0G#
b10000100010001011111010000000000010001000100010000000000000000 J#
#217
b10000100001010011111010000000000010001000100010000000000000000 "
b10000100010001001000010001000100100001000100010010000100010001 n
b10000100010001001000010001000100100001000100010010000100010001 J#
#218
b10000100001010001000010000101000100001000010100010000100001010 "
#219
0["
07$
#221
1["
17$
#233
b1110101100110101111110100101010000010100010000100001010 "
b111 b
1k
1l
#234
b0 "
b1 b
0j
0k
0l
b111 P"
1Y"
b111 ,$
15$
#235
b1000100010001000000000000000000000000000000000 n
b11111111 P"
0Y"
b111 >#
1G#
b1000100010001000000000000000000000000000000000 J#
b11111111 ,$
05$
#236
b1100110011001100000000000000000000000000000000 "
b11111111 b
1j
b10000100010010011111010000000000010001000100010000000000000000 n
b11111111 >#
0G#
b10000100010010011111010000000000010001000100010000000000000000 J#
#237
b10000100001011011111010000000000010001000100010000000000000000 "
b10000100010010001000010001001000100001000100100010000100010010 n
b10000100010010001000010001001000100001000100100010000100010010 J#
#238
b10000100001011001000010000101100100001000010110010000100001011 "
#239
0["
07$
#242
1["
17$
#253
b110101011011001110111101100010000010110010000100001011 "
b111 b
1k
1l
#254
b0 "
0j
0k
0l
#255
b111 P"
1Y"
b111 ,$
15$
#256
b1000100010001000000000000000000000000000000000 n
b11111111 P"
0Y"
b111 >#
1G#
b1000100010001000000000000000000000000000000000 J#
b11111111 ,$
05$
#257
b1100110011001100000000000000000000000000000000 "
b11111111 b
1j
b10000100010011011111010000000000010001000100010000000000000000 n
b11111111 >#
0G#
b10000100010011011111010000000000010001000100010000000000000000 J#
#258
b10000100001100011111010000000000010001000100010000000000000000 "
b10000100010011001000010001001100100001000100110010000100010011 n
b10000100010011001000010001001100100001000100110010000100010011 J#
#259
b10000100001100001000010000110000100001000011000010000100001100 "
#260
0["
07$
#262
1["
17$
#274
b101100110111111001011011011011000011000010000100001100 "
b111 b
1k
1l
#275
b101010101010101010101010000000000000000000000000000000000000000 "
b1 b
0j
0k
0l
b111 P"
1Y"
b111 ,$
15$
#276
b1000100010001000000000000000000000000000000000 n
b11111111 P"
0Y"
b111 >#
1G#
b1000100010001000000000000000000000000000000000 J#
b11111111 ,$
05$
#277
b1100110011001100000000000000000000000000000000 "
b11111111 b
1j
b10000100010100011111010000000000010001000100010000000000000000 n
b11111111 >#
0G#
b10000100010100011111010000000000010001000100010000000000000000 J#
#278
b10000100001101011111010000000000010001000100010000000000000000 "
b10000100010100001000010001010000100001000101000010000100010100 n
b10000100010100001000010001010000100001000101000010000100010100 J#
#279
b10000100001101001000010000110100100001000011010010000100001101 "
#280
0["
07$
#283
1["
17$
#294
b1101100001010011000010010010011000011010010000100001101 "
b111 b
1k
1l
#295
b0 "
0j
0k
0l
#296
b111 P"
1Y"
b111 ,$
15$
#297
b1000100010001000000000000000000000000000000000 n
b11111111 P"
0Y"
b111 >#
1G#
b1000100010001000000000000000000000000000000000 J#
b11111111 ,$
05$
#298
b1100110011001100000000000000000000000000000000 "
b11111111 b
1j
b10000100010101011111010000000000010001000100010000000000000000 n
b11111111 >#
0G#
b10000100010101011111010000000000010001000100010000000000000000 J#
#299
b10000100001110011111010000000000010001000100010000000000000000 "
b10000100010101001000010001010100100001000101010010000100010101 n
b10000100010101001000010001010100100001000101010010000100010101 J#
#300
b10000100001110001000010000111000100001000011100010000100001110 "
#301
0["
07$
#303
1["
17$
#315
b10101101001100111011001001001011000011100010000100001110 "
b111 b
1k
1l
#316
b0 "
0j
0k
0l
b111 P"
1Y"
b111 ,$
15$
#317
b1000100010001000000000000000000000000000000000 n
b11111111 P"
0Y"
b111 >#
1G#
b1000100010001000000000000000000000000000000000 J#
b11111111 ,$
05$
#318
b10000100010110011111010000000000010001000100010000000000000000 n
b11111111 >#
0G#
b10000100010110011111010000000000010001000100010000000000000000 J#
#319
b1100110011001100000000000000000000000000000000 "
b11111111 b
1j
b10000100010110001000010001011000100001000101100010000100010110 n
b10000100010110001000010001011000100001000101100010000100010110 J#
#320
b10000100001111011111010000000000010001000100010000000000000000 "
#321
b10000100001111001000010000111100100001000011110010000100001111 "
0["
07$
#324
1["
17$
#336
b11101101110001011010000000000011000011110010000100001111 "
b111 b
1k
1l
#337
b101010101010101010101010000000000000000000000000000000000000000 "
b1 b
0j
0k
0l
b111 P"
1Y"
b111 ,$
15$
#338
b1000100010001000000000000000000000000000000000 n
b11111111 P"
0Y"
b111 >#
1G#
b1000100010001000000000000000000000000000000000 J#
b11111111 ,$
05$
#339
b1100110011001100000000000000000000000000000000 "
b11111111 b
1j
b10000100010111011111010000000000010001000100010000000000000000 n
b11111111 >#
0G#
b10000100010111011111010000000000010001000100010000000000000000 J#
#340
b10000100010000011111010000000000010001000100010000000000000000 "
b10000100010111001000010001011100100001000101110010000100010111 n
b10000100010111001000010001011100100001000101110010000100010111 J#
#341
b10000100010000001000010001000000100001000100000010000100010000 "
#342
0["
07$
#344
1["
17$
#356
b1001010000100100111000000111111000100000010000100010000 "
b111 b
1k
1l
#357
b0 "
b1 b
0j
0k
0l
b111 P"
1Y"
b111 ,$
15$
#358
b1000100010001000000000000000000000000000000000 n
b11111111 P"
0Y"
b111 >#
1G#
b1000100010001000000000000000000000000000000000 J#
b11111111 ,$
05$
#359
b1100110011001100000000000000000000000000000000 "
b11111111 b
1j
b10000100011000011111010000000000010001000100010000000000000000 n
b11111111 >#
0G#
b10000100011000011111010000000000010001000100010000000000000000 J#
#360
b10000100010001011111010000000000010001000100010000000000000000 "
b10000100011000001000010001100000100001000110000010000100011000 n
b10000100011000001000010001100000100001000110000010000100011000 J#
#361
b10000100010001001000010001000100100001000100010010000100010001 "
#362
0["
07$
#365
1["
17$
#376
b1010111001000110001001110111000100010010000100010001 "
b111 b
1k
1l
#377
b0 "
0j
0k
0l
#378
b111 P"
1Y"
b111 ,$
15$
#379
b1000100010001000000000000000000000000000000000 n
b11111111 P"
0Y"
b111 >#
1G#
b1000100010001000000000000000000000000000000000 J#
b11111111 ,$
05$
#380
b1100110011001100000000000000000000000000000000 "
b11111111 b
1j
b10000100011001011111010000000000010001000100010000000000000000 n
b11111111 >#
0G#
b10000100011001011111010000000000010001000100010000000000000000 J#
#381
b10000100010010011111010000000000010001000100010000000000000000 "
b10000100011001001000010001100100100001000110010010000100011001 n
b10000100011001001000010001100100100001000110010010000100011001 J#
#382
b10000100010010001000010001001000100001000100100010000100010010 "
#383
0["
07$
#385
1["
17$
#397
b11001011111111100101010010101111000100100010000100010010 "
b111 b
1k
1l
#398
b101010101010101010101010000000000000000000000000000000000000000 "
b1 b
0j
0k
0l
b111 P"
1Y"
b111 ,$
15$
#399
b1000100010001000000000000000000000000000000000 n
b11111111 P"
0Y"
b111 >#
1G#
b1000100010001000000000000000000000000000000000 J#
b11111111 ,$
05$
#400
b1100110011001100000000000000000000000000000000 "
b11111111 b
1j
b10000100011010011111010000000000010001000100010000000000000000 n
b11111111 >#
0G#
b10000100011010011111010000000000010001000100010000000000000000 J#
#401
b10000100010011011111010000000000010001000100010000000000000000 "
b10000100011010001000010001101000100001000110100010000100011010 n
b10000100011010001000010001101000100001000110100010000100011010 J#
#402
b10000100010011001000010001001100100001000100110010000100010011 "
#403
0["
07$
#406
1["
17$
#417
b10001011000010000100011011100111000100110010000100010011 "
b111 b
1k
1l
#418
b0 "
0j
0k
0l
#419
b111 P"
1Y"
b111 ,$
15$
#420
b1000100010001000000000000000000000000000000000 n
b11111111 P"
0Y"
b111 >#
1G#
b1000100010001000000000000000000000000000000000 J#
b11111111 ,$
05$
#421
b1100110011001100000000000000000000000000000000 "
b11111111 b
1j
b10000100011011011111010000000000010001000100010000000000000000 n
b11111111 >#
0G#
b10000100011011011111010000000000010001000100010000000000000000 J#
#422
b10000100010100011111010000000000010001000100010000000000000000 "
b10000100011011001000010001101100100001000110110010000100011011 n
b10000100011011001000010001101100100001000110110010000100011011 J#
#423
b10000100010100001000010001010000100001000101000010000100010100 "
#424
0["
07$
#426
1["
17$
#438
b10010010101110110011111101011110000101000010000100010100 "
b111 b
1k
1l
#439
b0 "
0j
0k
0l
b111 P"
1Y"
b111 ,$
15$
#440
b1000100010001000000000000000000000000000000000 n
b11111111 P"
0Y"
b111 >#
1G#
b1000100010001000000000000000000000000000000000 J#
b11111111 ,$
05$
#441
b10000100011100011111010000000000010001000100010000000000000000 n
b11111111 >#
0G#
b10000100011100011111010000000000010001000100010000000000000000 J#
#442
b1100110011001100000000000000000000000000000000 "
b11111111 b
1j
b10000100011100001000010001110000100001000111000010000100011100 n
b10000100011100001000010001110000100001000111000010000100011100 J#
#443
b10000100010101011111010000000000010001000100010000000000000000 "
#444
b10000100010101001000010001010100100001000101010010000100010101 "
0["
07$
#447
1["
17$
#459
b11010010010011010010110100010110000101010010000100010101 "
b111 b
1k
1l
#460
b101010101010101010101010000000000000000000000000000000000000000 "
b1 b
0j
0k
0l
b111 P"
1Y"
b111 ,$
15$
#461
b1000100010001000000000000000000000000000000000 n
b11111111 P"
0Y"
b111 >#
1G#
b1000100010001000000000000000000000000000000000 J#
b11111111 ,$
05$
#462
b1100110011001100000000000000000000000000000000 "
b11111111 b
1j
b10000100011101011111010000000000010001000100010000000000000000 n
b11111111 >#
0G#
b10000100011101011111010000000000010001000100010000000000000000 J#
#463
b10000100010110011111010000000000010001000100010000000000000000 "
b10000100011101001000010001110100100001000111010010000100011101 n
b10000100011101001000010001110100100001000111010010000100011101 J#
#464
b10000100010110001000010001011000100001000101100010000100010110 "
#465
0["
07$
#467
1["
17$
#479
b10011010101110001101111001110000101100010000100010110 "
b111 b
1k
1l
#480
b0 "
b1 b
0j
0k
0l
b111 P"
1Y"
b111 ,$
15$
#481
b1000100010001000000000000000000000000000000000 n
b11111111 P"
0Y"
b111 >#
1G#
b1000100010001000000000000000000000000000000000 J#
b11111111 ,$
05$
#482
b1100110011001100000000000000000000000000000000 "
b11111111 b
1j
b10000100011110011111010000000000010001000100010000000000000000 n
b11111111 >#
0G#
b10000100011110011111010000000000010001000100010000000000000000 J#
#483
b10000100010111011111010000000000010001000100010000000000000000 "
b10000100011110001000010001111000100001000111100010000100011110 n
b10000100011110001000010001111000100001000111100010000100011110 J#
#484
b10000100010111001000010001011100100001000101110010000100010111 "
#485
0["
07$
#488
1["
17$
#499
b1010011101000010000100110000110000101110010000100010111 "
b111 b
1k
1l
#500
b0 "
0j
0k
0l
#501
b111 P"
1Y"
b111 ,$
15$
#502
b1000100010001000000000000000000000000000000000 n
b11111111 P"
0Y"
b111 >#
1G#
b1000100010001000000000000000000000000000000000 J#
b11111111 ,$
05$
#503
b1100110011001100000000000000000000000000000000 "
b11111111 b
1j
b10000100011111011111010000000000010001000100010000000000000000 n
b11111111 >#
0G#
b10000100011111011111010000000000010001000100010000000000000000 J#
#504
b10000100011000011111010000000000010001000100010000000000000000 "
b10000100011111001000010001111100100001000111110010000100011111 n
b10000100011111001000010001111100100001000111110010000100011111 J#
#505
b10000100011000001000010001100000100001000110000010000100011000 "
#506
0["
07$
#508
1["
17$
#520
b100000001100011110100010111100000110000010000100011000 "
b111 b
1k
1l
#521
b101010101010101010101010000000000000000000000000000000000000000 "
b1 b
0j
0k
0l
b111 P"
1Y"
b111 ,$
15$
#522
b1000100010001000000000000000000000000000000000 n
b11111111 P"
0Y"
b111 >#
1G#
b1000100010001000000000000000000000000000000000 J#
b11111111 ,$
05$
#523
b1100110011001100000000000000000000000000000000 "
b11111111 b
1j
b10000100100000011111010000000000010001000100010000000000000000 n
b11111111 >#
0G#
b10000100100000011111010000000000010001000100010000000000000000 J#
#524
b10000100011001011111010000000000010001000100010000000000000000 "
b10000100100000001000010010000000100001001000000010000100100000 n
b10000100100000001000010010000000100001001000000010000100100000 J#
#525
b10000100011001001000010001100100100001000110010010000100011001 "
#526
0["
07$
#529
1["
17$
#540
b1100000110001111111101011110100000110010010000100011001 "
b111 b
1k
1l
#541
b0 "
0j
0k
0l
#542
b111 P"
1Y"
b111 ,$
15$
#543
b1000100010001000000000000000000000000000000000 n
b11111111 P"
0Y"
b111 >#
1G#
b1000100010001000000000000000000000000000000000 J#
b11111111 ,$
05$
#544
b1100110011001100000000000000000000000000000000 "
b11111111 b
1j
b10000100100001011111010000000000010001000100010000000000000000 n
b11111111 >#
0G#
b10000100100001011111010000000000010001000100010000000000000000 J#
#545
b10000100011010011111010000000000010001000100010000000000000000 "
b10000100100001001000010010000100100001001000010010000100100001 n
b10000100100001001000010010000100100001001000010010000100100001 J#
#546
b10000100011010001000010001101000100001000110100010000100011010 "
#547
0["
07$
#549
1["
17$
#561
b10100001110111011100110000101100000110100010000100011010 "
b111 b
1k
1l
#562
b0 "
0j
0k
0l
b111 P"
1Y"
b111 ,$
15$
#563
b1000100010001000000000000000000000000000000000 n
b11111111 P"
0Y"
b111 >#
1G#
b1000100010001000000000000000000000000000000000 J#
b11111111 ,$
05$
#564
b10000100100010011111010000000000010001000100010000000000000000 n
b11111111 >#
0G#
b10000100100010011111010000000000010001000100010000000000000000 J#
#565
b1100110011001100000000000000000000000000000000 "
b11111111 b
1j
b10000100100010001000010010001000100001001000100010000100100010 n
b10000100100010001000010010001000100001001000100010000100100010 J#
#566
b10000100011011011111010000000000010001000100010000000000000000 "
#567
b10000100011011001000010001101100100001000110110010000100011011 "
0["
07$
#570
1["
17$
#582
b11100001001010111101111001100100000110110010000100011011 "
b111 b
1k
1l
#583
b101010101010101010101010000000000000000000000000000000000000000 "
b1 b
0j
0k
0l
b111 P"
1Y"
b111 ,$
15$
#584
b1000100010001000000000000000000000000000000000 n
b11111111 P"
0Y"
b111 >#
1G#
b1000100010001000000000000000000000000000000000 J#
b11111111 ,$
05$
#585
b1100110011001100000000000000000000000000000000 "
b11111111 b
1j
b10000100100011011111010000000000010001000100010000000000000000 n
b11111111 >#
0G#
b10000100100011011111010000000000010001000100010000000000000000 J#
#586
b10000100011100011111010000000000010001000100010000000000000000 "
b10000100100011001000010010001100100001001000110010000100100011 n
b10000100100011001000010010001100100001001000110010000100100011 J#
#587
b10000100011100001000010001110000100001000111000010000100011100 "
#588
0["
07$
#590
1["
17$
#602
b11111000100110001010011111011101000111000010000100011100 "
b111 b
1k
1l
#603
b0 "
b1 b
0j
0k
0l
b111 P"
1Y"
b111 ,$
15$
#604
b1000100010001000000000000000000000000000000000 n
b11111111 P"
0Y"
b111 >#
1G#
b1000100010001000000000000000000000000000000000 J#
b11111111 ,$
05$
#605
b1100110011001100000000000000000000000000000000 "
b11111111 b
1j
b10000100100100011111010000000000010001000100010000000000000000 n
b11111111 >#
0G#
b10000100100100011111010000000000010001000100010000000000000000 J#
#606
b10000100011101011111010000000000010001000100010000000000000000 "
b10000100100100001000010010010000100001001001000010000100100100 n
b10000100100100001000010010010000100001001001000010000100100100 J#
#607
b10000100011101001000010001110100100001000111010010000100011101 "
#608
0["
07$
#611
1["
17$
#622
b10111000011011101011010110010101000111010010000100011101 "
b111 b
1k
1l
#623
b0 "
0j
0k
0l
#624
b111 P"
1Y"
b111 ,$
15$
#625
b1000100010001000000000000000000000000000000000 n
b11111111 P"
0Y"
b111 >#
1G#
b1000100010001000000000000000000000000000000000 J#
b11111111 ,$
05$
#626
b1100110011001100000000000000000000000000000000 "
b11111111 b
1j
b10000100100101011111010000000000010001000100010000000000000000 n
b11111111 >#
0G#
b10000100100101011111010000000000010001000100010000000000000000 J#
#627
b10000100011110011111010000000000010001000100010000000000000000 "
b10000100100101001000010010010100100001001001010010000100100101 n
b10000100100101001000010010010100100001001001010010000100100101 J#
#628
b10000100011110001000010001111000100001000111100010000100011110 "
#629
0["
07$
#631
1["
17$
#643
b1111001011101001000001101001101000111100010000100011110 "
b111 b
1k
1l
#644
b101010101010101010101010000000000000000000000000000000000000000 "
b1 b
0j
0k
0l
b111 P"
1Y"
b111 ,$
15$
#645
b1000100010001000000000000000000000000000000000 n
b11111111 P"
0Y"
b111 >#
1G#
b1000100010001000000000000000000000000000000000 J#
b11111111 ,$
05$
#646
b1100110011001100000000000000000000000000000000 "
b11111111 b
1j
b10000100100110011111010000000000010001000100010000000000000000 n
b11111111 >#
0G#
b10000100100110011111010000000000010001000100010000000000000000 J#
#647
b10000100011111011111010000000000010001000100010000000000000000 "
b10000100100110001000010010011000100001001001100010000100100110 n
b10000100100110001000010010011000100001001001100010000100100110 J#
#648
b10000100011111001000010001111100100001000111110010000100011111 "
#649
0["
07$
#652
1["
17$
#663
b111001100000101001000100000101000111110010000100011111 "
b111 b
1k
1l
#664
b0 "
0j
0k
0l
#665
b111 P"
1Y"
b111 ,$
15$
#666
b1000100010001000000000000000000000000000000000 n
b11111111 P"
0Y"
b111 >#
1G#
b1000100010001000000000000000000000000000000000 J#
b11111111 ,$
05$
#667
b1100110011001100000000000000000000000000000000 "
b11111111 b
1j
b10000100100111011111010000000000010001000100010000000000000000 n
b11111111 >#
0G#
b10000100100111011111010000000000010001000100010000000000000000 J#
#668
b10000100100000011111010000000000010001000100010000000000000000 "
b10000100100111001000010010011100100001001001110010000100100111 n
b10000100100111001000010010011100100001001001110010000100100111 J#
#669
b10000100100000001000010010000000100001001000000010000100100000 "
#670
0["
07$
#672
1["
17$
#684
b11101101101010100010010101110100001000000010000100100000 "
b111 b
1k
1l
#685
b0 "
0j
0k
0l
b111 P"
1Y"
b111 ,$
15$
#686
b1000100010001000000000000000000000000000000000 n
b11111111 P"
0Y"
b111 >#
1G#
b1000100010001000000000000000000000000000000000 J#
b11111111 ,$
05$
#687
b10000100101000011111010000000000010001000100010000000000000000 n
b11111111 >#
0G#
b10000100101000011111010000000000010001000100010000000000000000 J#
#688
b1100110011001100000000000000000000000000000000 "
b11111111 b
1j
b10000100101000001000010010100000100001001010000010000100101000 n
b10000100101000001000010010100000100001001010000010000100101000 J#
#689
b10000100100001011111010000000000010001000100010000000000000000 "
#690
b10000100100001001000010010000100100001001000010010000100100001 "
0["
07$
#693
1["
17$
#705
b10101101010111000011011100111100001000010010000100100001 "
b111 b
1k
1l
#706
b101010101010101010101010000000000000000000000000000000000000000 "
b1 b
0j
0k
0l
b111 P"
1Y"
b111 ,$
15$
#707
b1000100010001000000000000000000000000000000000 n
b11111111 P"
0Y"
b111 >#
1G#
b1000100010001000000000000000000000000000000000 J#
b11111111 ,$
05$
#708
b1100110011001100000000000000000000000000000000 "
b11111111 b
1j
b10000100101001011111010000000000010001000100010000000000000000 n
b11111111 >#
0G#
b10000100101001011111010000000000010001000100010000000000000000 J#
#709
b10000100100010011111010000000000010001000100010000000000000000 "
b10000100101001001000010010100100100001001010010010000100101001 n
b10000100101001001000010010100100100001001010010010000100101001 J#
#710
b10000100100010001000010010001000100001001000100010000100100010 "
#711
0["
07$
#713
1["
17$
#725
b1101100010001100000000111100100001000100010000100100010 "
b111 b
1k
1l
#726
b0 "
b1 b
0j
0k
0l
b111 P"
1Y"
b111 ,$
15$
#727
b1000100010001000000000000000000000000000000000 n
b11111111 P"
0Y"
b111 >#
1G#
b1000100010001000000000000000000000000000000000 J#
b11111111 ,$
05$
