kcu105_10gbaser_trd/hardware/vivado/runs/impl_run/.Xil/Vivado-9880-DESKTOP-I48MRRI/hw_ila_data_1/zip_work/waveform.vcd
$date
        2019-Oct-23 15:34:18
$end
$version
        Vivado v2017.3 (64-bit)
$end
$timescale
        1ps
$end
$scope module dut $end
$var reg 64 " axi_stream_gen_mon_0/rx_axis_tdata [63:0] $end
$var reg 8 b axi_stream_gen_mon_0/rx_axis_tkeep [7:0] $end
$var reg 1 j axi_stream_gen_mon_0/rx_axis_tvalid $end
$var reg 1 k axi_stream_gen_mon_0/rx_axis_tlast $end
$var reg 1 l axi_stream_gen_mon_0/rx_axis_tuser $end
$var reg 1 m axi_stream_gen_mon_0/rx_axis_tready $end
$var reg 64 n axi_stream_gen_mon_0/tx_axis_tdata [63:0] $end
$var reg 8 P" axi_stream_gen_mon_0/tx_axis_tkeep [7:0] $end
$var reg 1 X" axi_stream_gen_mon_0/tx_axis_tvalid $end
$var reg 1 Y" axi_stream_gen_mon_0/tx_axis_tlast $end
$var reg 1 Z" axi_stream_gen_mon_0/tx_axis_tuser $end
$var reg 1 [" axi_stream_gen_mon_0/tx_axis_tready_1 $end
$var reg 64 \" axi_stream_gen_mon_0/tx_axis_tdata_lb [63:0] $end
$var reg 8 ># axi_stream_gen_mon_0/tx_axis_tkeep_lb [7:0] $end
$var reg 1 F# axi_stream_gen_mon_0/tx_axis_tvalid_lb $end
$var reg 1 G# axi_stream_gen_mon_0/tx_axis_tlast_lb $end
$var reg 1 H# axi_stream_gen_mon_0/tx_axis_tuser_lb $end
$var reg 1 I# axi_stream_gen_mon_0/rx_axis_tready_lb $end
$var reg 64 J# axi_stream_gen_mon_0/tx_axis_tdata_g [63:0] $end
$var reg 8 ,$ axi_stream_gen_mon_0/tx_axis_tkeep_g [7:0] $end
$var reg 1 4$ axi_stream_gen_mon_0/tx_axis_tvalid_g $end
$var reg 1 5$ axi_stream_gen_mon_0/tx_axis_tlast_g $end
$var reg 1 6$ axi_stream_gen_mon_0/tx_axis_tuser_g $end
$var reg 1 7$ axi_stream_gen_mon_0/tx_axis_tready $end
$var reg 1 8$ _TRIGGER $end
$var reg 1 9$ _WINDOW $end
$var reg 1 :$ _GAP $end
$upscope $end
$enddefinitions $end
#0
$dumpvars
b101001101000000010100110100000001010011010000000101001101000000 "
b11111111 b
1j
0k
0l
1m
b101001100111111010100110011111101010011001111110101001100111111 n
b11111111 P"
1X"
0Y"
0Z"
1["
b101001100111111010100110011111101010011001111110101001100111111 \"
b11111111 >#
1F#
0G#
0H#
1I#
b1000100010001000000000000000000000000000000000 J#
b11111111 ,$
04$
05$
06$
17$
08$
19$
0:$
$end
#1
0["
07$
#4
1["
17$
#13
b1011111111101100011100001011111010000000101001101000000 "
b111 b
1k
1l
#14
b101010101010101010101010000000000000000000000000000000000000000 "
b1 b
0j
0k
0l
#16
b1000100010001000000000000000000000000000000000 "
b11111111 b
1j
#17
b101001101000001011111010000000000010001000100010000000000000000 "
b1101100001000000100010010110100001111110101001100111111 n
b111 P"
1Y"
b1101100001000000100010010110100001111110101001100111111 \"
b111 >#
1G#
#18
b101001101000001010100110100000101010011010000010101001101000001 "
b1100110011001100000000000000000000000000000000 n
b11111111 P"
0Y"
b1100110011001100000000000000000000000000000000 \"
b11111111 >#
0G#
#19
b101001101000000011111010000000000010001000100010000000000000000 n
b101001101000000011111010000000000010001000100010000000000000000 \"
#20
b101001101000000010100110100000001010011010000000101001101000000 n
b101001101000000010100110100000001010011010000000101001101000000 \"
#22
0["
07$
#24
1["
17$
#33
b11111000000000010101000010111010000010101001101000001 "
b111 b
1k
1l
#34
b0 "
0j
0k
0l
#37
b1000100010001000000000000000000000000000000000 "
b11111111 b
1j
b1011111111101100011100001011111010000000101001101000000 n
b111 P"
1Y"
b1011111111101100011100001011111010000000101001101000000 \"
b111 >#
1G#
#38
b101001101000010011111010000000000010001000100010000000000000000 "
b1100110011001100000000000000000000000000000000 n
b11111111 P"
0Y"
b1100110011001100000000000000000000000000000000 \"
b11111111 >#
0G#
#39
b101001101000010010100110100001001010011010000100101001101000010 "
b101001101000001011111010000000000010001000100010000000000000000 n
b101001101000001011111010000000000010001000100010000000000000000 \"
#40
b101001101000001010100110100000101010011010000010101001101000001 n
b101001101000001010100110100000101010011010000010101001101000001 \"
#42
0["
07$
#45
1["
17$
#54
b11011110000110100001110011001111010000100101001101000010 "
b111 b
1k
1l
#55
b0 "
0j
0k
0l
#58
b1000100010001000000000000000000000000000000000 "
b11111111 b
1j
b11111000000000010101000010111010000010101001101000001 n
b111 P"
1Y"
b11111000000000010101000010111010000010101001101000001 \"
b111 >#
1G#
#59
b101001101000011011111010000000000010001000100010000000000000000 "
b1100110011001100000000000000000000000000000000 n
b11111111 P"
0Y"
b1100110011001100000000000000000000000000000000 \"
b11111111 >#
0G#
#60
b101001101000011010100110100001101010011010000110101001101000011 "
b101001101000010011111010000000000010001000100010000000000000000 n
b101001101000010011111010000000000010001000100010000000000000000 \"
#61
b101001101000010010100110100001001010011010000100101001101000010 n
b101001101000010010100110100001001010011010000100101001101000010 \"
#63
0["
07$
#65
1["
17$
#75
b10011110111011000000111010000111010000110101001101000011 "
b111 b
1k
1l
#76
b101010101010101010101010000000000000000000000000000000000000000 "
b1 b
0j
0k
0l
#78
b1000100010001000000000000000000000000000000000 "
b11111111 b
1j
b11011110000110100001110011001111010000100101001101000010 n
b111 P"
1Y"
b11011110000110100001110011001111010000100101001101000010 \"
b111 >#
1G#
#79
b101001101000100011111010000000000010001000100010000000000000000 "
b1100110011001100000000000000000000000000000000 n
b11111111 P"
0Y"
b1100110011001100000000000000000000000000000000 \"
b11111111 >#
0G#
#80
b101001101000100010100110100010001010011010001000101001101000100 "
b101001101000011011111010000000000010001000100010000000000000000 n
b101001101000011011111010000000000010001000100010000000000000000 \"
#81
b101001101000011010100110100001101010011010000110101001101000011 n
b101001101000011010100110100001101010011010000110101001101000011 \"
#83
0["
07$
#86
1["
17$
#95
b10000111010111110111011100111110010001000101001101000100 "
b111 b
1k
1l
#96
b0 "
b1 b
0j
0k
0l
#98
b1000100010001000000000000000000000000000000000 "
b11111111 b
1j
#99
b101001101000101011111010000000000010001000100010000000000000000 "
b10011110111011000000111010000111010000110101001101000011 n
b111 P"
1Y"
b10011110111011000000111010000111010000110101001101000011 \"
b111 >#
1G#
#100
b101001101000101010100110100010101010011010001010101001101000101 "
b1100110011001100000000000000000000000000000000 n
b11111111 P"
0Y"
b1100110011001100000000000000000000000000000000 \"
b11111111 >#
0G#
#101
b101001101000100011111010000000000010001000100010000000000000000 n
b101001101000100011111010000000000010001000100010000000000000000 \"
#102
b101001101000100010100110100010001010011010001000101001101000100 n
b101001101000100010100110100010001010011010001000101001101000100 \"
#104
0["
07$
#106
1["
17$
#115
b11000111101010010110010101110110010001010101001101000101 "
b111 b
1k
1l
#116
b0 "
0j
0k
0l
#119
b1000100010001000000000000000000000000000000000 "
b11111111 b
1j
b10000111010111110111011100111110010001000101001101000100 n
b111 P"
1Y"
b10000111010111110111011100111110010001000101001101000100 \"
b111 >#
1G#
#120
b101001101000110011111010000000000010001000100010000000000000000 "
b1100110011001100000000000000000000000000000000 n
b11111111 P"
0Y"
b1100110011001100000000000000000000000000000000 \"
b11111111 >#
0G#
#121
b101001101000110010100110100011001010011010001100101001101000110 "
b101001101000101011111010000000000010001000100010000000000000000 n
b101001101000101011111010000000000010001000100010000000000000000 \"
#122
b101001101000101010100110100010101010011010001010101001101000101 n
b101001101000101010100110100010101010011010001010101001101000101 \"
#124
0["
07$
#127
1["
17$
#136
b110101100110101001110101110010001100101001101000110 "
b111 b
1k
1l
#137
b101010101010101010101010000000000000000000000000000000000000000 "
b1 b
0j
0k
0l
#139
b1000100010001000000000000000000000000000000000 "
b11111111 b
1j
#140
b101001101000111011111010000000000010001000100010000000000000000 "
b11000111101010010110010101110110010001010101001101000101 n
b111 P"
1Y"
b11000111101010010110010101110110010001010101001101000101 \"
b111 >#
1G#
#141
b101001101000111010100110100011101010011010001110101001101000111 "
b1100110011001100000000000000000000000000000000 n
b11111111 P"
0Y"
b1100110011001100000000000000000000000000000000 \"
b11111111 >#
0G#
#142
b101001101000110011111010000000000010001000100010000000000000000 n
b101001101000110011111010000000000010001000100010000000000000000 \"
#143
b101001101000110010100110100011001010011010001100101001101000110 n
b101001101000110010100110100011001010011010001100101001101000110 \"
#145
0["
07$
#147
1["
17$
#156
b1000110010001010100000111100110010001110101001101000111 "
b111 b
1k
1l
#157
b0 "
0j
0k
0l
#160
b1000100010001000000000000000000000000000000000 "
b11111111 b
1j
b110101100110101001110101110010001100101001101000110 n
b111 P"
1Y"
b110101100110101001110101110010001100101001101000110 \"
b111 >#
1G#
#161
b101001101001000011111010000000000010001000100010000000000000000 "
b1100110011001100000000000000000000000000000000 n
b11111111 P"
0Y"
b1100110011001100000000000000000000000000000000 \"
b11111111 >#
0G#
#162
b101001101001000010100110100100001010011010010000101001101001000 "
b101001101000111011111010000000000010001000100010000000000000000 n
b101001101000111011111010000000000010001000100010000000000000000 \"
#163
b101001101000111010100110100011101010011010001110101001101000111 n
b101001101000111010100110100011101010011010001110101001101000111 \"
#165
0["
07$
#168
1["
17$
#177
b110101110101011010000011011100010010000101001101001000 "
b111 b
1k
1l
#178
b0 "
0j
0k
0l
#181
b1000100010001000000000000000000000000000000000 "
b11111111 b
1j
b1000110010001010100000111100110010001110101001101000111 n
b111 P"
1Y"
b1000110010001010100000111100110010001110101001101000111 \"
b111 >#
1G#
#182
b101001101001001011111010000000000010001000100010000000000000000 "
b1100110011001100000000000000000000000000000000 n
b11111111 P"
0Y"
b1100110011001100000000000000000000000000000000 \"
b11111111 >#
0G#
#183
b101001101001001010100110100100101010011010010010101001101001001 "
b101001101001000011111010000000000010001000100010000000000000000 n
b101001101001000011111010000000000010001000100010000000000000000 \"
#184
b101001101001000010100110100100001010011010010000101001101001000 n
b101001101001000010100110100100001010011010010000101001101001000 \"
#186
0["
07$
#188
1["
17$
#198
b1110101001000111011001010010100010010010101001101001001 "
b111 b
1k
1l
#199
b101010101010101010101010000000000000000000000000000000000000000 "
b1 b
0j
0k
0l
#201
b1000100010001000000000000000000000000000000000 "
b11111111 b
1j
b110101110101011010000011011100010010000101001101001000 n
b111 P"
1Y"
b110101110101011010000011011100010010000101001101001000 \"
b111 >#
1G#
#202
b101001101001010011111010000000000010001000100010000000000000000 "
b1100110011001100000000000000000000000000000000 n
b11111111 P"
0Y"
b1100110011001100000000000000000000000000000000 \"
b11111111 >#
0G#
#203
b101001101001010010100110100101001010011010010100101001101001010 "
b101001101001001011111010000000000010001000100010000000000000000 n
b101001101001001011111010000000000010001000100010000000000000000 \"
#204
b101001101001001010100110100100101010011010010010101001101001001 n
b101001101001001010100110100100101010011010010010101001101001001 \"
#206
0["
07$
#209
1["
17$
#218
b10110100001110011000010001001100010010100101001101001010 "
b111 b
1k
1l
#219
b0 "
b1 b
0j
0k
0l
#221
b1000100010001000000000000000000000000000000000 "
b11111111 b
1j
#222
b101001101001011011111010000000000010001000100010000000000000000 "
b1110101001000111011001010010100010010010101001101001001 n
b111 P"
1Y"
b1110101001000111011001010010100010010010101001101001001 \"
b111 >#
1G#
#223
b101001101001011010100110100101101010011010010110101001101001011 "
b1100110011001100000000000000000000000000000000 n
b11111111 P"
0Y"
b1100110011001100000000000000000000000000000000 \"
b11111111 >#
0G#
#224
b101001101001010011111010000000000010001000100010000000000000000 n
b101001101001010011111010000000000010001000100010000000000000000 \"
#225
b101001101001010010100110100101001010011010010100101001101001010 n
b101001101001010010100110100101001010011010010100101001101001010 \"
#227
0["
07$
#229
1["
17$
#238
b11110100110011111001011000000100010010110101001101001011 "
b111 b
1k
1l
#239
b0 "
0j
0k
0l
#242
b1000100010001000000000000000000000000000000000 "
b11111111 b
1j
b10110100001110011000010001001100010010100101001101001010 n
b111 P"
1Y"
b10110100001110011000010001001100010010100101001101001010 \"
b111 >#
1G#
#243
b101001101001100011111010000000000010001000100010000000000000000 "
b1100110011001100000000000000000000000000000000 n
b11111111 P"
0Y"
b1100110011001100000000000000000000000000000000 \"
b11111111 >#
0G#
#244
b101001101001100010100110100110001010011010011000101001101001100 "
b101001101001011011111010000000000010001000100010000000000000000 n
b101001101001011011111010000000000010001000100010000000000000000 \"
#245
b101001101001011010100110100101101010011010010110101001101001011 n
b101001101001011010100110100101101010011010010110101001101001011 \"
#247
0["
07$
#250
1["
17$
#259
b11101101011111001110111110111101010011000101001101001100 "
b111 b
1k
1l
#260
b101010101010101010101010000000000000000000000000000000000000000 "
b1 b
0j
0k
0l
#262
b1000100010001000000000000000000000000000000000 "
b11111111 b
1j
#263
b101001101001101011111010000000000010001000100010000000000000000 "
b11110100110011111001011000000100010010110101001101001011 n
b111 P"
1Y"
b11110100110011111001011000000100010010110101001101001011 \"
b111 >#
1G#
#264
b101001101001101010100110100110101010011010011010101001101001101 "
b1100110011001100000000000000000000000000000000 n
b11111111 P"
0Y"
b1100110011001100000000000000000000000000000000 \"
b11111111 >#
0G#
#265
b101001101001100011111010000000000010001000100010000000000000000 n
b101001101001100011111010000000000010001000100010000000000000000 \"
#266
b101001101001100010100110100110001010011010011000101001101001100 n
b101001101001100010100110100110001010011010011000101001101001100 \"
#268
0["
07$
#270
1["
17$
#279
b10101101100010101111110111110101010011010101001101001101 "
b111 b
1k
1l
#280
b0 "
0j
0k
0l
#283
b1000100010001000000000000000000000000000000000 "
b11111111 b
1j
b11101101011111001110111110111101010011000101001101001100 n
b111 P"
1Y"
b11101101011111001110111110111101010011000101001101001100 \"
b111 >#
1G#
#284
b101001101001110011111010000000000010001000100010000000000000000 "
b1100110011001100000000000000000000000000000000 n
b11111111 P"
0Y"
b1100110011001100000000000000000000000000000000 \"
b11111111 >#
0G#
#285
b101001101001110010100110100111001010011010011100101001101001110 "
b101001101001101011111010000000000010001000100010000000000000000 n
b101001101001101011111010000000000010001000100010000000000000000 \"
#286
b101001101001101010100110100110101010011010011010101001101001101 n
b101001101001101010100110100110101010011010011010101001101001101 \"
#288
0["
07$
#291
1["
17$
#300
b1101100100100001100101100101101010011100101001101001110 "
b111 b
1k
1l
#301
b0 "
0j
0k
0l
#304
b1000100010001000000000000000000000000000000000 "
b11111111 b
1j
b10101101100010101111110111110101010011010101001101001101 n
b111 P"
1Y"
b10101101100010101111110111110101010011010101001101001101 \"
b111 >#
1G#
#305
b101001101001111011111010000000000010001000100010000000000000000 "
b1100110011001100000000000000000000000000000000 n
b11111111 P"
0Y"
b1100110011001100000000000000000000000000000000 \"
b11111111 >#
0G#
#306
b101001101001111010100110100111101010011010011110101001101001111 "
b101001101001110011111010000000000010001000100010000000000000000 n
b101001101001110011111010000000000010001000100010000000000000000 \"
#307
b101001101001110010100110100111001010011010011100101001101001110 n
b101001101001110010100110100111001010011010011100101001101001110 \"
#309
0["
07$
#311
1["
17$
#321
b101100011001101101100101100101010011110101001101001111 "
b111 b
1k
1l
#322
b101010101010101010101010000000000000000000000000000000000000000 "
b1 b
0j
0k
0l
#324
b1000100010001000000000000000000000000000000000 "
b11111111 b
1j
b1101100100100001100101100101101010011100101001101001110 n
b111 P"
1Y"
b1101100100100001100101100101101010011100101001101001110 \"
b111 >#
1G#
#325
b101001101010000011111010000000000010001000100010000000000000000 "
b1100110011001100000000000000000000000000000000 n
b11111111 P"
0Y"
b1100110011001100000000000000000000000000000000 \"
b11111111 >#
0G#
#326
b101001101010000010100110101000001010011010100000101001101010000 "
b101001101001111011111010000000000010001000100010000000000000000 n
b101001101001111011111010000000000010001000100010000000000000000 \"
#327
b101001101001111010100110100111101010011010011110101001101001111 n
b101001101001111010100110100111101010011010011110101001101001111 \"
#329
0["
07$
#332
1["
17$
#341
b10001011101100010000100101011001010100000101001101010000 "
b111 b
1k
1l
#342
b0 "
b1 b
0j
0k
0l
#344
b1000100010001000000000000000000000000000000000 "
b11111111 b
1j
#345
b101001101010001011111010000000000010001000100010000000000000000 "
b101100011001101101100101100101010011110101001101001111 n
b111 P"
1Y"
b101100011001101101100101100101010011110101001101001111 \"
b111 >#
1G#
#346
b101001101010001010100110101000101010011010100010101001101010001 "
b1100110011001100000000000000000000000000000000 n
b11111111 P"
0Y"
b1100110011001100000000000000000000000000000000 \"
b11111111 >#
0G#
#347
b101001101010000011111010000000000010001000100010000000000000000 n
b101001101010000011111010000000000010001000100010000000000000000 \"
#348
b101001101010000010100110101000001010011010100000101001101010000 n
b101001101010000010100110101000001010011010100000101001101010000 \"
#350
0["
07$
#352
1["
17$
#361
b11001011010001110001101100010001010100010101001101010001 "
b111 b
1k
1l
#362
b0 "
0j
0k
0l
#365
b1000100010001000000000000000000000000000000000 "
b11111111 b
1j
b10001011101100010000100101011001010100000101001101010000 n
b111 P"
1Y"
b10001011101100010000100101011001010100000101001101010000 \"
b111 >#
1G#
#366
b101001101010010011111010000000000010001000100010000000000000000 "
b1100110011001100000000000000000000000000000000 n
b11111111 P"
0Y"
b1100110011001100000000000000000000000000000000 \"
b11111111 >#
0G#
#367
b101001101010010010100110101001001010011010100100101001101010010 "
b101001101010001011111010000000000010001000100010000000000000000 n
b101001101010001011111010000000000010001000100010000000000000000 \"
#368
b101001101010001010100110101000101010011010100010101001101010001 n
b101001101010001010100110101000101010011010100010101001101010001 \"
#370
0["
07$
#373
1["
17$
#382
b1010010111010010110111001001010100100101001101010010 "
b111 b
1k
1l
#383
b101010101010101010101010000000000000000000000000000000000000000 "
b1 b
0j
0k
0l
#385
b1000100010001000000000000000000000000000000000 "
b11111111 b
1j
#386
b101001101010011011111010000000000010001000100010000000000000000 "
b11001011010001110001101100010001010100010101001101010001 n
b111 P"
1Y"
b11001011010001110001101100010001010100010101001101010001 \"
b111 >#
1G#
#387
b101001101010011010100110101001101010011010100110101001101010011 "
b1100110011001100000000000000000000000000000000 n
b11111111 P"
0Y"
b1100110011001100000000000000000000000000000000 \"
b11111111 >#
0G#
#388
b101001101010010011111010000000000010001000100010000000000000000 n
b101001101010010011111010000000000010001000100010000000000000000 \"
#389
b101001101010010010100110101001001010011010100100101001101010010 n
b101001101010010010100110101001001010011010100100101001101010010 \"
#391
0["
07$
#393
1["
17$
#402
b1001010101010110011111110000001010100110101001101010011 "
b111 b
1k
1l
#403
b0 "
0j
0k
0l
#406
b1000100010001000000000000000000000000000000000 "
b11111111 b
1j
b1010010111010010110111001001010100100101001101010010 n
b111 P"
1Y"
b1010010111010010110111001001010100100101001101010010 \"
b111 >#
1G#
#407
b101001101010100011111010000000000010001000100010000000000000000 "
b1100110011001100000000000000000000000000000000 n
b11111111 P"
0Y"
b1100110011001100000000000000000000000000000000 \"
b11111111 >#
0G#
#408
b101001101010100010100110101010001010011010101000101001101010100 "
b101001101010011011111010000000000010001000100010000000000000000 n
b101001101010011011111010000000000010001000100010000000000000000 \"
#409
b101001101010011010100110101001101010011010100110101001101010011 n
b101001101010011010100110101001101010011010100110101001101010011 \"
#411
0["
07$
#414
1["
17$
#423
b1010011000110000100011000111000010101000101001101010100 "
b111 b
1k
1l
#424
b0 "
0j
0k
0l
#427
b1000100010001000000000000000000000000000000000 "
b11111111 b
1j
b1001010101010110011111110000001010100110101001101010011 n
b111 P"
1Y"
b1001010101010110011111110000001010100110101001101010011 \"
b111 >#
1G#
#428
b101001101010101011111010000000000010001000100010000000000000000 "
b1100110011001100000000000000000000000000000000 n
b11111111 P"
0Y"
b1100110011001100000000000000000000000000000000 \"
b11111111 >#
0G#
#429
b101001101010101010100110101010101010011010101010101001101010101 "
b101001101010100011111010000000000010001000100010000000000000000 n
b101001101010100011111010000000000010001000100010000000000000000 \"
#430
b101001101010100010100110101010001010011010101000101001101010100 n
b101001101010100010100110101010001010011010101000101001101010100 \"
#432
0["
07$
#434
1["
17$
#444
b10011111011100101010001110000010101010101001101010101 "
b111 b
1k
1l
#445
b101010101010101010101010000000000000000000000000000000000000000 "
b1 b
0j
0k
0l
#447
b1000100010001000000000000000000000000000000000 "
b11111111 b
1j
b1010011000110000100011000111000010101000101001101010100 n
b111 P"
1Y"
b1010011000110000100011000111000010101000101001101010100 \"
b111 >#
1G#
#448
b101001101010110011111010000000000010001000100010000000000000000 "
b1100110011001100000000000000000000000000000000 n
b11111111 P"
0Y"
b1100110011001100000000000000000000000000000000 \"
b11111111 >#
0G#
#449
b101001101010110010100110101011001010011010101100101001101010110 "
b101001101010101011111010000000000010001000100010000000000000000 n
b101001101010101011111010000000000010001000100010000000000000000 \"
#450
b101001101010101010100110101010101010011010101010101001101010101 n
b101001101010101010100110101010101010011010101010101001101010101 \"
#452
0["
07$
#455
1["
17$
#464
b11010010111101000110001010101000010101100101001101010110 "
b111 b
1k
1l
#465
b0 "
b1 b
0j
0k
0l
#467
b1000100010001000000000000000000000000000000000 "
b11111111 b
1j
#468
b101001101010111011111010000000000010001000100010000000000000000 "
b10011111011100101010001110000010101010101001101010101 n
b111 P"
1Y"
b10011111011100101010001110000010101010101001101010101 \"
b111 >#
1G#
#469
b101001101010111010100110101011101010011010101110101001101010111 "
b1100110011001100000000000000000000000000000000 n
b11111111 P"
0Y"
b1100110011001100000000000000000000000000000000 \"
b11111111 >#
0G#
#470
b101001101010110011111010000000000010001000100010000000000000000 n
b101001101010110011111010000000000010001000100010000000000000000 \"
#471
b101001101010110010100110101011001010011010101100101001101010110 n
b101001101010110010100110101011001010011010101100101001101010110 \"
#473
0["
07$
#475
1["
17$
#484
b10010010000000100111000011100000010101110101001101010111 "
b111 b
1k
1l
#485
b0 "
0j
0k
0l
#488
b1000100010001000000000000000000000000000000000 "
b11111111 b
1j
b11010010111101000110001010101000010101100101001101010110 n
b111 P"
1Y"
b11010010111101000110001010101000010101100101001101010110 \"
b111 >#
1G#
#489
b101001101011000011111010000000000010001000100010000000000000000 "
b1100110011001100000000000000000000000000000000 n
b11111111 P"
0Y"
b1100110011001100000000000000000000000000000000 \"
b11111111 >#
0G#
#490
b101001101011000010100110101100001010011010110000101001101011000 "
b101001101010111011111010000000000010001000100010000000000000000 n
b101001101010111011111010000000000010001000100010000000000000000 \"
#491
b101001101010111010100110101011101010011010101110101001101010111 n
b101001101010111010100110101011101010011010101110101001101010111 \"
#493
0["
07$
#496
1["
17$
#505
b11100001100100101001000111011010010110000101001101011000 "
b111 b
1k
1l
#506
b101010101010101010101010000000000000000000000000000000000000000 "
b1 b
0j
0k
0l
#508
b1000100010001000000000000000000000000000000000 "
b11111111 b
1j
#509
b101001101011001011111010000000000010001000100010000000000000000 "
b10010010000000100111000011100000010101110101001101010111 n
b111 P"
1Y"
b10010010000000100111000011100000010101110101001101010111 \"
b111 >#
1G#
#510
b101001101011001010100110101100101010011010110010101001101011001 "
b1100110011001100000000000000000000000000000000 n
b11111111 P"
0Y"
b1100110011001100000000000000000000000000000000 \"
b11111111 >#
0G#
#511
b101001101011000011111010000000000010001000100010000000000000000 n
b101001101011000011111010000000000010001000100010000000000000000 \"
#512
b101001101011000010100110101100001010011010110000101001101011000 n
b101001101011000010100110101100001010011010110000101001101011000 \"
#514
0["
07$
#516
1["
17$
#525
b10100001011001001000001110010010010110010101001101011001 "
b111 b
1k
1l
#526
b0 "
0j
0k
0l
#529
b1000100010001000000000000000000000000000000000 "
b11111111 b
1j
b11100001100100101001000111011010010110000101001101011000 n
b111 P"
1Y"
b11100001100100101001000111011010010110000101001101011000 \"
b111 >#
1G#
#530
b101001101011010011111010000000000010001000100010000000000000000 "
b1100110011001100000000000000000000000000000000 n
b11111111 P"
0Y"
b1100110011001100000000000000000000000000000000 \"
b11111111 >#
0G#
#531
b101001101011010010100110101101001010011010110100101001101011010 "
b101001101011001011111010000000000010001000100010000000000000000 n
b101001101011001011111010000000000010001000100010000000000000000 \"
#532
b101001101011001010100110101100101010011010110010101001101011001 n
b101001101011001010100110101100101010011010110010101001101011001 \"
#534
0["
07$
#537
1["
17$
#546
b1100000011111101011010101001010010110100101001101011010 "
b111 b
1k
1l
#547
b0 "
0j
0k
0l
#550
b1000100010001000000000000000000000000000000000 "
b11111111 b
1j
b10100001011001001000001110010010010110010101001101011001 n
b111 P"
1Y"
b10100001011001001000001110010010010110010101001101011001 \"
b111 >#
1G#
#551
b101001101011011011111010000000000010001000100010000000000000000 "
b1100110011001100000000000000000000000000000000 n
b11111111 P"
0Y"
b1100110011001100000000000000000000000000000000 \"
b11111111 >#
0G#
#552
b101001101011011010100110101101101010011010110110101001101011011 "
b101001101011010011111010000000000010001000100010000000000000000 n
b101001101011010011111010000000000010001000100010000000000000000 \"
#553
b101001101011010010100110101101001010011010110100101001101011010 n
b101001101011010010100110101101001010011010110100101001101011010 \"
#555
0["
07$
#557
1["
17$
#567
b100000100010001010011100000010010110110101001101011011 "
b111 b
1k
1l
#568
b101010101010101010101010000000000000000000000000000000000000000 "
b1 b
0j
0k
0l
#570
b1000100010001000000000000000000000000000000000 "
b11111111 b
1j
b1100000011111101011010101001010010110100101001101011010 n
b111 P"
1Y"
b1100000011111101011010101001010010110100101001101011010 \"
b111 >#
1G#
#571
b101001101011100011111010000000000010001000100010000000000000000 "
b1100110011001100000000000000000000000000000000 n
b11111111 P"
0Y"
b1100110011001100000000000000000000000000000000 \"
b11111111 >#
0G#
#572
b101001101011100010100110101110001010011010111000101001101011100 "
b101001101011011011111010000000000010001000100010000000000000000 n
b101001101011011011111010000000000010001000100010000000000000000 \"
#573
b101001101011011010100110101101101010011010110110101001101011011 n
b101001101011011010100110101101101010011010110110101001101011011 \"
#575
0["
07$
#578
1["
17$
#587
b111001001110111101111010111011010111000101001101011100 "
b111 b
1k
1l
#588
b0 "
b1 b
0j
0k
0l
#590
b1000100010001000000000000000000000000000000000 "
b11111111 b
1j
#591
b101001101011101011111010000000000010001000100010000000000000000 "
b100000100010001010011100000010010110110101001101011011 n
b111 P"
1Y"
b100000100010001010011100000010010110110101001101011011 \"
b111 >#
1G#
#592
b101001101011101010100110101110101010011010111010101001101011101 "
b1100110011001100000000000000000000000000000000 n
b11111111 P"
0Y"
b1100110011001100000000000000000000000000000000 \"
b11111111 >#
0G#
#593
b101001101011100011111010000000000010001000100010000000000000000 n
b101001101011100011111010000000000010001000100010000000000000000 \"
#594
b101001101011100010100110101110001010011010111000101001101011100 n
b101001101011100010100110101110001010011010111000101001101011100 \"
#596
0["
07$
#598
1["
17$
#607
b1111001110011011100110011110011010111010101001101011101 "
b111 b
1k
1l
#608
b0 "
0j
0k
0l
#611
b1000100010001000000000000000000000000000000000 "
b11111111 b
1j
b111001001110111101111010111011010111000101001101011100 n
b111 P"
1Y"
b111001001110111101111010111011010111000101001101011100 \"
b111 >#
1G#
#612
b101001101011110011111010000000000010001000100010000000000000000 "
b1100110011001100000000000000000000000000000000 n
b11111111 P"
0Y"
b1100110011001100000000000000000000000000000000 \"
b11111111 >#
0G#
#613
b101001101011110010100110101111001010011010111100101001101011110 "
b101001101011101011111010000000000010001000100010000000000000000 n
b101001101011101011111010000000000010001000100010000000000000000 \"
#614
b101001101011101010100110101110101010011010111010101001101011101 n
b101001101011101010100110101110101010011010111010101001101011101 \"
#616
0["
07$
#619
1["
17$
#628
b10111000110101111111101000101011010111100101001101011110 "
b111 b
1k
1l
#629
b101010101010101010101010000000000000000000000000000000000000000 "
b1 b
0j
0k
0l
#631
b1000100010001000000000000000000000000000000000 "
b11111111 b
1j
#632
b101001101011111011111010000000000010001000100010000000000000000 "
b1111001110011011100110011110011010111010101001101011101 n
b111 P"
1Y"
b1111001110011011100110011110011010111010101001101011101 \"
b111 >#
1G#
#633
b101001101011111010100110101111101010011010111110101001101011111 "
b1100110011001100000000000000000000000000000000 n
b11111111 P"
0Y"
b1100110011001100000000000000000000000000000000 \"
b11111111 >#
0G#
#634
b101001101011110011111010000000000010001000100010000000000000000 n
b101001101011110011111010000000000010001000100010000000000000000 \"
#635
b101001101011110010100110101111001010011010111100101001101011110 n
b101001101011110010100110101111001010011010111100101001101011110 \"
#637
0["
07$
#639
1["
17$
#648
b11111000001000011110100001100011010111110101001101011111 "
b111 b
1k
1l
#649
b0 "
0j
0k
0l
#652
b1000100010001000000000000000000000000000000000 "
b11111111 b
1j
b10111000110101111111101000101011010111100101001101011110 n
b111 P"
1Y"
b10111000110101111111101000101011010111100101001101011110 \"
b111 >#
1G#
#653
b101001101100000011111010000000000010001000100010000000000000000 "
b1100110011001100000000000000000000000000000000 n
b11111111 P"
0Y"
b1100110011001100000000000000000000000000000000 \"
b11111111 >#
0G#
#654
b101001101100000010100110110000001010011011000000101001101100000 "
b101001101011111011111010000000000010001000100010000000000000000 n
b101001101011111011111010000000000010001000100010000000000000000 \"
#655
b101001101011111010100110101111101010011010111110101001101011111 n
b101001101011111010100110101111101010011010111110101001101011111 \"
#657
0["
07$
#660
1["
17$
#669
b101100000010010101110000010010011000000101001101100000 "
b111 b
1k
1l
#670
b0 "
0j
0k
0l
#673
b1000100010001000000000000000000000000000000000 "
b11111111 b
1j
b11111000001000011110100001100011010111110101001101011111 n
b111 P"
1Y"
b11111000001000011110100001100011010111110101001101011111 \"
b111 >#
1G#
#674
b101001101100001011111010000000000010001000100010000000000000000 "
b1100110011001100000000000000000000000000000000 n
b11111111 P"
0Y"
b1100110011001100000000000000000000000000000000 \"
b11111111 >#
0G#
#675
b101001101100001010100110110000101010011011000010101001101100001 "
b101001101100000011111010000000000010001000100010000000000000000 n
b101001101100000011111010000000000010001000100010000000000000000 \"
#676
b101001101100000010100110110000001010011011000000101001101100000 n
b101001101100000010100110110000001010011011000000101001101100000 \"
#678
0["
07$
#680
1["
17$
#690
b1101100111111110100111001011010011000010101001101100001 "
b111 b
1k
1l
#691
b101010101010101010101010000000000000000000000000000000000000000 "
b1 b
0j
0k
0l
