kcu105_10gbaser_trd/hardware/vivado/runs/impl_run/.Xil/Vivado-11460-DESKTOP-I48MRRI/hw_ila_data_2/zip_work/waveform.vcd
$date
        2019-Oct-23 15:09:54
$end
$version
        Vivado v2017.3 (64-bit)
$end
$timescale
        1ps
$end
$scope module dut $end
$var reg 64 " axi_stream_gen_mon_1/rx_axis_tdata [63:0] $end
$var reg 8 b axi_stream_gen_mon_1/rx_axis_tkeep [7:0] $end
$var reg 1 j axi_stream_gen_mon_1/rx_axis_tvalid $end
$var reg 1 k axi_stream_gen_mon_1/rx_axis_tlast $end
$var reg 1 l axi_stream_gen_mon_1/rx_axis_tuser $end
$var reg 1 m axi_stream_gen_mon_1/rx_axis_tready $end
$var reg 64 n axi_stream_gen_mon_1/tx_axis_tdata [63:0] $end
$var reg 8 P" axi_stream_gen_mon_1/tx_axis_tkeep [7:0] $end
$var reg 1 X" axi_stream_gen_mon_1/tx_axis_tvalid $end
$var reg 1 Y" axi_stream_gen_mon_1/tx_axis_tlast $end
$var reg 1 Z" axi_stream_gen_mon_1/tx_axis_tuser $end
$var reg 1 [" axi_stream_gen_mon_1/tx_axis_tready_1 $end
$var reg 64 \" axi_stream_gen_mon_1/tx_axis_tdata_lb [63:0] $end
$var reg 8 ># axi_stream_gen_mon_1/tx_axis_tkeep_lb [7:0] $end
$var reg 1 F# axi_stream_gen_mon_1/tx_axis_tvalid_lb $end
$var reg 1 G# axi_stream_gen_mon_1/tx_axis_tlast_lb $end
$var reg 1 H# axi_stream_gen_mon_1/tx_axis_tuser_lb $end
$var reg 1 I# axi_stream_gen_mon_1/rx_axis_tready_lb $end
$var reg 64 J# axi_stream_gen_mon_1/tx_axis_tdata_g [63:0] $end
$var reg 8 ,$ axi_stream_gen_mon_1/tx_axis_tkeep_g [7:0] $end
$var reg 1 4$ axi_stream_gen_mon_1/tx_axis_tvalid_g $end
$var reg 1 5$ axi_stream_gen_mon_1/tx_axis_tlast_g $end
$var reg 1 6$ axi_stream_gen_mon_1/tx_axis_tuser_g $end
$var reg 1 7$ axi_stream_gen_mon_1/tx_axis_tready $end
$var reg 1 8$ _TRIGGER $end
$var reg 1 9$ _WINDOW $end
$var reg 1 :$ _GAP $end
$upscope $end
$enddefinitions $end
#0
$dumpvars
b1011111111001101101111111100110110111111110011011011111111001101 "
b11111111 b
1j
0k
0l
1m
b1011111111010100101111111101010010111111110101001011111111010100 n
b11111111 P"
1X"
0Y"
0Z"
1["
b1100110011001100000000000000000000000000000000 \"
b11111111 >#
1F#
0G#
0H#
1I#
b1011111111010100101111111101010010111111110101001011111111010100 J#
b11111111 ,$
14$
05$
06$
17$
08$
19$
0:$
$end
#12
b10001011011111111001001011110000110011011011111111001101 "
b111 b
1k
1l
b111 P"
1Y"
b111 ,$
15$
#13
b0 "
b1 b
0j
0k
0l
b1000100010001000000000000000000000000000000000 n
b11111111 P"
0Y"
b1000100010001000000000000000000000000000000000 J#
b11111111 ,$
05$
#14
b1011111111010101011111010000000000010001000100010000000000000000 n
b1011111111010101011111010000000000010001000100010000000000000000 J#
#15
b1100110011001100000000000000000000000000000000 "
b11111111 b
1j
b1011111111010101101111111101010110111111110101011011111111010101 n
b111 >#
1G#
b1011111111010101101111111101010110111111110101011011111111010101 J#
#16
b1011111111001110011111010000000000010001000100010000000000000000 "
b11111111 >#
0G#
#17
b1011111111001110101111111100111010111111110011101011111111001110 "
0["
07$
#19
1["
17$
#32
b1001010011001011010010000101000110011101011111111001110 "
b111 b
1k
1l
b111 P"
1Y"
b111 ,$
15$
#33
b0 "
0j
0k
0l
b1000100010001000000000000000000000000000000000 n
b11111111 P"
0Y"
b1000100010001000000000000000000000000000000000 J#
b11111111 ,$
05$
#34
b1011111111010110011111010000000000010001000100010000000000000000 n
b1011111111010110011111010000000000010001000100010000000000000000 J#
#35
b1011111111010110101111111101011010111111110101101011111111010110 n
b111 >#
1G#
b1011111111010110101111111101011010111111110101101011111111010110 J#
#36
b1100110011001100000000000000000000000000000000 "
b11111111 b
1j
b11111111 >#
0G#
#37
b1011111111001111011111010000000000010001000100010000000000000000 "
0["
07$
#38
b1011111111001111101111111100111110111111110011111011111111001111 "
#40
1["
17$
#53
b1010100100111011011001100000110011111011111111001111 "
b111 b
1k
1l
b111 P"
1Y"
b111 ,$
15$
#54
b101010101010101010101010000000000000000000000000000000000000000 "
b1 b
0j
0k
0l
b1000100010001000000000000000000000000000000000 n
b11111111 P"
0Y"
b1000100010001000000000000000000000000000000000 J#
b11111111 ,$
05$
#55
b1011111111010111011111010000000000010001000100010000000000000000 n
b1011111111010111011111010000000000010001000100010000000000000000 J#
#56
b1100110011001100000000000000000000000000000000 "
b11111111 b
1j
b1011111111010111101111111101011110111111110101111011111111010111 n
b111 >#
1G#
b1011111111010111101111111101011110111111110101111011111111010111 J#
#57
b1011111111010000011111010000000000010001000100010000000000000000 "
b11111111 >#
0G#
#58
b1011111111010000101111111101000010111111110100001011111111010000 "
0["
07$
#60
1["
17$
#73
b10101101010001000110011001011100110100001011111111010000 "
b111 b
1k
1l
b111 P"
1Y"
b111 ,$
15$
#74
b0 "
0j
0k
0l
b1000100010001000000000000000000000000000000000 n
b11111111 P"
0Y"
b1000100010001000000000000000000000000000000000 J#
b11111111 ,$
05$
#75
b1011111111011000011111010000000000010001000100010000000000000000 n
b1011111111011000011111010000000000010001000100010000000000000000 J#
#76
b1011111111011000101111111101100010111111110110001011111111011000 n
b111 >#
1G#
b1011111111011000101111111101100010111111110110001011111111011000 J#
#77
b1100110011001100000000000000000000000000000000 "
b11111111 b
1j
b11111111 >#
0G#
#78
b1011111111010001011111010000000000010001000100010000000000000000 "
0["
07$
#79
b1011111111010001101111111101000110111111110100011011111111010001 "
#81
1["
17$
#94
b11101101101100100111010000010100110100011011111111010001 "
b111 b
1k
1l
b111 P"
1Y"
b111 ,$
15$
#95
b0 "
0j
0k
0l
b1000100010001000000000000000000000000000000000 n
b11111111 P"
0Y"
b1000100010001000000000000000000000000000000000 J#
b11111111 ,$
05$
#96
b1011111111011001011111010000000000010001000100010000000000000000 n
b1011111111011001011111010000000000010001000100010000000000000000 J#
#97
b1011111111011001101111111101100110111111110110011011111111011001 n
b111 >#
1G#
b1011111111011001101111111101100110111111110110011011111111011001 J#
#98
b1100110011001100000000000000000000000000000000 "
b11111111 b
1j
b11111111 >#
0G#
#99
b1011111111010010011111010000000000010001000100010000000000000000 "
0["
07$
#100
b1011111111010010101111111101001010111111110100101011111111010010 "
#101
1["
17$
#114
b111 P"
1Y"
b111 ,$
15$
#115
b101100101010000100001011001100110100101011111111010010 "
b111 b
1k
1l
b1000100010001000000000000000000000000000000000 n
b11111111 P"
0Y"
b1000100010001000000000000000000000000000000000 J#
b11111111 ,$
05$
#116
b101010101010101010101010000000000000000000000000000000000000000 "
b1 b
0j
0k
0l
b1011111111011010011111010000000000010001000100010000000000000000 n
b1011111111011010011111010000000000010001000100010000000000000000 J#
#117
b1011111111011010101111111101101010111111110110101011111111011010 n
b111 >#
1G#
b1011111111011010101111111101101010111111110110101011111111011010 J#
#118
b1100110011001100000000000000000000000000000000 "
b11111111 b
1j
b11111111 >#
0G#
#119
b1011111111010011011111010000000000010001000100010000000000000000 "
0["
07$
#120
b1011111111010011101111111101001110111111110100111011111111010011 "
#122
1["
17$
#135
b1101100010111100101000010000100110100111011111111010011 "
b111 b
1k
1l
b111 P"
1Y"
b111 ,$
15$
#136
b0 "
b1 b
0j
0k
0l
b1000100010001000000000000000000000000000000000 n
b11111111 P"
0Y"
b1000100010001000000000000000000000000000000000 J#
b11111111 ,$
05$
#137
b1011111111011011011111010000000000010001000100010000000000000000 n
b1011111111011011011111010000000000010001000100010000000000000000 J#
#138
b1100110011001100000000000000000000000000000000 "
b11111111 b
1j
b1011111111011011101111111101101110111111110110111011111111011011 n
b111 >#
1G#
b1011111111011011101111111101101110111111110110111011111111011011 J#
#139
b1011111111010100011111010000000000010001000100010000000000000000 "
b11111111 >#
0G#
#140
b1011111111010100101111111101010010111111110101001011111111010100 "
0["
07$
#142
1["
17$
#155
b1110101111011010010100100111101110101001011111111010100 "
b111 b
1k
1l
b111 P"
1Y"
b111 ,$
15$
#156
b0 "
0j
0k
0l
b1000100010001000000000000000000000000000000000 n
b11111111 P"
0Y"
b1000100010001000000000000000000000000000000000 J#
b11111111 ,$
05$
#157
b1011111111011100011111010000000000010001000100010000000000000000 n
b1011111111011100011111010000000000010001000100010000000000000000 J#
#158
b1011111111011100101111111101110010111111110111001011111111011100 n
b111 >#
1G#
b1011111111011100101111111101110010111111110111001011111111011100 J#
#159
b1100110011001100000000000000000000000000000000 "
b11111111 b
1j
b11111111 >#
0G#
#160
b1011111111010101011111010000000000010001000100010000000000000000 "
0["
07$
#161
b1011111111010101101111111101010110111111110101011011111111010101 "
#163
1["
17$
#176
b110101000110110011101101110101110101011011111111010101 "
b111 b
1k
1l
b111 P"
1Y"
b111 ,$
15$
#177
b101010101010101010101010000000000000000000000000000000000000000 "
b1 b
0j
0k
0l
b1000100010001000000000000000000000000000000000 n
b11111111 P"
0Y"
b1000100010001000000000000000000000000000000000 J#
b11111111 ,$
05$
#178
b1011111111011101011111010000000000010001000100010000000000000000 n
b1011111111011101011111010000000000010001000100010000000000000000 J#
#179
b1100110011001100000000000000000000000000000000 "
b11111111 b
1j
b1011111111011101101111111101110110111111110111011011111111011101 n
b111 >#
1G#
b1011111111011101101111111101110110111111110111011011111111011101 J#
#180
b1011111111010110011111010000000000010001000100010000000000000000 "
b11111111 >#
0G#
#181
b1011111111010110101111111101011010111111110101101011111111010110 "
0["
07$
#183
1["
17$
#196
b11110100000000010000110110101101110101101011111111010110 "
b111 b
1k
1l
b111 P"
1Y"
b111 ,$
15$
#197
b0 "
0j
0k
0l
b1000100010001000000000000000000000000000000000 n
b11111111 P"
0Y"
b1000100010001000000000000000000000000000000000 J#
b11111111 ,$
05$
#198
b1011111111011110011111010000000000010001000100010000000000000000 n
b1011111111011110011111010000000000010001000100010000000000000000 J#
#199
b1011111111011110101111111101111010111111110111101011111111011110 n
b111 >#
1G#
b1011111111011110101111111101111010111111110111101011111111011110 J#
#200
b1100110011001100000000000000000000000000000000 "
b11111111 b
1j
b11111111 >#
0G#
#201
b1011111111010111011111010000000000010001000100010000000000000000 "
0["
07$
#202
b1011111111010111101111111101011110111111110101111011111111010111 "
#204
1["
17$
#217
b10110100111101110001111111100101110101111011111111010111 "
b111 b
1k
1l
b111 P"
1Y"
b111 ,$
15$
#218
b0 "
0j
0k
0l
b1000100010001000000000000000000000000000000000 n
b11111111 P"
0Y"
b1000100010001000000000000000000000000000000000 J#
b11111111 ,$
05$
#219
b1011111111011111011111010000000000010001000100010000000000000000 n
b1011111111011111011111010000000000010001000100010000000000000000 J#
#220
b1011111111011111101111111101111110111111110111111011111111011111 n
b111 >#
1G#
b1011111111011111101111111101111110111111110111111011111111011111 J#
#221
b1100110011001100000000000000000000000000000000 "
b11111111 b
1j
b11111111 >#
0G#
#222
b1011111111011000011111010000000000010001000100010000000000000000 "
0["
07$
#223
b1011111111011000101111111101100010111111110110001011111111011000 "
#224
1["
17$
#237
b111 P"
1Y"
b111 ,$
15$
#238
b11000111011001111111111011011111110110001011111111011000 "
b111 b
1k
1l
b1000100010001000000000000000000000000000000000 n
b11111111 P"
0Y"
b1000100010001000000000000000000000000000000000 J#
b11111111 ,$
05$
#239
b101010101010101010101010000000000000000000000000000000000000000 "
b1 b
0j
0k
0l
b1011111111100000011111010000000000010001000100010000000000000000 n
b1011111111100000011111010000000000010001000100010000000000000000 J#
#240
b1011111111100000101111111110000010111111111000001011111111100000 n
b111 >#
1G#
b1011111111100000101111111110000010111111111000001011111111100000 J#
#241
b1100110011001100000000000000000000000000000000 "
b11111111 b
1j
b11111111 >#
0G#
#242
b1011111111011001011111010000000000010001000100010000000000000000 "
0["
07$
#243
b1011111111011001101111111101100110111111110110011011111111011001 "
#245
1["
17$
#258
b10000111100100011110110010010111110110011011111111011001 "
b111 b
1k
1l
b111 P"
1Y"
b111 ,$
15$
#259
b0 "
b1 b
0j
0k
0l
b1000100010001000000000000000000000000000000000 n
b11111111 P"
0Y"
b1000100010001000000000000000000000000000000000 J#
b11111111 ,$
05$
#260
b1011111111100001011111010000000000010001000100010000000000000000 n
b1011111111100001011111010000000000010001000100010000000000000000 J#
#261
b1100110011001100000000000000000000000000000000 "
b11111111 b
1j
b1011111111100001101111111110000110111111111000011011111111100001 n
b111 >#
1G#
b1011111111100001101111111110000110111111111000011011111111100001 J#
#262
b1011111111011010011111010000000000010001000100010000000000000000 "
b11111111 >#
0G#
#263
b1011111111011010101111111101101010111111110110101011111111011010 "
0["
07$
#265
1["
17$
#278
b1000110100010111101101001001111110110101011111111011010 "
b111 b
1k
1l
b111 P"
1Y"
b111 ,$
15$
#279
b0 "
0j
0k
0l
b1000100010001000000000000000000000000000000000 n
b11111111 P"
0Y"
b1000100010001000000000000000000000000000000000 J#
b11111111 ,$
05$
#280
b1011111111100010011111010000000000010001000100010000000000000000 n
b1011111111100010011111010000000000010001000100010000000000000000 J#
#281
b1011111111100010101111111110001010111111111000101011111111100010 n
b111 >#
1G#
b1011111111100010101111111110001010111111111000101011111111100010 J#
#282
b1100110011001100000000000000000000000000000000 "
b11111111 b
1j
b11111111 >#
0G#
#283
b1011111111011011011111010000000000010001000100010000000000000000 "
0["
07$
#284
b1011111111011011101111111101101110111111110110111011111111011011 "
#286
1["
17$
#299
b110011111011100100000000111110110111011111111011011 "
b111 b
1k
1l
b111 P"
1Y"
b111 ,$
15$
#300
b101010101010101010101010000000000000000000000000000000000000000 "
b1 b
0j
0k
0l
b1000100010001000000000000000000000000000000000 n
b11111111 P"
0Y"
b1000100010001000000000000000000000000000000000 J#
b11111111 ,$
05$
#301
b1011111111100011011111010000000000010001000100010000000000000000 n
b1011111111100011011111010000000000010001000100010000000000000000 J#
#302
b1100110011001100000000000000000000000000000000 "
b11111111 b
1j
b1011111111100011101111111110001110111111111000111011111111100011 n
b111 >#
1G#
b1011111111100011101111111110001110111111111000111011111111100011 J#
#303
b1011111111011100011111010000000000010001000100010000000000000000 "
b11111111 >#
0G#
#304
b1011111111011100101111111101110010111111110111001011111111011100 "
0["
07$
#306
1["
17$
#319
b11111110011101011000110111110110111001011111111011100 "
b111 b
1k
1l
b111 P"
1Y"
b111 ,$
15$
#320
b0 "
0j
0k
0l
b1000100010001000000000000000000000000000000000 n
b11111111 P"
0Y"
b1000100010001000000000000000000000000000000000 J#
b11111111 ,$
05$
#321
b1011111111100100011111010000000000010001000100010000000000000000 n
b1011111111100100011111010000000000010001000100010000000000000000 J#
#322
b1011111111100100101111111110010010111111111001001011111111100100 n
b111 >#
1G#
b1011111111100100101111111110010010111111111001001011111111100100 J#
#323
b1100110011001100000000000000000000000000000000 "
b11111111 b
1j
b11111111 >#
0G#
#324
b1011111111011101011111010000000000010001000100010000000000000000 "
0["
07$
#325
b1011111111011101101111111101110110111111110111011011111111011101 "
#327
1["
17$
#340
b1011111001110001010001111110110110111011011111111011101 "
b111 b
1k
1l
b111 P"
1Y"
b111 ,$
15$
#341
b0 "
0j
0k
0l
b1000100010001000000000000000000000000000000000 n
b11111111 P"
0Y"
b1000100010001000000000000000000000000000000000 J#
b11111111 ,$
05$
#342
b1011111111100101011111010000000000010001000100010000000000000000 n
b1011111111100101011111010000000000010001000100010000000000000000 J#
#343
b1011111111100101101111111110010110111111111001011011111111100101 n
b111 >#
1G#
b1011111111100101101111111110010110111111111001011011111111100101 J#
#344
b1100110011001100000000000000000000000000000000 "
b11111111 b
1j
b11111111 >#
0G#
#345
b1011111111011110011111010000000000010001000100010000000000000000 "
0["
07$
#346
b1011111111011110101111111101111010111111110111101011111111011110 "
#347
1["
17$
#360
b111 P"
1Y"
b111 ,$
15$
#361
b10011110001000101001010100101110110111101011111111011110 "
b111 b
1k
1l
b1000100010001000000000000000000000000000000000 n
b11111111 P"
0Y"
b1000100010001000000000000000000000000000000000 J#
b11111111 ,$
05$
#362
b101010101010101010101010000000000000000000000000000000000000000 "
b1 b
0j
0k
0l
b1011111111100110011111010000000000010001000100010000000000000000 n
b1011111111100110011111010000000000010001000100010000000000000000 J#
#363
b1011111111100110101111111110011010111111111001101011111111100110 n
b111 >#
1G#
b1011111111100110101111111110011010111111111001101011111111100110 J#
#364
b1100110011001100000000000000000000000000000000 "
b11111111 b
1j
b11111111 >#
0G#
#365
b1011111111011111011111010000000000010001000100010000000000000000 "
0["
07$
#366
b1011111111011111101111111101111110111111110111111011111111011111 "
#368
1["
17$
#381
b11011110110101001000011101100110110111111011111111011111 "
b111 b
1k
1l
b111 P"
1Y"
b111 ,$
15$
#382
b0 "
b1 b
0j
0k
0l
b1000100010001000000000000000000000000000000000 n
b11111111 P"
0Y"
b1000100010001000000000000000000000000000000000 J#
b11111111 ,$
05$
#383
b1011111111100111011111010000000000010001000100010000000000000000 n
b1011111111100111011111010000000000010001000100010000000000000000 J#
#384
b1100110011001100000000000000000000000000000000 "
b11111111 b
1j
b1011111111100111101111111110011110111111111001111011111111100111 n
b111 >#
1G#
b1011111111100111101111111110011110111111111001111011111111100111 J#
#385
b1011111111100000011111010000000000010001000100010000000000000000 "
b11111111 >#
0G#
#386
b1011111111100000101111111110000010111111111000001011111111100000 "
0["
07$
#388
1["
17$
#401
b1010111111000011001100010111111000001011111111100000 "
b111 b
1k
1l
b111 P"
1Y"
b111 ,$
15$
#402
b0 "
0j
0k
0l
b1000100010001000000000000000000000000000000000 n
b11111111 P"
0Y"
b1000100010001000000000000000000000000000000000 J#
b11111111 ,$
05$
#403
b1011111111101000011111010000000000010001000100010000000000000000 n
b1011111111101000011111010000000000010001000100010000000000000000 J#
#404
b1011111111101000101111111110100010111111111010001011111111101000 n
b111 >#
1G#
b1011111111101000101111111110100010111111111010001011111111101000 J#
#405
b1100110011001100000000000000000000000000000000 "
b11111111 b
1j
b11111111 >#
0G#
#406
b1011111111100001011111010000000000010001000100010000000000000000 "
0["
07$
#407
b1011111111100001101111111110000110111111111000011011111111100001 "
#409
1["
17$
#422
b1001010000010100010000101011111111000011011111111100001 "
b111 b
1k
1l
b111 P"
1Y"
b111 ,$
15$
#423
b101010101010101010101010000000000000000000000000000000000000000 "
b1 b
0j
0k
0l
b1000100010001000000000000000000000000000000000 n
b11111111 P"
0Y"
b1000100010001000000000000000000000000000000000 J#
b11111111 ,$
05$
#424
b1011111111101001011111010000000000010001000100010000000000000000 n
b1011111111101001011111010000000000010001000100010000000000000000 J#
#425
b1100110011001100000000000000000000000000000000 "
b11111111 b
1j
b1011111111101001101111111110100110111111111010011011111111101001 n
b111 >#
1G#
b1011111111101001101111111110100110111111111010011011111111101001 J#
#426
b1011111111100010011111010000000000010001000100010000000000000000 "
b11111111 >#
0G#
#427
b1011111111100010101111111110001010111111111000101011111111100010 "
0["
07$
#429
1["
17$
#442
b10001011000100000001011110000111111000101011111111100010 "
b111 b
1k
1l
b111 P"
1Y"
b111 ,$
15$
#443
b0 "
0j
0k
0l
b1000100010001000000000000000000000000000000000 n
b11111111 P"
0Y"
b1000100010001000000000000000000000000000000000 J#
b11111111 ,$
05$
#444
b1011111111101010011111010000000000010001000100010000000000000000 n
b1011111111101010011111010000000000010001000100010000000000000000 J#
#445
b1011111111101010101111111110101010111111111010101011111111101010 n
b111 >#
1G#
b1011111111101010101111111110101010111111111010101011111111101010 J#
#446
b1100110011001100000000000000000000000000000000 "
b11111111 b
1j
b11111111 >#
0G#
#447
b1011111111100011011111010000000000010001000100010000000000000000 "
0["
07$
#448
b1011111111100011101111111110001110111111111000111011111111100011 "
#450
1["
17$
#463
b11001011111001100000010111001111111000111011111111100011 "
b111 b
1k
1l
b111 P"
1Y"
b111 ,$
15$
#464
b0 "
0j
0k
0l
b1000100010001000000000000000000000000000000000 n
b11111111 P"
0Y"
b1000100010001000000000000000000000000000000000 J#
b11111111 ,$
05$
#465
b1011111111101011011111010000000000010001000100010000000000000000 n
b1011111111101011011111010000000000010001000100010000000000000000 J#
#466
b1011111111101011101111111110101110111111111010111011111111101011 n
b111 >#
1G#
b1011111111101011101111111110101110111111111010111011111111101011 J#
#467
b1100110011001100000000000000000000000000000000 "
b11111111 b
1j
b11111111 >#
0G#
#468
b1011111111100100011111010000000000010001000100010000000000000000 "
0["
07$
#469
b1011111111100100101111111110010010111111111001001011111111100100 "
#470
1["
17$
#483
b111 P"
1Y"
b111 ,$
15$
#484
b11010010010101010111110001110110111001001011111111100100 "
b111 b
1k
1l
b1000100010001000000000000000000000000000000000 n
b11111111 P"
0Y"
b1000100010001000000000000000000000000000000000 J#
b11111111 ,$
05$
#485
b101010101010101010101010000000000000000000000000000000000000000 "
b1 b
0j
0k
0l
b1011111111101100011111010000000000010001000100010000000000000000 n
b1011111111101100011111010000000000010001000100010000000000000000 J#
#486
b1011111111101100101111111110110010111111111011001011111111101100 n
b111 >#
1G#
b1011111111101100101111111110110010111111111011001011111111101100 J#
#487
b1100110011001100000000000000000000000000000000 "
b11111111 b
1j
b11111111 >#
0G#
#488
b1011111111100101011111010000000000010001000100010000000000000000 "
0["
07$
#489
b1011111111100101101111111110010110111111111001011011111111100101 "
#491
1["
17$
#504
b10010010101000110110111000111110111001011011111111100101 "
b111 b
1k
1l
b111 P"
1Y"
b111 ,$
15$
#505
b0 "
b1 b
0j
0k
0l
b1000100010001000000000000000000000000000000000 n
b11111111 P"
0Y"
b1000100010001000000000000000000000000000000000 J#
b11111111 ,$
05$
#506
b1011111111101101011111010000000000010001000100010000000000000000 n
b1011111111101101011111010000000000010001000100010000000000000000 J#
#507
b1100110011001100000000000000000000000000000000 "
b11111111 b
1j
b1011111111101101101111111110110110111111111011011011111111101101 n
b111 >#
1G#
b1011111111101101101111111110110110111111111011011011111111101101 J#
#508
b1011111111100110011111010000000000010001000100010000000000000000 "
b11111111 >#
0G#
#509
b1011111111100110101111111110011010111111111001101011111111100110 "
0["
07$
#511
1["
17$
#524
b1010011101110010101100011100110111001101011111111100110 "
b111 b
1k
1l
b111 P"
1Y"
b111 ,$
15$
#525
b0 "
0j
0k
0l
b1000100010001000000000000000000000000000000000 n
b11111111 P"
0Y"
b1000100010001000000000000000000000000000000000 J#
b11111111 ,$
05$
#526
b1011111111101110011111010000000000010001000100010000000000000000 n
b1011111111101110011111010000000000010001000100010000000000000000 J#
#527
b1011111111101110101111111110111010111111111011101011111111101110 n
b111 >#
1G#
b1011111111101110101111111110111010111111111011101011111111101110 J#
#528
b1100110011001100000000000000000000000000000000 "
b11111111 b
1j
b11111111 >#
0G#
#529
b1011111111100111011111010000000000010001000100010000000000000000 "
0["
07$
#530
b1011111111100111101111111110011110111111111001111011111111100111 "
#532
1["
17$
#545
b10011010011110100101010101110111001111011111111100111 "
b111 b
1k
1l
b111 P"
1Y"
b111 ,$
15$
#546
b101010101010101010101010000000000000000000000000000000000000000 "
b1 b
0j
0k
0l
b1000100010001000000000000000000000000000000000 n
b11111111 P"
0Y"
b1000100010001000000000000000000000000000000000 J#
b11111111 ,$
05$
#547
b1011111111101111011111010000000000010001000100010000000000000000 n
b1011111111101111011111010000000000010001000100010000000000000000 J#
#548
b1100110011001100000000000000000000000000000000 "
b11111111 b
1j
b1011111111101111101111111110111110111111111011111011111111101111 n
b111 >#
1G#
b1011111111101111101111111110111110111111111011111011111111101111 J#
#549
b1011111111101000011111010000000000010001000100010000000000000000 "
b11111111 >#
0G#
#550
b1011111111101000101111111110100010111111111010001011111111101000 "
0["
07$
#552
1["
17$
#565
b1100000110111111010101110010100111010001011111111101000 "
b111 b
1k
1l
b111 P"
1Y"
b111 ,$
15$
#566
b0 "
0j
0k
0l
b1000100010001000000000000000000000000000000000 n
b11111111 P"
0Y"
b1000100010001000000000000000000000000000000000 J#
b11111111 ,$
05$
#567
b1011111111110000011111010000000000010001000100010000000000000000 n
b1011111111110000011111010000000000010001000100010000000000000000 J#
#568
b1011111111110000101111111111000010111111111100001011111111110000 n
b111 >#
1G#
b1011111111110000101111111111000010111111111100001011111111110000 J#
#569
b1100110011001100000000000000000000000000000000 "
b11111111 b
1j
b11111111 >#
0G#
#570
b1011111111101001011111010000000000010001000100010000000000000000 "
0["
07$
#571
b1011111111101001101111111110100110111111111010011011111111101001 "
#573
1["
17$
#586
b100000001010011011100111011100111010011011111111101001 "
b111 b
1k
1l
b111 P"
1Y"
b111 ,$
15$
#587
b0 "
0j
0k
0l
b1000100010001000000000000000000000000000000000 n
b11111111 P"
0Y"
b1000100010001000000000000000000000000000000000 J#
b11111111 ,$
05$
#588
b1011111111110001011111010000000000010001000100010000000000000000 n
b1011111111110001011111010000000000010001000100010000000000000000 J#
#589
b1011111111110001101111111111000110111111111100011011111111110001 n
b111 >#
1G#
b1011111111110001101111111111000110111111111100011011111111110001 J#
#590
b1100110011001100000000000000000000000000000000 "
b11111111 b
1j
b11111111 >#
0G#
#591
b1011111111101010011111010000000000010001000100010000000000000000 "
0["
07$
#592
b1011111111101010101111111110101010111111111010101011111111101010 "
#593
1["
17$
#606
b111 P"
1Y"
b111 ,$
15$
#607
b11100001001100111000111100000100111010101011111111101010 "
b111 b
1k
1l
b1000100010001000000000000000000000000000000000 n
b11111111 P"
0Y"
b1000100010001000000000000000000000000000000000 J#
b11111111 ,$
05$
#608
b101010101010101010101010000000000000000000000000000000000000000 "
b1 b
0j
0k
0l
b1011111111110010011111010000000000010001000100010000000000000000 n
b1011111111110010011111010000000000010001000100010000000000000000 J#
#609
b1011111111110010101111111111001010111111111100101011111111110010 n
b111 >#
1G#
b1011111111110010101111111111001010111111111100101011111111110010 J#
#610
b1100110011001100000000000000000000000000000000 "
b11111111 b
1j
b11111111 >#
0G#
#611
b1011111111101011011111010000000000010001000100010000000000000000 "
0["
07$
#612
b1011111111101011101111111110101110111111111010111011111111101011 "
#614
1["
17$
#627
b10100001110001011001110101001100111010111011111111101011 "
b111 b
1k
1l
b111 P"
1Y"
b111 ,$
15$
#628
b0 "
b1 b
0j
0k
0l
b1000100010001000000000000000000000000000000000 n
b11111111 P"
0Y"
b1000100010001000000000000000000000000000000000 J#
b11111111 ,$
05$
#629
b1011111111110011011111010000000000010001000100010000000000000000 n
b1011111111110011011111010000000000010001000100010000000000000000 J#
#630
b1100110011001100000000000000000000000000000000 "
b11111111 b
1j
b1011111111110011101111111111001110111111111100111011111111110011 n
b111 >#
1G#
b1011111111110011101111111111001110111111111100111011111111110011 J#
#631
b1011111111101100011111010000000000010001000100010000000000000000 "
b11111111 >#
0G#
#632
b1011111111101100101111111110110010111111111011001011111111101100 "
0["
07$
#634
1["
17$
#647
b10111000011101101110010011110101111011001011111111101100 "
b111 b
1k
1l
b111 P"
1Y"
b111 ,$
15$
#648
b0 "
0j
0k
0l
b1000100010001000000000000000000000000000000000 n
b11111111 P"
0Y"
b1000100010001000000000000000000000000000000000 J#
b11111111 ,$
05$
#649
b1011111111110100011111010000000000010001000100010000000000000000 n
b1011111111110100011111010000000000010001000100010000000000000000 J#
#650
b1011111111110100101111111111010010111111111101001011111111110100 n
b111 >#
1G#
b1011111111110100101111111111010010111111111101001011111111110100 J#
#651
b1100110011001100000000000000000000000000000000 "
b11111111 b
1j
b11111111 >#
0G#
#652
b1011111111101101011111010000000000010001000100010000000000000000 "
0["
07$
#653
b1011111111101101101111111110110110111111111011011011111111101101 "
#655
1["
17$
#668
b11111000100000001111011010111101111011011011111111101101 "
b111 b
1k
1l
b111 P"
1Y"
b111 ,$
15$
#669
b101010101010101010101010000000000000000000000000000000000000000 "
b1 b
0j
0k
0l
b1000100010001000000000000000000000000000000000 n
b11111111 P"
0Y"
b1000100010001000000000000000000000000000000000 J#
b11111111 ,$
05$
#670
b1011111111110101011111010000000000010001000100010000000000000000 n
b1011111111110101011111010000000000010001000100010000000000000000 J#
#671
b1100110011001100000000000000000000000000000000 "
b11111111 b
1j
b1011111111110101101111111111010110111111111101011011111111110101 n
b111 >#
1G#
b1011111111110101101111111111010110111111111101011011111111110101 J#
#672
b1011111111101110011111010000000000010001000100010000000000000000 "
b11111111 >#
0G#
#673
b1011111111101110101111111110111010111111111011101011111111101110 "
0["
07$
#675
1["
17$
#688
b111001100110101100000001100101111011101011111111101110 "
b111 b
1k
1l
b111 P"
1Y"
b111 ,$
15$
#689
b0 "
0j
0k
0l
b1000100010001000000000000000000000000000000000 n
b11111111 P"
0Y"
b1000100010001000000000000000000000000000000000 J#
b11111111 ,$
05$
#690
b1011111111110110011111010000000000010001000100010000000000000000 n
b1011111111110110011111010000000000010001000100010000000000000000 J#
#691
b1011111111110110101111111111011010111111111101101011111111110110 n
b111 >#
1G#
b1011111111110110101111111111011010111111111101101011111111110110 J#
#692
b1100110011001100000000000000000000000000000000 "
b11111111 b
1j
b11111111 >#
0G#
#693
b1011111111101111011111010000000000010001000100010000000000000000 "
0["
07$
#694
b1011111111101111101111111110111110111111111011111011111111101111 "
#696
1["
17$
#709
b1111001011011001101001000101101111011111011111111101111 "
b111 b
1k
1l
b111 P"
1Y"
b111 ,$
15$
#710
b0 "
0j
0k
0l
b1000100010001000000000000000000000000000000000 n
b11111111 P"
0Y"
b1000100010001000000000000000000000000000000000 J#
b11111111 ,$
05$
#711
b1011111111110111011111010000000000010001000100010000000000000000 n
b1011111111110111011111010000000000010001000100010000000000000000 J#
#712
b1011111111110111101111111111011110111111111101111011111111110111 n
b111 >#
1G#
b1011111111110111101111111111011110111111111101111011111111110111 J#
#713
b1100110011001100000000000000000000000000000000 "
b11111111 b
1j
b11111111 >#
0G#
#714
b1011111111110000011111010000000000010001000100010000000000000000 "
0["
07$
#715
b1011111111110000101111111111000010111111111100001011111111110000 "
#716
1["
17$
#729
b111 P"
1Y"
b111 ,$
15$
