kcu105_10gbaser_trd/hardware/vivado/runs/impl_run/.Xil/Vivado-31180-DESKTOP-4A374NS/hw_ila_data_1/zip_work/waveform.vcd
$date
        2019-Nov-14 20:08:40
$end
$version
        Vivado v2019.2 (64-bit)
$end
$timescale
        1ps
$end
$scope module dut $end
$var reg 64 " axi_stream_gen_mon_0/rx_axis_tdata [63:0] $end
$var reg 8 b axi_stream_gen_mon_0/rx_axis_tkeep [7:0] $end
$var reg 1 j axi_stream_gen_mon_0/rx_axis_tvalid $end
$var reg 1 k axi_stream_gen_mon_0/rx_axis_tlast $end
$var reg 1 l axi_stream_gen_mon_0/rx_axis_tuser $end
$var reg 1 m axi_stream_gen_mon_0/rx_axis_tready $end
$var reg 64 n axi_stream_gen_mon_0/tx_axis_tdata [63:0] $end
$var reg 8 P" axi_stream_gen_mon_0/tx_axis_tkeep [7:0] $end
$var reg 1 X" axi_stream_gen_mon_0/tx_axis_tvalid $end
$var reg 1 Y" axi_stream_gen_mon_0/tx_axis_tlast $end
$var reg 1 Z" axi_stream_gen_mon_0/tx_axis_tuser $end
$var reg 1 [" axi_stream_gen_mon_0/tx_axis_tready_1 $end
$var reg 64 \" axi_stream_gen_mon_0/tx_axis_tdata_lb [63:0] $end
$var reg 8 ># axi_stream_gen_mon_0/tx_axis_tkeep_lb [7:0] $end
$var reg 1 F# axi_stream_gen_mon_0/tx_axis_tvalid_lb $end
$var reg 1 G# axi_stream_gen_mon_0/tx_axis_tlast_lb $end
$var reg 1 H# axi_stream_gen_mon_0/tx_axis_tuser_lb $end
$var reg 1 I# axi_stream_gen_mon_0/rx_axis_tready_lb $end
$var reg 64 J# axi_stream_gen_mon_0/tx_axis_tdata_g [63:0] $end
$var reg 8 ,$ axi_stream_gen_mon_0/tx_axis_tkeep_g [7:0] $end
$var reg 1 4$ axi_stream_gen_mon_0/tx_axis_tvalid_g $end
$var reg 1 5$ axi_stream_gen_mon_0/tx_axis_tlast_g $end
$var reg 1 6$ axi_stream_gen_mon_0/tx_axis_tuser_g $end
$var reg 1 7$ axi_stream_gen_mon_0/tx_axis_tready $end
$var reg 1 8$ _TRIGGER $end
$var reg 1 9$ _WINDOW $end
$var reg 1 :$ _GAP $end
$upscope $end
$enddefinitions $end
#0
$dumpvars
b1110000000000000000000000000000000001111000 "
b11111 b
0j
0k
0l
1m
b101000110000000010100011000000001010001100000000101000110 n
b11111111 P"
1X"
0Y"
0Z"
1["
b1100110011001100000000000000000000000000000000 \"
b11111 >#
0F#
1G#
0H#
1I#
b101000110000000010100011000000001010001100000000101000110 J#
b11111111 ,$
14$
05$
06$
17$
08$
19$
0:$
$end
#3
b11111 P"
1Y"
b11111 ,$
15$
#4
b1000100010001000000000000000000000000000000000 n
b11111111 P"
0Y"
b1000100010001000000000000000000000000000000000 J#
b11111111 ,$
05$
#5
b101000111010011110000000000010001000100010000000000000000 n
b101000111010011110000000000010001000100010000000000000000 J#
#6
b101000111000000010100011100000001010001110000000101000111 n
b101000111000000010100011100000001010001110000000101000111 J#
#8
0["
07$
#11
1["
17$
#18
b11111 P"
1Y"
b11111 ,$
15$
#19
b1000100010001000000000000000000000000000000000 n
b11111111 P"
0Y"
b1000100010001000000000000000000000000000000000 J#
b11111111 ,$
05$
#20
b101001000010011110000000000010001000100010000000000000000 n
b101001000010011110000000000010001000100010000000000000000 J#
#21
b101001000000000010100100000000001010010000000000101001000 n
b101001000000000010100100000000001010010000000000101001000 J#
#23
0["
07$
#26
1["
17$
#33
b11111 P"
1Y"
b11111 ,$
15$
#34
b1000100010001000000000000000000000000000000000 n
b11111111 P"
0Y"
b1000100010001000000000000000000000000000000000 J#
b11111111 ,$
05$
#35
b101001001010011110000000000010001000100010000000000000000 n
b101001001010011110000000000010001000100010000000000000000 J#
#36
b101001001000000010100100100000001010010010000000101001001 n
b101001001000000010100100100000001010010010000000101001001 J#
#38
0["
07$
#41
1["
17$
#48
b11111 P"
1Y"
b11111 ,$
15$
#49
b1000100010001000000000000000000000000000000000 n
b11111111 P"
0Y"
b1000100010001000000000000000000000000000000000 J#
b11111111 ,$
05$
#50
b101001010010011110000000000010001000100010000000000000000 n
b101001010010011110000000000010001000100010000000000000000 J#
#51
b101001010000000010100101000000001010010100000000101001010 n
b101001010000000010100101000000001010010100000000101001010 J#
#53
0["
07$
#56
1["
17$
#63
b11111 P"
1Y"
b11111 ,$
15$
#64
b1000100010001000000000000000000000000000000000 n
b11111111 P"
0Y"
b1000100010001000000000000000000000000000000000 J#
b11111111 ,$
05$
#65
b101001011010011110000000000010001000100010000000000000000 n
b101001011010011110000000000010001000100010000000000000000 J#
#66
b101001011000000010100101100000001010010110000000101001011 n
b101001011000000010100101100000001010010110000000101001011 J#
#68
0["
07$
#71
1["
17$
#78
b11111 P"
1Y"
b11111 ,$
15$
#79
b1000100010001000000000000000000000000000000000 n
b11111111 P"
0Y"
b1000100010001000000000000000000000000000000000 J#
b11111111 ,$
05$
#80
b101001100010011110000000000010001000100010000000000000000 n
b101001100010011110000000000010001000100010000000000000000 J#
#81
b101001100000000010100110000000001010011000000000101001100 n
b101001100000000010100110000000001010011000000000101001100 J#
#83
0["
07$
#86
1["
17$
#93
b11111 P"
1Y"
b11111 ,$
15$
#94
b1000100010001000000000000000000000000000000000 n
b11111111 P"
0Y"
b1000100010001000000000000000000000000000000000 J#
b11111111 ,$
05$
#95
b101001101010011110000000000010001000100010000000000000000 n
b101001101010011110000000000010001000100010000000000000000 J#
#96
b101001101000000010100110100000001010011010000000101001101 n
b101001101000000010100110100000001010011010000000101001101 J#
#98
0["
07$
#101
1["
17$
#108
b11111 P"
1Y"
b11111 ,$
15$
#109
b1000100010001000000000000000000000000000000000 n
b11111111 P"
0Y"
b1000100010001000000000000000000000000000000000 J#
b11111111 ,$
05$
#110
b101001110010011110000000000010001000100010000000000000000 n
b101001110010011110000000000010001000100010000000000000000 J#
#111
b101001110000000010100111000000001010011100000000101001110 n
b101001110000000010100111000000001010011100000000101001110 J#
#113
0["
07$
#116
1["
17$
#123
b11111 P"
1Y"
b11111 ,$
15$
#124
b1000100010001000000000000000000000000000000000 n
b11111111 P"
0Y"
b1000100010001000000000000000000000000000000000 J#
b11111111 ,$
05$
#125
b101001111010011110000000000010001000100010000000000000000 n
b101001111010011110000000000010001000100010000000000000000 J#
#126
b101001111000000010100111100000001010011110000000101001111 n
b101001111000000010100111100000001010011110000000101001111 J#
#128
0["
07$
#131
1["
17$
#138
b11111 P"
1Y"
b11111 ,$
15$
#139
b1000100010001000000000000000000000000000000000 n
b11111111 P"
0Y"
b1000100010001000000000000000000000000000000000 J#
b11111111 ,$
05$
#140
b101010000010011110000000000010001000100010000000000000000 n
b101010000010011110000000000010001000100010000000000000000 J#
#141
b101010000000000010101000000000001010100000000000101010000 n
b101010000000000010101000000000001010100000000000101010000 J#
#143
0["
07$
#146
1["
17$
#153
b11111 P"
1Y"
b11111 ,$
15$
#154
b1000100010001000000000000000000000000000000000 n
b11111111 P"
0Y"
b1000100010001000000000000000000000000000000000 J#
b11111111 ,$
05$
#155
b101010001010011110000000000010001000100010000000000000000 n
b101010001010011110000000000010001000100010000000000000000 J#
#156
b101010001000000010101000100000001010100010000000101010001 n
b101010001000000010101000100000001010100010000000101010001 J#
#158
0["
07$
#161
1["
17$
#168
b11111 P"
1Y"
b11111 ,$
15$
#169
b1000100010001000000000000000000000000000000000 n
b11111111 P"
0Y"
b1000100010001000000000000000000000000000000000 J#
b11111111 ,$
05$
#170
b101010010010011110000000000010001000100010000000000000000 n
b101010010010011110000000000010001000100010000000000000000 J#
#171
b101010010000000010101001000000001010100100000000101010010 n
b101010010000000010101001000000001010100100000000101010010 J#
#173
0["
07$
#176
1["
17$
#183
b11111 P"
1Y"
b11111 ,$
15$
#184
b1000100010001000000000000000000000000000000000 n
b11111111 P"
0Y"
b1000100010001000000000000000000000000000000000 J#
b11111111 ,$
05$
#185
b101010011010011110000000000010001000100010000000000000000 n
b101010011010011110000000000010001000100010000000000000000 J#
#186
b101010011000000010101001100000001010100110000000101010011 n
b101010011000000010101001100000001010100110000000101010011 J#
#188
0["
07$
#191
1["
17$
#198
b11111 P"
1Y"
b11111 ,$
15$
#199
b1000100010001000000000000000000000000000000000 n
b11111111 P"
0Y"
b1000100010001000000000000000000000000000000000 J#
b11111111 ,$
05$
#200
b101010100010011110000000000010001000100010000000000000000 n
b101010100010011110000000000010001000100010000000000000000 J#
#201
b101010100000000010101010000000001010101000000000101010100 n
b101010100000000010101010000000001010101000000000101010100 J#
#203
0["
07$
#206
1["
17$
#213
b11111 P"
1Y"
b11111 ,$
15$
#214
b1000100010001000000000000000000000000000000000 n
b11111111 P"
0Y"
b1000100010001000000000000000000000000000000000 J#
b11111111 ,$
05$
#215
b101010101010011110000000000010001000100010000000000000000 n
b101010101010011110000000000010001000100010000000000000000 J#
#216
b101010101000000010101010100000001010101010000000101010101 n
b101010101000000010101010100000001010101010000000101010101 J#
#218
0["
07$
#221
1["
17$
#228
b11111 P"
1Y"
b11111 ,$
15$
#229
b1000100010001000000000000000000000000000000000 n
b11111111 P"
0Y"
b1000100010001000000000000000000000000000000000 J#
b11111111 ,$
05$
#230
b101010110010011110000000000010001000100010000000000000000 n
b101010110010011110000000000010001000100010000000000000000 J#
#231
b101010110000000010101011000000001010101100000000101010110 n
b101010110000000010101011000000001010101100000000101010110 J#
#233
0["
07$
#236
1["
17$
#243
b11111 P"
1Y"
b11111 ,$
15$
#244
b1000100010001000000000000000000000000000000000 n
b11111111 P"
0Y"
b1000100010001000000000000000000000000000000000 J#
b11111111 ,$
05$
#245
b101010111010011110000000000010001000100010000000000000000 n
b101010111010011110000000000010001000100010000000000000000 J#
#246
b101010111000000010101011100000001010101110000000101010111 n
b101010111000000010101011100000001010101110000000101010111 J#
#248
0["
07$
#251
1["
17$
#258
b11111 P"
1Y"
b11111 ,$
15$
#259
b1000100010001000000000000000000000000000000000 n
b11111111 P"
0Y"
b1000100010001000000000000000000000000000000000 J#
b11111111 ,$
05$
#260
b101011000010011110000000000010001000100010000000000000000 n
b101011000010011110000000000010001000100010000000000000000 J#
#261
b101011000000000010101100000000001010110000000000101011000 n
b101011000000000010101100000000001010110000000000101011000 J#
#263
0["
07$
#266
1["
17$
#273
b11111 P"
1Y"
b11111 ,$
15$
#274
b1000100010001000000000000000000000000000000000 n
b11111111 P"
0Y"
b1000100010001000000000000000000000000000000000 J#
b11111111 ,$
05$
#275
b101011001010011110000000000010001000100010000000000000000 n
b101011001010011110000000000010001000100010000000000000000 J#
#276
b101011001000000010101100100000001010110010000000101011001 n
b101011001000000010101100100000001010110010000000101011001 J#
#278
0["
07$
#281
1["
17$
#288
b11111 P"
1Y"
b11111 ,$
15$
#289
b1000100010001000000000000000000000000000000000 n
b11111111 P"
0Y"
b1000100010001000000000000000000000000000000000 J#
b11111111 ,$
05$
#290
b101011010010011110000000000010001000100010000000000000000 n
b101011010010011110000000000010001000100010000000000000000 J#
#291
b101011010000000010101101000000001010110100000000101011010 n
b101011010000000010101101000000001010110100000000101011010 J#
#293
0["
07$
#296
1["
17$
#303
b11111 P"
1Y"
b11111 ,$
15$
#304
b1000100010001000000000000000000000000000000000 n
b11111111 P"
0Y"
b1000100010001000000000000000000000000000000000 J#
b11111111 ,$
05$
#305
b101011011010011110000000000010001000100010000000000000000 n
b101011011010011110000000000010001000100010000000000000000 J#
#306
b101011011000000010101101100000001010110110000000101011011 n
b101011011000000010101101100000001010110110000000101011011 J#
#308
0["
07$
#311
1["
17$
#318
b11111 P"
1Y"
b11111 ,$
15$
#319
b1000100010001000000000000000000000000000000000 n
b11111111 P"
0Y"
b1000100010001000000000000000000000000000000000 J#
b11111111 ,$
05$
#320
b101011100010011110000000000010001000100010000000000000000 n
b101011100010011110000000000010001000100010000000000000000 J#
#321
b101011100000000010101110000000001010111000000000101011100 n
b101011100000000010101110000000001010111000000000101011100 J#
#323
0["
07$
#326
1["
17$
#333
b11111 P"
1Y"
b11111 ,$
15$
#334
b1000100010001000000000000000000000000000000000 n
b11111111 P"
0Y"
b1000100010001000000000000000000000000000000000 J#
b11111111 ,$
05$
#335
b101011101010011110000000000010001000100010000000000000000 n
b101011101010011110000000000010001000100010000000000000000 J#
#336
b101011101000000010101110100000001010111010000000101011101 n
b101011101000000010101110100000001010111010000000101011101 J#
#338
0["
07$
#341
1["
17$
#348
b11111 P"
1Y"
b11111 ,$
15$
#349
b1000100010001000000000000000000000000000000000 n
b11111111 P"
0Y"
b1000100010001000000000000000000000000000000000 J#
b11111111 ,$
05$
#350
b101011110010011110000000000010001000100010000000000000000 n
b101011110010011110000000000010001000100010000000000000000 J#
#351
b101011110000000010101111000000001010111100000000101011110 n
b101011110000000010101111000000001010111100000000101011110 J#
#353
0["
07$
#356
1["
17$
#363
b11111 P"
1Y"
b11111 ,$
15$
#364
b1000100010001000000000000000000000000000000000 n
b11111111 P"
0Y"
b1000100010001000000000000000000000000000000000 J#
b11111111 ,$
05$
#365
b101011111010011110000000000010001000100010000000000000000 n
b101011111010011110000000000010001000100010000000000000000 J#
#366
b101011111000000010101111100000001010111110000000101011111 n
b101011111000000010101111100000001010111110000000101011111 J#
#368
0["
07$
#371
1["
17$
#378
b11111 P"
1Y"
b11111 ,$
15$
#379
b1000100010001000000000000000000000000000000000 n
b11111111 P"
0Y"
b1000100010001000000000000000000000000000000000 J#
b11111111 ,$
05$
#380
b101100000010011110000000000010001000100010000000000000000 n
b101100000010011110000000000010001000100010000000000000000 J#
#381
b101100000000000010110000000000001011000000000000101100000 n
b101100000000000010110000000000001011000000000000101100000 J#
#383
0["
07$
#386
1["
17$
#393
b11111 P"
1Y"
b11111 ,$
15$
#394
b1000100010001000000000000000000000000000000000 n
b11111111 P"
0Y"
b1000100010001000000000000000000000000000000000 J#
b11111111 ,$
05$
#395
b101100001010011110000000000010001000100010000000000000000 n
b101100001010011110000000000010001000100010000000000000000 J#
#396
b101100001000000010110000100000001011000010000000101100001 n
b101100001000000010110000100000001011000010000000101100001 J#
#398
0["
07$
#401
1["
17$
#408
b11111 P"
1Y"
b11111 ,$
15$
#409
b1000100010001000000000000000000000000000000000 n
b11111111 P"
0Y"
b1000100010001000000000000000000000000000000000 J#
b11111111 ,$
05$
#410
b101100010010011110000000000010001000100010000000000000000 n
b101100010010011110000000000010001000100010000000000000000 J#
#411
b101100010000000010110001000000001011000100000000101100010 n
b101100010000000010110001000000001011000100000000101100010 J#
#413
0["
07$
#416
1["
17$
#423
b11111 P"
1Y"
b11111 ,$
15$
#424
b1000100010001000000000000000000000000000000000 n
b11111111 P"
0Y"
b1000100010001000000000000000000000000000000000 J#
b11111111 ,$
05$
#425
b101100011010011110000000000010001000100010000000000000000 n
b101100011010011110000000000010001000100010000000000000000 J#
#426
b101100011000000010110001100000001011000110000000101100011 n
b101100011000000010110001100000001011000110000000101100011 J#
#428
0["
07$
#431
1["
17$
#438
b11111 P"
1Y"
b11111 ,$
15$
#439
b1000100010001000000000000000000000000000000000 n
b11111111 P"
0Y"
b1000100010001000000000000000000000000000000000 J#
b11111111 ,$
05$
#440
b101100100010011110000000000010001000100010000000000000000 n
b101100100010011110000000000010001000100010000000000000000 J#
#441
b101100100000000010110010000000001011001000000000101100100 n
b101100100000000010110010000000001011001000000000101100100 J#
#443
0["
07$
#446
1["
17$
#453
b11111 P"
1Y"
b11111 ,$
15$
#454
b1000100010001000000000000000000000000000000000 n
b11111111 P"
0Y"
b1000100010001000000000000000000000000000000000 J#
b11111111 ,$
05$
#455
b101100101010011110000000000010001000100010000000000000000 n
b101100101010011110000000000010001000100010000000000000000 J#
#456
b101100101000000010110010100000001011001010000000101100101 n
b101100101000000010110010100000001011001010000000101100101 J#
#458
0["
07$
#461
1["
17$
#468
b11111 P"
1Y"
b11111 ,$
15$
#469
b1000100010001000000000000000000000000000000000 n
b11111111 P"
0Y"
b1000100010001000000000000000000000000000000000 J#
b11111111 ,$
05$
#470
b101100110010011110000000000010001000100010000000000000000 n
b101100110010011110000000000010001000100010000000000000000 J#
#471
b101100110000000010110011000000001011001100000000101100110 n
b101100110000000010110011000000001011001100000000101100110 J#
#473
0["
07$
#476
1["
17$
#483
b11111 P"
1Y"
b11111 ,$
15$
#484
b1000100010001000000000000000000000000000000000 n
b11111111 P"
0Y"
b1000100010001000000000000000000000000000000000 J#
b11111111 ,$
05$
#485
b101100111010011110000000000010001000100010000000000000000 n
b101100111010011110000000000010001000100010000000000000000 J#
#486
b101100111000000010110011100000001011001110000000101100111 n
b101100111000000010110011100000001011001110000000101100111 J#
#488
0["
07$
#491
1["
17$
#498
b11111 P"
1Y"
b11111 ,$
15$
#499
b1000100010001000000000000000000000000000000000 n
b11111111 P"
0Y"
b1000100010001000000000000000000000000000000000 J#
b11111111 ,$
05$
#500
b101101000010011110000000000010001000100010000000000000000 n
b101101000010011110000000000010001000100010000000000000000 J#
#501
b101101000000000010110100000000001011010000000000101101000 n
b101101000000000010110100000000001011010000000000101101000 J#
#503
0["
07$
#506
1["
17$
#513
b11111 P"
1Y"
b11111 ,$
15$
#514
b1000100010001000000000000000000000000000000000 n
b11111111 P"
0Y"
b1000100010001000000000000000000000000000000000 J#
b11111111 ,$
05$
#515
b101101001010011110000000000010001000100010000000000000000 n
b101101001010011110000000000010001000100010000000000000000 J#
#516
b101101001000000010110100100000001011010010000000101101001 n
b101101001000000010110100100000001011010010000000101101001 J#
#518
0["
07$
#521
1["
17$
#528
b11111 P"
1Y"
b11111 ,$
15$
#529
b1000100010001000000000000000000000000000000000 n
b11111111 P"
0Y"
b1000100010001000000000000000000000000000000000 J#
b11111111 ,$
05$
#530
b101101010010011110000000000010001000100010000000000000000 n
b101101010010011110000000000010001000100010000000000000000 J#
#531
b101101010000000010110101000000001011010100000000101101010 n
b101101010000000010110101000000001011010100000000101101010 J#
#533
0["
07$
#536
1["
17$
#543
b11111 P"
1Y"
b11111 ,$
15$
#544
b1000100010001000000000000000000000000000000000 n
b11111111 P"
0Y"
b1000100010001000000000000000000000000000000000 J#
b11111111 ,$
05$
#545
b101101011010011110000000000010001000100010000000000000000 n
b101101011010011110000000000010001000100010000000000000000 J#
#546
b101101011000000010110101100000001011010110000000101101011 n
b101101011000000010110101100000001011010110000000101101011 J#
#548
0["
07$
#551
1["
17$
#558
b11111 P"
1Y"
b11111 ,$
15$
#559
b1000100010001000000000000000000000000000000000 n
b11111111 P"
0Y"
b1000100010001000000000000000000000000000000000 J#
b11111111 ,$
05$
#560
b101101100010011110000000000010001000100010000000000000000 n
b101101100010011110000000000010001000100010000000000000000 J#
#561
b101101100000000010110110000000001011011000000000101101100 n
b101101100000000010110110000000001011011000000000101101100 J#
#563
0["
07$
#566
1["
17$
#573
b11111 P"
1Y"
b11111 ,$
15$
#574
b1000100010001000000000000000000000000000000000 n
b11111111 P"
0Y"
b1000100010001000000000000000000000000000000000 J#
b11111111 ,$
05$
#575
b101101101010011110000000000010001000100010000000000000000 n
b101101101010011110000000000010001000100010000000000000000 J#
#576
b101101101000000010110110100000001011011010000000101101101 n
b101101101000000010110110100000001011011010000000101101101 J#
#578
0["
07$
#581
1["
17$
#588
b11111 P"
1Y"
b11111 ,$
15$
#589
b1000100010001000000000000000000000000000000000 n
b11111111 P"
0Y"
b1000100010001000000000000000000000000000000000 J#
b11111111 ,$
05$
#590
b101101110010011110000000000010001000100010000000000000000 n
b101101110010011110000000000010001000100010000000000000000 J#
#591
b101101110000000010110111000000001011011100000000101101110 n
b101101110000000010110111000000001011011100000000101101110 J#
#593
0["
07$
#596
1["
17$
#603
b11111 P"
1Y"
b11111 ,$
15$
#604
b1000100010001000000000000000000000000000000000 n
b11111111 P"
0Y"
b1000100010001000000000000000000000000000000000 J#
b11111111 ,$
05$
#605
b101101111010011110000000000010001000100010000000000000000 n
b101101111010011110000000000010001000100010000000000000000 J#
#606
b101101111000000010110111100000001011011110000000101101111 n
b101101111000000010110111100000001011011110000000101101111 J#
#608
0["
07$
#611
1["
17$
#618
b11111 P"
1Y"
b11111 ,$
15$
#619
b1000100010001000000000000000000000000000000000 n
b11111111 P"
0Y"
b1000100010001000000000000000000000000000000000 J#
b11111111 ,$
05$
#620
b101110000010011110000000000010001000100010000000000000000 n
b101110000010011110000000000010001000100010000000000000000 J#
#621
b101110000000000010111000000000001011100000000000101110000 n
b101110000000000010111000000000001011100000000000101110000 J#
#623
0["
07$
#626
1["
17$
#633
b11111 P"
1Y"
b11111 ,$
15$
#634
b1000100010001000000000000000000000000000000000 n
b11111111 P"
0Y"
b1000100010001000000000000000000000000000000000 J#
b11111111 ,$
05$
#635
b101110001010011110000000000010001000100010000000000000000 n
b101110001010011110000000000010001000100010000000000000000 J#
#636
b101110001000000010111000100000001011100010000000101110001 n
b101110001000000010111000100000001011100010000000101110001 J#
#638
0["
07$
#641
1["
17$
#648
b11111 P"
1Y"
b11111 ,$
15$
#649
b1000100010001000000000000000000000000000000000 n
b11111111 P"
0Y"
b1000100010001000000000000000000000000000000000 J#
b11111111 ,$
05$
#650
b101110010010011110000000000010001000100010000000000000000 n
b101110010010011110000000000010001000100010000000000000000 J#
#651
b101110010000000010111001000000001011100100000000101110010 n
b101110010000000010111001000000001011100100000000101110010 J#
#653
0["
07$
#656
1["
17$
#663
b11111 P"
1Y"
b11111 ,$
15$
#664
b1000100010001000000000000000000000000000000000 n
b11111111 P"
0Y"
b1000100010001000000000000000000000000000000000 J#
b11111111 ,$
05$
#665
b101110011010011110000000000010001000100010000000000000000 n
b101110011010011110000000000010001000100010000000000000000 J#
#666
b101110011000000010111001100000001011100110000000101110011 n
b101110011000000010111001100000001011100110000000101110011 J#
#668
0["
07$
#671
1["
17$
#678
b11111 P"
1Y"
b11111 ,$
15$
#679
b1000100010001000000000000000000000000000000000 n
b11111111 P"
0Y"
b1000100010001000000000000000000000000000000000 J#
b11111111 ,$
05$
#680
b101110100010011110000000000010001000100010000000000000000 n
b101110100010011110000000000010001000100010000000000000000 J#
#681
b101110100000000010111010000000001011101000000000101110100 n
b101110100000000010111010000000001011101000000000101110100 J#
#683
0["
07$
#686
1["
17$
#693
b11111 P"
1Y"
b11111 ,$
15$
#694
b1000100010001000000000000000000000000000000000 n
b11111111 P"
0Y"
b1000100010001000000000000000000000000000000000 J#
b11111111 ,$
05$
#695
b101110101010011110000000000010001000100010000000000000000 n
b101110101010011110000000000010001000100010000000000000000 J#
#696
b101110101000000010111010100000001011101010000000101110101 n
b101110101000000010111010100000001011101010000000101110101 J#
#698
0["
07$
#701
1["
17$
#708
b11111 P"
1Y"
b11111 ,$
15$
#709
b1000100010001000000000000000000000000000000000 n
b11111111 P"
0Y"
b1000100010001000000000000000000000000000000000 J#
b11111111 ,$
05$
#710
b101110110010011110000000000010001000100010000000000000000 n
b101110110010011110000000000010001000100010000000000000000 J#
#711
b101110110000000010111011000000001011101100000000101110110 n
b101110110000000010111011000000001011101100000000101110110 J#
#713
0["
07$
#716
1["
17$
#723
b11111 P"
1Y"
b11111 ,$
15$
#724
b1000100010001000000000000000000000000000000000 n
b11111111 P"
0Y"
b1000100010001000000000000000000000000000000000 J#
b11111111 ,$
05$
#725
b101110111010011110000000000010001000100010000000000000000 n
b101110111010011110000000000010001000100010000000000000000 J#
#726
b101110111000000010111011100000001011101110000000101110111 n
b101110111000000010111011100000001011101110000000101110111 J#
#728
0["
07$
#731
1["
17$
#738
b11111 P"
1Y"
b11111 ,$
15$
#739
b1000100010001000000000000000000000000000000000 n
b11111111 P"
0Y"
b1000100010001000000000000000000000000000000000 J#
b11111111 ,$
05$
#740
b101111000010011110000000000010001000100010000000000000000 n
b101111000010011110000000000010001000100010000000000000000 J#
#741
b101111000000000010111100000000001011110000000000101111000 n
b101111000000000010111100000000001011110000000000101111000 J#
#743
0["
07$
#746
1["
17$
#753
b11111 P"
1Y"
b11111 ,$
15$
#754
b1000100010001000000000000000000000000000000000 n
b11111111 P"
0Y"
b1000100010001000000000000000000000000000000000 J#
b11111111 ,$
05$
#755
b101111001010011110000000000010001000100010000000000000000 n
b101111001010011110000000000010001000100010000000000000000 J#
#756
b101111001000000010111100100000001011110010000000101111001 n
b101111001000000010111100100000001011110010000000101111001 J#
#758
0["
07$
#761
1["
17$
#768
b11111 P"
1Y"
b11111 ,$
15$
#769
b1000100010001000000000000000000000000000000000 n
b11111111 P"
0Y"
b1000100010001000000000000000000000000000000000 J#
b11111111 ,$
05$
#770
b101111010010011110000000000010001000100010000000000000000 n
b101111010010011110000000000010001000100010000000000000000 J#
#771
b101111010000000010111101000000001011110100000000101111010 n
b101111010000000010111101000000001011110100000000101111010 J#
#773
0["
07$
#776
1["
17$
#783
b11111 P"
1Y"
b11111 ,$
15$
#784
b1000100010001000000000000000000000000000000000 n
b11111111 P"
0Y"
b1000100010001000000000000000000000000000000000 J#
b11111111 ,$
05$
#785
b101111011010011110000000000010001000100010000000000000000 n
b101111011010011110000000000010001000100010000000000000000 J#
#786
b101111011000000010111101100000001011110110000000101111011 n
b101111011000000010111101100000001011110110000000101111011 J#
#788
0["
07$
#791
1["
17$
#798
b11111 P"
1Y"
b11111 ,$
15$
#799
b1000100010001000000000000000000000000000000000 n
b11111111 P"
0Y"
b1000100010001000000000000000000000000000000000 J#
b11111111 ,$
05$
#800
b101111100010011110000000000010001000100010000000000000000 n
b101111100010011110000000000010001000100010000000000000000 J#
#801
b101111100000000010111110000000001011111000000000101111100 n
b101111100000000010111110000000001011111000000000101111100 J#
#803
0["
07$
#806
1["
17$
#813
b11111 P"
1Y"
b11111 ,$
15$
#814
b1000100010001000000000000000000000000000000000 n
b11111111 P"
0Y"
b1000100010001000000000000000000000000000000000 J#
b11111111 ,$
05$
#815
b101111101010011110000000000010001000100010000000000000000 n
b101111101010011110000000000010001000100010000000000000000 J#
#816
b101111101000000010111110100000001011111010000000101111101 n
b101111101000000010111110100000001011111010000000101111101 J#
#818
0["
07$
#821
1["
17$
#828
b11111 P"
1Y"
b11111 ,$
15$
#829
b1000100010001000000000000000000000000000000000 n
b11111111 P"
0Y"
b1000100010001000000000000000000000000000000000 J#
b11111111 ,$
05$
#830
b101111110010011110000000000010001000100010000000000000000 n
b101111110010011110000000000010001000100010000000000000000 J#
#831
b101111110000000010111111000000001011111100000000101111110 n
b101111110000000010111111000000001011111100000000101111110 J#
#833
0["
07$
#836
1["
17$
#843
b11111 P"
1Y"
b11111 ,$
15$
#844
b1000100010001000000000000000000000000000000000 n
b11111111 P"
0Y"
b1000100010001000000000000000000000000000000000 J#
b11111111 ,$
05$
#845
b101111111010011110000000000010001000100010000000000000000 n
b101111111010011110000000000010001000100010000000000000000 J#
#846
b101111111000000010111111100000001011111110000000101111111 n
b101111111000000010111111100000001011111110000000101111111 J#
#848
0["
07$
#851
1["
17$
#858
b11111 P"
1Y"
b11111 ,$
15$
#859
b1000100010001000000000000000000000000000000000 n
b11111111 P"
0Y"
b1000100010001000000000000000000000000000000000 J#
b11111111 ,$
05$
#860
b110000000010011110000000000010001000100010000000000000000 n
b110000000010011110000000000010001000100010000000000000000 J#
#861
b110000000000000011000000000000001100000000000000110000000 n
b110000000000000011000000000000001100000000000000110000000 J#
#863
0["
07$
#866
1["
17$
#873
b11111 P"
1Y"
b11111 ,$
15$
#874
b1000100010001000000000000000000000000000000000 n
b11111111 P"
0Y"
b1000100010001000000000000000000000000000000000 J#
b11111111 ,$
05$
#875
b110000001010011110000000000010001000100010000000000000000 n
b110000001010011110000000000010001000100010000000000000000 J#
#876
b110000001000000011000000100000001100000010000000110000001 n
b110000001000000011000000100000001100000010000000110000001 J#
#878
0["
07$
#881
1["
17$
#888
b11111 P"
1Y"
b11111 ,$
15$
#889
b1000100010001000000000000000000000000000000000 n
b11111111 P"
0Y"
b1000100010001000000000000000000000000000000000 J#
b11111111 ,$
05$
#890
b110000010010011110000000000010001000100010000000000000000 n
b110000010010011110000000000010001000100010000000000000000 J#
#891
b110000010000000011000001000000001100000100000000110000010 n
b110000010000000011000001000000001100000100000000110000010 J#
#893
0["
07$
#896
1["
17$
#903
b11111 P"
1Y"
b11111 ,$
15$
#904
b1000100010001000000000000000000000000000000000 n
b11111111 P"
0Y"
b1000100010001000000000000000000000000000000000 J#
b11111111 ,$
05$
#905
b110000011010011110000000000010001000100010000000000000000 n
b110000011010011110000000000010001000100010000000000000000 J#
#906
b110000011000000011000001100000001100000110000000110000011 n
b110000011000000011000001100000001100000110000000110000011 J#
#908
0["
07$
#911
1["
17$
#918
b11111 P"
1Y"
b11111 ,$
15$
#919
b1000100010001000000000000000000000000000000000 n
b11111111 P"
0Y"
b1000100010001000000000000000000000000000000000 J#
b11111111 ,$
05$
#920
b110000100010011110000000000010001000100010000000000000000 n
b110000100010011110000000000010001000100010000000000000000 J#
#921
b110000100000000011000010000000001100001000000000110000100 n
b110000100000000011000010000000001100001000000000110000100 J#
#923
0["
07$
#926
1["
17$
#933
b11111 P"
1Y"
b11111 ,$
15$
#934
b1000100010001000000000000000000000000000000000 n
b11111111 P"
0Y"
b1000100010001000000000000000000000000000000000 J#
b11111111 ,$
05$
#935
b110000101010011110000000000010001000100010000000000000000 n
b110000101010011110000000000010001000100010000000000000000 J#
#936
b110000101000000011000010100000001100001010000000110000101 n
b110000101000000011000010100000001100001010000000110000101 J#
#938
0["
07$
#941
1["
17$
#948
b11111 P"
1Y"
b11111 ,$
15$
#949
b1000100010001000000000000000000000000000000000 n
b11111111 P"
0Y"
b1000100010001000000000000000000000000000000000 J#
b11111111 ,$
05$
#950
b110000110010011110000000000010001000100010000000000000000 n
b110000110010011110000000000010001000100010000000000000000 J#
#951
b110000110000000011000011000000001100001100000000110000110 n
b110000110000000011000011000000001100001100000000110000110 J#
#953
0["
07$
#956
1["
17$
#963
b11111 P"
1Y"
b11111 ,$
15$
