kcu105_10gbaser_trd/hardware/vivado/runs/impl_run/.Xil/Vivado-9880-DESKTOP-I48MRRI/hw_ila_data_2/zip_work/waveform.vcd
$date
        2019-Oct-23 15:33:58
$end
$version
        Vivado v2017.3 (64-bit)
$end
$timescale
        1ps
$end
$scope module dut $end
$var reg 64 " axi_stream_gen_mon_1/rx_axis_tdata [63:0] $end
$var reg 8 b axi_stream_gen_mon_1/rx_axis_tkeep [7:0] $end
$var reg 1 j axi_stream_gen_mon_1/rx_axis_tvalid $end
$var reg 1 k axi_stream_gen_mon_1/rx_axis_tlast $end
$var reg 1 l axi_stream_gen_mon_1/rx_axis_tuser $end
$var reg 1 m axi_stream_gen_mon_1/rx_axis_tready $end
$var reg 64 n axi_stream_gen_mon_1/tx_axis_tdata [63:0] $end
$var reg 8 P" axi_stream_gen_mon_1/tx_axis_tkeep [7:0] $end
$var reg 1 X" axi_stream_gen_mon_1/tx_axis_tvalid $end
$var reg 1 Y" axi_stream_gen_mon_1/tx_axis_tlast $end
$var reg 1 Z" axi_stream_gen_mon_1/tx_axis_tuser $end
$var reg 1 [" axi_stream_gen_mon_1/tx_axis_tready_1 $end
$var reg 64 \" axi_stream_gen_mon_1/tx_axis_tdata_lb [63:0] $end
$var reg 8 ># axi_stream_gen_mon_1/tx_axis_tkeep_lb [7:0] $end
$var reg 1 F# axi_stream_gen_mon_1/tx_axis_tvalid_lb $end
$var reg 1 G# axi_stream_gen_mon_1/tx_axis_tlast_lb $end
$var reg 1 H# axi_stream_gen_mon_1/tx_axis_tuser_lb $end
$var reg 1 I# axi_stream_gen_mon_1/rx_axis_tready_lb $end
$var reg 64 J# axi_stream_gen_mon_1/tx_axis_tdata_g [63:0] $end
$var reg 8 ,$ axi_stream_gen_mon_1/tx_axis_tkeep_g [7:0] $end
$var reg 1 4$ axi_stream_gen_mon_1/tx_axis_tvalid_g $end
$var reg 1 5$ axi_stream_gen_mon_1/tx_axis_tlast_g $end
$var reg 1 6$ axi_stream_gen_mon_1/tx_axis_tuser_g $end
$var reg 1 7$ axi_stream_gen_mon_1/tx_axis_tready $end
$var reg 1 8$ _TRIGGER $end
$var reg 1 9$ _WINDOW $end
$var reg 1 :$ _GAP $end
$upscope $end
$enddefinitions $end
#0
$dumpvars
b1011110100001100101111010000110010111101000011001011110100001100 "
b11111111 b
1j
0k
0l
1m
b1011110100010011101111010001001110111101000100111011110100010011 n
b11111111 P"
1X"
0Y"
0Z"
1["
b1100110011001100000000000000000000000000000000 \"
b11111111 >#
1F#
0G#
0H#
1I#
b1011110100010011101111010001001110111101000100111011110100010011 J#
b11111111 ,$
14$
05$
06$
17$
08$
19$
0:$
$end
#5
b111 P"
1Y"
b111 ,$
15$
#6
b1101010110010011000001010000001000011001011110100001100 "
b111 b
1k
1l
b1000100010001000000000000000000000000000000000 n
b11111111 P"
0Y"
b1000100010001000000000000000000000000000000000 J#
b11111111 ,$
05$
#7
b101010101010101010101010000000000000000000000000000000000000000 "
b1 b
0j
0k
0l
b1011110100010100011111010000000000010001000100010000000000000000 n
b1011110100010100011111010000000000010001000100010000000000000000 J#
#8
b1011110100010100101111010001010010111101000101001011110100010100 n
b111 >#
1G#
b1011110100010100101111010001010010111101000101001011110100010100 J#
#9
b1100110011001100000000000000000000000000000000 "
b11111111 b
1j
b11111111 >#
0G#
#10
b1011110100001101011111010000000000010001000100010000000000000000 "
0["
07$
#11
b1011110100001101101111010000110110111101000011011011110100001101 "
#13
1["
17$
#26
b101010001111111001000011001001000011011011110100001101 "
b111 b
1k
1l
b111 P"
1Y"
b111 ,$
15$
#27
b0 "
b1 b
0j
0k
0l
b1000100010001000000000000000000000000000000000 n
b11111111 P"
0Y"
b1000100010001000000000000000000000000000000000 J#
b11111111 ,$
05$
#28
b1011110100010101011111010000000000010001000100010000000000000000 n
b1011110100010101011111010000000000010001000100010000000000000000 J#
#29
b1100110011001100000000000000000000000000000000 "
b11111111 b
1j
b1011110100010101101111010001010110111101000101011011110100010101 n
b111 >#
1G#
b1011110100010101101111010001010110111101000101011011110100010101 J#
#30
b1011110100001110011111010000000000010001000100010000000000000000 "
b11111111 >#
0G#
#31
b1011110100001110101111010000111010111101000011101011110100001110 "
0["
07$
#33
1["
17$
#46
b11101011001001011010011000010001000011101011110100001110 "
b111 b
1k
1l
b111 P"
1Y"
b111 ,$
15$
#47
b0 "
0j
0k
0l
b1000100010001000000000000000000000000000000000 n
b11111111 P"
0Y"
b1000100010001000000000000000000000000000000000 J#
b11111111 ,$
05$
#48
b1011110100010110011111010000000000010001000100010000000000000000 n
b1011110100010110011111010000000000010001000100010000000000000000 J#
#49
b1011110100010110101111010001011010111101000101101011110100010110 n
b111 >#
1G#
b1011110100010110101111010001011010111101000101101011110100010110 J#
#50
b1100110011001100000000000000000000000000000000 "
b11111111 b
1j
b11111111 >#
0G#
#51
b1011110100001111011111010000000000010001000100010000000000000000 "
0["
07$
#52
b1011110100001111101111010000111110111101000011111011110100001111 "
#54
1["
17$
#67
b10101011110100111011010001011001000011111011110100001111 "
b111 b
1k
1l
b111 P"
1Y"
b111 ,$
15$
#68
b101010101010101010101010000000000000000000000000000000000000000 "
b1 b
0j
0k
0l
b1000100010001000000000000000000000000000000000 n
b11111111 P"
0Y"
b1000100010001000000000000000000000000000000000 J#
b11111111 ,$
05$
#69
b1011110100010111011111010000000000010001000100010000000000000000 n
b1011110100010111011111010000000000010001000100010000000000000000 J#
#70
b1100110011001100000000000000000000000000000000 "
b11111111 b
1j
b1011110100010111101111010001011110111101000101111011110100010111 n
b111 >#
1G#
b1011110100010111101111010001011110111101000101111011110100010111 J#
#71
b1011110100010000011111010000000000010001000100010000000000000000 "
b11111111 >#
0G#
#72
b1011110100010000101111010001000010111101000100001011110100010000 "
0["
07$
#74
1["
17$
#87
b1100000001000110010001100101000100001011110100010000 "
b111 b
1k
1l
b111 P"
1Y"
b111 ,$
15$
#88
b0 "
0j
0k
0l
b1000100010001000000000000000000000000000000000 n
b11111111 P"
0Y"
b1000100010001000000000000000000000000000000000 J#
b11111111 ,$
05$
#89
b1011110100011000011111010000000000010001000100010000000000000000 n
b1011110100011000011111010000000000010001000100010000000000000000 J#
#90
b1011110100011000101111010001100010111101000110001011110100011000 n
b111 >#
1G#
b1011110100011000101111010001100010111101000110001011110100011000 J#
#91
b1100110011001100000000000000000000000000000000 "
b11111111 b
1j
b11111111 >#
0G#
#92
b1011110100010001011111010000000000010001000100010000000000000000 "
0["
07$
#93
b1011110100010001101111010001000110111101000100011011110100010001 "
#95
1["
17$
#108
b1001100111100100111011000101101000100011011110100010001 "
b111 b
1k
1l
b111 P"
1Y"
b111 ,$
15$
#109
b0 "
0j
0k
0l
b1000100010001000000000000000000000000000000000 n
b11111111 P"
0Y"
b1000100010001000000000000000000000000000000000 J#
b11111111 ,$
05$
#110
b1011110100011001011111010000000000010001000100010000000000000000 n
b1011110100011001011111010000000000010001000100010000000000000000 J#
#111
b1011110100011001101111010001100110111101000110011011110100011001 n
b111 >#
1G#
b1011110100011001101111010001100110111101000110011011110100011001 J#
#112
b1100110011001100000000000000000000000000000000 "
b11111111 b
1j
b11111111 >#
0G#
#113
b1011110100010010011111010000000000010001000100010000000000000000 "
0["
07$
#114
b1011110100010010101111010001001010111101000100101011110100010010 "
#115
1["
17$
#128
b111 P"
1Y"
b111 ,$
15$
#129
b10001101111010000100000011110101000100101011110100010010 "
b111 b
1k
1l
b1000100010001000000000000000000000000000000000 n
b11111111 P"
0Y"
b1000100010001000000000000000000000000000000000 J#
b11111111 ,$
05$
#130
b101010101010101010101010000000000000000000000000000000000000000 "
b1 b
0j
0k
0l
b1011110100011010011111010000000000010001000100010000000000000000 n
b1011110100011010011111010000000000010001000100010000000000000000 J#
#131
b1011110100011010101111010001101010111101000110101011110100011010 n
b111 >#
1G#
b1011110100011010101111010001101010111101000110101011110100011010 J#
#132
b1100110011001100000000000000000000000000000000 "
b11111111 b
1j
b11111111 >#
0G#
#133
b1011110100010011011111010000000000010001000100010000000000000000 "
0["
07$
#134
b1011110100010011101111010001001110111101000100111011110100010011 "
#136
1["
17$
#149
b11001101000111100101001010111101000100111011110100010011 "
b111 b
1k
1l
b111 P"
1Y"
b111 ,$
15$
#150
b0 "
b1 b
0j
0k
0l
b1000100010001000000000000000000000000000000000 n
b11111111 P"
0Y"
b1000100010001000000000000000000000000000000000 J#
b11111111 ,$
05$
#151
b1011110100011011011111010000000000010001000100010000000000000000 n
b1011110100011011011111010000000000010001000100010000000000000000 J#
#152
b1100110011001100000000000000000000000000000000 "
b11111111 b
1j
b1011110100011011101111010001101110111101000110111011110100011011 n
b111 >#
1G#
b1011110100011011101111010001101110111101000110111011110100011011 J#
#153
b1011110100010100011111010000000000010001000100010000000000000000 "
b11111111 >#
0G#
#154
b1011110100010100101111010001010010111101000101001011110100010100 "
0["
07$
#156
1["
17$
#169
b11010100101011010010101100000100000101001011110100010100 "
b111 b
1k
1l
b111 P"
1Y"
b111 ,$
15$
#170
b0 "
0j
0k
0l
b1000100010001000000000000000000000000000000000 n
b11111111 P"
0Y"
b1000100010001000000000000000000000000000000000 J#
b11111111 ,$
05$
#171
b1011110100011100011111010000000000010001000100010000000000000000 n
b1011110100011100011111010000000000010001000100010000000000000000 J#
#172
b1011110100011100101111010001110010111101000111001011110100011100 n
b111 >#
1G#
b1011110100011100101111010001110010111101000111001011110100011100 J#
#173
b1100110011001100000000000000000000000000000000 "
b11111111 b
1j
b11111111 >#
0G#
#174
b1011110100010101011111010000000000010001000100010000000000000000 "
0["
07$
#175
b1011110100010101101111010001010110111101000101011011110100010101 "
#177
1["
17$
#190
b10010100010110110011100101001100000101011011110100010101 "
b111 b
1k
1l
b111 P"
1Y"
b111 ,$
15$
#191
b101010101010101010101010000000000000000000000000000000000000000 "
b1 b
0j
0k
0l
b1000100010001000000000000000000000000000000000 n
b11111111 P"
0Y"
b1000100010001000000000000000000000000000000000 J#
b11111111 ,$
05$
#192
b1011110100011101011111010000000000010001000100010000000000000000 n
b1011110100011101011111010000000000010001000100010000000000000000 J#
#193
b1100110011001100000000000000000000000000000000 "
b11111111 b
1j
b1011110100011101101111010001110110111101000111011011110100011101 n
b111 >#
1G#
b1011110100011101101111010001110110111101000111011011110100011101 J#
#194
b1011110100010110011111010000000000010001000100010000000000000000 "
b11111111 >#
0G#
#195
b1011110100010110101111010001011010111101000101101011110100010110 "
0["
07$
#197
1["
17$
#210
b1010101010000010000111110010100000101101011110100010110 "
b111 b
1k
1l
b111 P"
1Y"
b111 ,$
15$
#211
b0 "
0j
0k
0l
b1000100010001000000000000000000000000000000000 n
b11111111 P"
0Y"
b1000100010001000000000000000000000000000000000 J#
b11111111 ,$
05$
#212
b1011110100011110011111010000000000010001000100010000000000000000 n
b1011110100011110011111010000000000010001000100010000000000000000 J#
#213
b1011110100011110101111010001111010111101000111101011110100011110 n
b111 >#
1G#
b1011110100011110101111010001111010111101000111101011110100011110 J#
#214
b1100110011001100000000000000000000000000000000 "
b11111111 b
1j
b11111111 >#
0G#
#215
b1011110100010111011111010000000000010001000100010000000000000000 "
0["
07$
#216
b1011110100010111101111010001011110111101000101111011110100010111 "
#218
1["
17$
#231
b10101101101110001110111011100000101111011110100010111 "
b111 b
1k
1l
b111 P"
1Y"
b111 ,$
15$
#232
b0 "
0j
0k
0l
b1000100010001000000000000000000000000000000000 n
b11111111 P"
0Y"
b1000100010001000000000000000000000000000000000 J#
b11111111 ,$
05$
#233
b1011110100011111011111010000000000010001000100010000000000000000 n
b1011110100011111011111010000000000010001000100010000000000000000 J#
#234
b1011110100011111101111010001111110111101000111111011110100011111 n
b111 >#
1G#
b1011110100011111101111010001111110111101000111111011110100011111 J#
#235
b1100110011001100000000000000000000000000000000 "
b11111111 b
1j
b11111111 >#
0G#
#236
b1011110100011000011111010000000000010001000100010000000000000000 "
0["
07$
#237
b1011110100011000101111010001100010111101000110001011110100011000 "
#238
1["
17$
#251
b111 P"
1Y"
b111 ,$
15$
#252
b1100110001001111111110011100110000110001011110100011000 "
b111 b
1k
1l
b1000100010001000000000000000000000000000000000 n
b11111111 P"
0Y"
b1000100010001000000000000000000000000000000000 J#
b11111111 ,$
05$
#253
b101010101010101010101010000000000000000000000000000000000000000 "
b1 b
0j
0k
0l
b1011110100100000011111010000000000010001000100010000000000000000 n
b1011110100100000011111010000000000010001000100010000000000000000 J#
#254
b1011110100100000101111010010000010111101001000001011110100100000 n
b111 >#
1G#
b1011110100100000101111010010000010111101001000001011110100100000 J#
#255
b1100110011001100000000000000000000000000000000 "
b11111111 b
1j
b11111111 >#
0G#
#256
b1011110100011001011111010000000000010001000100010000000000000000 "
0["
07$
#257
b1011110100011001101111010001100110111101000110011011110100011001 "
#259
1["
17$
#272
b100110110100011110111010101110000110011011110100011001 "
b111 b
1k
1l
b111 P"
1Y"
b111 ,$
15$
#273
b0 "
b1 b
0j
0k
0l
b1000100010001000000000000000000000000000000000 n
b11111111 P"
0Y"
b1000100010001000000000000000000000000000000000 J#
b11111111 ,$
05$
#274
b1011110100100001011111010000000000010001000100010000000000000000 n
b1011110100100001011111010000000000010001000100010000000000000000 J#
#275
b1100110011001100000000000000000000000000000000 "
b11111111 b
1j
b1011110100100001101111010010000110111101001000011011110100100001 n
b111 >#
1G#
b1011110100100001101111010010000110111101001000011011110100100001 J#
#276
b1011110100011010011111010000000000010001000100010000000000000000 "
b11111111 >#
0G#
#277
b1011110100011010101111010001101010111101000110101011110100011010 "
0["
07$
#279
1["
17$
#292
b11100111110010111101100001110110000110101011110100011010 "
b111 b
1k
1l
b111 P"
1Y"
b111 ,$
15$
#293
b0 "
0j
0k
0l
b1000100010001000000000000000000000000000000000 n
b11111111 P"
0Y"
b1000100010001000000000000000000000000000000000 J#
b11111111 ,$
05$
#294
b1011110100100010011111010000000000010001000100010000000000000000 n
b1011110100100010011111010000000000010001000100010000000000000000 J#
#295
b1011110100100010101111010010001010111101001000101011110100100010 n
b111 >#
1G#
b1011110100100010101111010010001010111101001000101011110100100010 J#
#296
b1100110011001100000000000000000000000000000000 "
b11111111 b
1j
b11111111 >#
0G#
#297
b1011110100011011011111010000000000010001000100010000000000000000 "
0["
07$
#298
b1011110100011011101111010001101110111101000110111011110100011011 "
#300
1["
17$
#313
b10100111001111011100101000111110000110111011110100011011 "
b111 b
1k
1l
b111 P"
1Y"
b111 ,$
15$
#314
b101010101010101010101010000000000000000000000000000000000000000 "
b1 b
0j
0k
0l
b1000100010001000000000000000000000000000000000 n
b11111111 P"
0Y"
b1000100010001000000000000000000000000000000000 J#
b11111111 ,$
05$
#315
b1011110100100011011111010000000000010001000100010000000000000000 n
b1011110100100011011111010000000000010001000100010000000000000000 J#
#316
b1100110011001100000000000000000000000000000000 "
b11111111 b
1j
b1011110100100011101111010010001110111101001000111011110100100011 n
b111 >#
1G#
b1011110100100011101111010010001110111101001000111011110100100011 J#
#317
b1011110100011100011111010000000000010001000100010000000000000000 "
b11111111 >#
0G#
#318
b1011110100011100101111010001110010111101000111001011110100011100 "
0["
07$
#320
1["
17$
#333
b10111110100011101011001110000111000111001011110100011100 "
b111 b
1k
1l
b111 P"
1Y"
b111 ,$
15$
#334
b0 "
0j
0k
0l
b1000100010001000000000000000000000000000000000 n
b11111111 P"
0Y"
b1000100010001000000000000000000000000000000000 J#
b11111111 ,$
05$
#335
b1011110100100100011111010000000000010001000100010000000000000000 n
b1011110100100100011111010000000000010001000100010000000000000000 J#
#336
b1011110100100100101111010010010010111101001001001011110100100100 n
b111 >#
1G#
b1011110100100100101111010010010010111101001001001011110100100100 J#
#337
b1100110011001100000000000000000000000000000000 "
b11111111 b
1j
b11111111 >#
0G#
#338
b1011110100011101011111010000000000010001000100010000000000000000 "
0["
07$
#339
b1011110100011101101111010001110110111101000111011011110100011101 "
#341
1["
17$
#354
b11111110011110001010000111001111000111011011110100011101 "
b111 b
1k
1l
b111 P"
1Y"
b111 ,$
15$
#355
b0 "
0j
0k
0l
b1000100010001000000000000000000000000000000000 n
b11111111 P"
0Y"
b1000100010001000000000000000000000000000000000 J#
b11111111 ,$
05$
#356
b1011110100100101011111010000000000010001000100010000000000000000 n
b1011110100100101011111010000000000010001000100010000000000000000 J#
#357
b1011110100100101101111010010010110111101001001011011110100100101 n
b111 >#
1G#
b1011110100100101101111010010010110111101001001011011110100100101 J#
#358
b1100110011001100000000000000000000000000000000 "
b11111111 b
1j
b11111111 >#
0G#
#359
b1011110100011110011111010000000000010001000100010000000000000000 "
0["
07$
#360
b1011110100011110101111010001111010111101000111101011110100011110 "
#361
1["
17$
#374
b111 P"
1Y"
b111 ,$
15$
#375
b111111011000101001011100010111000111101011110100011110 "
b111 b
1k
1l
b1000100010001000000000000000000000000000000000 n
b11111111 P"
0Y"
b1000100010001000000000000000000000000000000000 J#
b11111111 ,$
05$
#376
b101010101010101010101010000000000000000000000000000000000000000 "
b1 b
0j
0k
0l
b1011110100100110011111010000000000010001000100010000000000000000 n
b1011110100100110011111010000000000010001000100010000000000000000 J#
#377
b1011110100100110101111010010011010111101001001101011110100100110 n
b111 >#
1G#
b1011110100100110101111010010011010111101001001101011110100100110 J#
#378
b1100110011001100000000000000000000000000000000 "
b11111111 b
1j
b11111111 >#
0G#
#379
b1011110100011111011111010000000000010001000100010000000000000000 "
0["
07$
#380
b1011110100011111101111010001111110111101000111111011110100011111 "
#382
1["
17$
#395
b1111111100101001000010101011111000111111011110100011111 "
b111 b
1k
1l
b111 P"
1Y"
b111 ,$
15$
#396
b0 "
b1 b
0j
0k
0l
b1000100010001000000000000000000000000000000000 n
b11111111 P"
0Y"
b1000100010001000000000000000000000000000000000 J#
b11111111 ,$
05$
#397
b1011110100100111011111010000000000010001000100010000000000000000 n
b1011110100100111011111010000000000010001000100010000000000000000 J#
#398
b1100110011001100000000000000000000000000000000 "
b11111111 b
1j
b1011110100100111101111010010011110111101001001111011110100100111 n
b111 >#
1G#
b1011110100100111101111010010011110111101001001111011110100100111 J#
#399
b1011110100100000011111010000000000010001000100010000000000000000 "
b11111111 >#
0G#
#400
b1011110100100000101111010010000010111101001000001011110100100000 "
0["
07$
#402
1["
17$
#415
b10101011101111000011000100101110001000001011110100100000 "
b111 b
1k
1l
b111 P"
1Y"
b111 ,$
15$
#416
b0 "
0j
0k
0l
b1000100010001000000000000000000000000000000000 n
b11111111 P"
0Y"
b1000100010001000000000000000000000000000000000 J#
b11111111 ,$
05$
#417
b1011110100101000011111010000000000010001000100010000000000000000 n
b1011110100101000011111010000000000010001000100010000000000000000 J#
#418
b1011110100101000101111010010100010111101001010001011110100101000 n
b111 >#
1G#
b1011110100101000101111010010100010111101001010001011110100101000 J#
#419
b1100110011001100000000000000000000000000000000 "
b11111111 b
1j
b11111111 >#
0G#
#420
b1011110100100001011111010000000000010001000100010000000000000000 "
0["
07$
#421
b1011110100100001101111010010000110111101001000011011110100100001 "
#423
1["
17$
#436
b11101011010010100010001101100110001000011011110100100001 "
b111 b
1k
1l
b111 P"
1Y"
b111 ,$
15$
#437
b101010101010101010101010000000000000000000000000000000000000000 "
b1 b
0j
0k
0l
b1000100010001000000000000000000000000000000000 n
b11111111 P"
0Y"
b1000100010001000000000000000000000000000000000 J#
b11111111 ,$
05$
#438
b1011110100101001011111010000000000010001000100010000000000000000 n
b1011110100101001011111010000000000010001000100010000000000000000 J#
#439
b1100110011001100000000000000000000000000000000 "
b11111111 b
1j
b1011110100101001101111010010100110111101001010011011110100101001 n
b111 >#
1G#
b1011110100101001101111010010100110111101001010011011110100101001 J#
#440
b1011110100100010011111010000000000010001000100010000000000000000 "
b11111111 >#
0G#
#441
b1011110100100010101111010010001010111101001000101011110100100010 "
0["
07$
#443
1["
17$
#456
b101010010100000001010110111110001000101011110100100010 "
b111 b
1k
1l
b111 P"
1Y"
b111 ,$
15$
#457
b0 "
0j
0k
0l
b1000100010001000000000000000000000000000000000 n
b11111111 P"
0Y"
b1000100010001000000000000000000000000000000000 J#
b11111111 ,$
05$
#458
b1011110100101010011111010000000000010001000100010000000000000000 n
b1011110100101010011111010000000000010001000100010000000000000000 J#
#459
b1011110100101010101111010010101010111101001010101011110100101010 n
b111 >#
1G#
b1011110100101010101111010010101010111101001010101011110100101010 J#
#460
b1100110011001100000000000000000000000000000000 "
b11111111 b
1j
b11111111 >#
0G#
#461
b1011110100100011011111010000000000010001000100010000000000000000 "
0["
07$
#462
b1011110100100011101111010010001110111101001000111011110100100011 "
#464
1["
17$
#477
b1101010101001100000011111110110001000111011110100100011 "
b111 b
1k
1l
b111 P"
1Y"
b111 ,$
15$
#478
b0 "
0j
0k
0l
b1000100010001000000000000000000000000000000000 n
b11111111 P"
0Y"
b1000100010001000000000000000000000000000000000 J#
b11111111 ,$
05$
#479
b1011110100101011011111010000000000010001000100010000000000000000 n
b1011110100101011011111010000000000010001000100010000000000000000 J#
#480
b1011110100101011101111010010101110111101001010111011110100101011 n
b111 >#
1G#
b1011110100101011101111010010101110111101001010111011110100101011 J#
#481
b1100110011001100000000000000000000000000000000 "
b11111111 b
1j
b11111111 >#
0G#
#482
b1011110100100100011111010000000000010001000100010000000000000000 "
0["
07$
#483
b1011110100100100101111010010010010111101001001001011110100100100 "
#484
1["
17$
#497
b111 P"
1Y"
b111 ,$
15$
#498
b1110011000101010111111001001111001001001011110100100100 "
b111 b
1k
1l
b1000100010001000000000000000000000000000000000 n
b11111111 P"
0Y"
b1000100010001000000000000000000000000000000000 J#
b11111111 ,$
05$
#499
b101010101010101010101010000000000000000000000000000000000000000 "
b1 b
0j
0k
0l
b1011110100101100011111010000000000010001000100010000000000000000 n
b1011110100101100011111010000000000010001000100010000000000000000 J#
#500
b1011110100101100101111010010110010111101001011001011110100101100 n
b111 >#
1G#
b1011110100101100101111010010110010111101001011001011110100101100 J#
#501
b1100110011001100000000000000000000000000000000 "
b11111111 b
1j
b11111111 >#
0G#
#502
b1011110100100101011111010000000000010001000100010000000000000000 "
0["
07$
#503
b1011110100100101101111010010010110111101001001011011110100100101 "
#505
1["
17$
#518
b110011111000110110110000000111001001011011110100100101 "
b111 b
1k
1l
b111 P"
1Y"
b111 ,$
15$
#519
b0 "
b1 b
0j
0k
0l
b1000100010001000000000000000000000000000000000 n
b11111111 P"
0Y"
b1000100010001000000000000000000000000000000000 J#
b11111111 ,$
05$
#520
b1011110100101101011111010000000000010001000100010000000000000000 n
b1011110100101101011111010000000000010001000100010000000000000000 J#
#521
b1100110011001100000000000000000000000000000000 "
b11111111 b
1j
b1011110100101101101111010010110110111101001011011011110100101101 n
b111 >#
1G#
b1011110100101101101111010010110110111101001011011011110100101101 J#
#522
b1011110100100110011111010000000000010001000100010000000000000000 "
b11111111 >#
0G#
#523
b1011110100100110101111010010011010111101001001101011110100100110 "
0["
07$
#525
1["
17$
#538
b11110010111110010101101011011111001001101011110100100110 "
b111 b
1k
1l
b111 P"
1Y"
b111 ,$
15$
#539
b0 "
0j
0k
0l
b1000100010001000000000000000000000000000000000 n
b11111111 P"
0Y"
b1000100010001000000000000000000000000000000000 J#
b11111111 ,$
05$
#540
b1011110100101110011111010000000000010001000100010000000000000000 n
b1011110100101110011111010000000000010001000100010000000000000000 J#
#541
b1011110100101110101111010010111010111101001011101011110100101110 n
b111 >#
1G#
b1011110100101110101111010010111010111101001011101011110100101110 J#
#542
b1100110011001100000000000000000000000000000000 "
b11111111 b
1j
b11111111 >#
0G#
#543
b1011110100100111011111010000000000010001000100010000000000000000 "
0["
07$
#544
b1011110100100111101111010010011110111101001001111011110100100111 "
#546
1["
17$
#559
b10110010000011110100100010010111001001111011110100100111 "
b111 b
1k
1l
b111 P"
1Y"
b111 ,$
15$
#560
b101010101010101010101010000000000000000000000000000000000000000 "
b1 b
0j
0k
0l
b1000100010001000000000000000000000000000000000 n
b11111111 P"
0Y"
b1000100010001000000000000000000000000000000000 J#
b11111111 ,$
05$
#561
b1011110100101111011111010000000000010001000100010000000000000000 n
b1011110100101111011111010000000000010001000100010000000000000000 J#
#562
b1100110011001100000000000000000000000000000000 "
b11111111 b
1j
b1011110100101111101111010010111110111101001011111011110100101111 n
b111 >#
1G#
b1011110100101111101111010010111110111101001011111011110100101111 J#
#563
b1011110100101000011111010000000000010001000100010000000000000000 "
b11111111 >#
0G#
#564
b1011110100101000101111010010100010111101001010001011110100101000 "
0["
07$
#566
1["
17$
#579
b11000001100111111010100110101101001010001011110100101000 "
b111 b
1k
1l
b111 P"
1Y"
b111 ,$
15$
#580
b0 "
0j
0k
0l
b1000100010001000000000000000000000000000000000 n
b11111111 P"
0Y"
b1000100010001000000000000000000000000000000000 J#
b11111111 ,$
05$
#581
b1011110100110000011111010000000000010001000100010000000000000000 n
b1011110100110000011111010000000000010001000100010000000000000000 J#
#582
b1011110100110000101111010011000010111101001100001011110100110000 n
b111 >#
1G#
b1011110100110000101111010011000010111101001100001011110100110000 J#
#583
b1100110011001100000000000000000000000000000000 "
b11111111 b
1j
b11111111 >#
0G#
#584
b1011110100101001011111010000000000010001000100010000000000000000 "
0["
07$
#585
b1011110100101001101111010010100110111101001010011011110100101001 "
#587
1["
17$
#600
b10000001011010011011101111100101001010011011110100101001 "
b111 b
1k
1l
b111 P"
1Y"
b111 ,$
15$
#601
b0 "
0j
0k
0l
b1000100010001000000000000000000000000000000000 n
b11111111 P"
0Y"
b1000100010001000000000000000000000000000000000 J#
b11111111 ,$
05$
#602
b1011110100110001011111010000000000010001000100010000000000000000 n
b1011110100110001011111010000000000010001000100010000000000000000 J#
#603
b1011110100110001101111010011000110111101001100011011110100110001 n
b111 >#
1G#
b1011110100110001101111010011000110111101001100011011110100110001 J#
#604
b1100110011001100000000000000000000000000000000 "
b11111111 b
1j
b11111111 >#
0G#
#605
b1011110100101010011111010000000000010001000100010000000000000000 "
0["
07$
#606
b1011110100101010101111010010101010111101001010101011110100101010 "
#607
1["
17$
#620
b111 P"
1Y"
b111 ,$
15$
#621
b1000000011100111000110100111101001010101011110100101010 "
b111 b
1k
1l
b1000100010001000000000000000000000000000000000 n
b11111111 P"
0Y"
b1000100010001000000000000000000000000000000000 J#
b11111111 ,$
05$
#622
b101010101010101010101010000000000000000000000000000000000000000 "
b1 b
0j
0k
0l
b1011110100110010011111010000000000010001000100010000000000000000 n
b1011110100110010011111010000000000010001000100010000000000000000 J#
#623
b1011110100110010101111010011001010111101001100101011110100110010 n
b111 >#
1G#
b1011110100110010101111010011001010111101001100101011110100110010 J#
#624
b1100110011001100000000000000000000000000000000 "
b11111111 b
1j
b11111111 >#
0G#
#625
b1011110100101011011111010000000000010001000100010000000000000000 "
0["
07$
#626
b1011110100101011101111010010101110111101001010111011110100101011 "
#628
1["
17$
#641
b100001011001111101110101001010111011110100101011 "
b111 b
1k
1l
b111 P"
1Y"
b111 ,$
15$
#642
b0 "
b1 b
0j
0k
0l
b1000100010001000000000000000000000000000000000 n
b11111111 P"
0Y"
b1000100010001000000000000000000000000000000000 J#
b11111111 ,$
05$
#643
b1011110100110011011111010000000000010001000100010000000000000000 n
b1011110100110011011111010000000000010001000100010000000000000000 J#
#644
b1100110011001100000000000000000000000000000000 "
b11111111 b
1j
b1011110100110011101111010011001110111101001100111011110100110011 n
b111 >#
1G#
b1011110100110011101111010011001110111101001100111011110100110011 J#
#645
b1011110100101100011111010000000000010001000100010000000000000000 "
b11111111 >#
0G#
#646
b1011110100101100101111010010110010111101001011001011110100101100 "
0["
07$
#648
1["
17$
#661
b11001001101101110011011001100001011001011110100101100 "
b111 b
1k
1l
b111 P"
1Y"
b111 ,$
15$
#662
b0 "
0j
0k
0l
b1000100010001000000000000000000000000000000000 n
b11111111 P"
0Y"
b1000100010001000000000000000000000000000000000 J#
b11111111 ,$
05$
#663
b1011110100110100011111010000000000010001000100010000000000000000 n
b1011110100110100011111010000000000010001000100010000000000000000 J#
#664
b1011110100110100101111010011010010111101001101001011110100110100 n
b111 >#
1G#
b1011110100110100101111010011010010111101001101001011110100110100 J#
#665
b1100110011001100000000000000000000000000000000 "
b11111111 b
1j
b11111111 >#
0G#
#666
b1011110100101101011111010000000000010001000100010000000000000000 "
0["
07$
#667
b1011110100101101101111010010110110111101001011011011110100101101 "
#669
1["
17$
#682
b1011001110000001111010010000100001011011011110100101101 "
b111 b
1k
1l
b111 P"
1Y"
b111 ,$
15$
#683
b101010101010101010101010000000000000000000000000000000000000000 "
b1 b
0j
0k
0l
b1000100010001000000000000000000000000000000000 n
b11111111 P"
0Y"
b1000100010001000000000000000000000000000000000 J#
b11111111 ,$
05$
#684
b1011110100110101011111010000000000010001000100010000000000000000 n
b1011110100110101011111010000000000010001000100010000000000000000 J#
#685
b1100110011001100000000000000000000000000000000 "
b11111111 b
1j
b1011110100110101101111010011010110111101001101011011110100110101 n
b111 >#
1G#
b1011110100110101101111010011010110111101001101011011110100110101 J#
#686
b1011110100101110011111010000000000010001000100010000000000000000 "
b11111111 >#
0G#
#687
b1011110100101110101111010010111010111101001011101011110100101110 "
0["
07$
#689
1["
17$
#702
b10011000110110101100001001011100001011101011110100101110 "
b111 b
1k
1l
b111 P"
1Y"
b111 ,$
15$
#703
b0 "
0j
0k
0l
b1000100010001000000000000000000000000000000000 n
b11111111 P"
0Y"
b1000100010001000000000000000000000000000000000 J#
b11111111 ,$
05$
#704
b1011110100110110011111010000000000010001000100010000000000000000 n
b1011110100110110011111010000000000010001000100010000000000000000 J#
#705
b1011110100110110101111010011011010111101001101101011110100110110 n
b111 >#
1G#
b1011110100110110101111010011011010111101001101101011110100110110 J#
#706
b1100110011001100000000000000000000000000000000 "
b11111111 b
1j
b11111111 >#
0G#
#707
b1011110100101111011111010000000000010001000100010000000000000000 "
0["
07$
#708
b1011110100101111101111010010111110111101001011111011110100101111 "
#710
1["
17$
