kcu105_10gbaser_trd/hardware/vivado/runs/impl_run/.Xil/Vivado-15056-DESKTOP-4A374NS/hw_ila_data_3/zip_work/waveform.vcd
$date
        2019-Nov-21 17:55:25
$end
$version
        Vivado v2019.2 (64-bit)
$end
$timescale
        1ps
$end
$scope module dut $end
$var reg 64 " axi_stream_gen_mon_1/axi_stream_interface/tx_axis_tdata [63:0] $end
$var reg 8 b axi_stream_gen_mon_1/axi_stream_interface/tx_axis_tkeep [7:0] $end
$var reg 1 j axi_stream_gen_mon_1/axi_stream_interface/tx_axis_tvalid $end
$var reg 1 k axi_stream_gen_mon_1/axi_stream_interface/tx_axis_tlast $end
$var reg 1 l axi_stream_gen_mon_1/axi_stream_interface/tx_axis_tuser $end
$var reg 1 m axi_stream_gen_mon_1/axi_stream_interface/tx_axis_tready $end
$var reg 64 n axi_stream_gen_mon_1/axi_stream_interface/rx_axis_tdata [63:0] $end
$var reg 8 P" axi_stream_gen_mon_1/axi_stream_interface/rx_axis_tkeep [7:0] $end
$var reg 1 X" axi_stream_gen_mon_1/axi_stream_interface/rx_axis_tvalid $end
$var reg 1 Y" axi_stream_gen_mon_1/axi_stream_interface/rx_axis_tlast $end
$var reg 1 Z" axi_stream_gen_mon_1/axi_stream_interface/rx_axis_tuser $end
$var reg 1 [" axi_stream_gen_mon_1/axi_stream_interface/rx_axis_tready $end
$var reg 64 \" axi_stream_gen_mon_1/axi_stream_interface/bb_rx_axis_tdata [63:0] $end
$var reg 8 ># axi_stream_gen_mon_1/axi_stream_interface/bb_rx_axis_tkeep [7:0] $end
$var reg 1 F# axi_stream_gen_mon_1/axi_stream_interface/bb_rx_axis_tvalid $end
$var reg 1 G# axi_stream_gen_mon_1/axi_stream_interface/bb_rx_axis_tlast $end
$var reg 1 H# axi_stream_gen_mon_1/axi_stream_interface/bb_rx_axis_tuser $end
$var reg 1 I# axi_stream_gen_mon_1/axi_stream_interface/bb_rx_axis_tready $end
$var reg 64 J# axi_stream_gen_mon_1/axi_stream_interface/bb_tx_axis_tdata [63:0] $end
$var reg 8 ,$ axi_stream_gen_mon_1/axi_stream_interface/bb_tx_axis_tkeep [7:0] $end
$var reg 1 4$ axi_stream_gen_mon_1/axi_stream_interface/bb_tx_axis_tvalid $end
$var reg 1 5$ axi_stream_gen_mon_1/axi_stream_interface/bb_tx_axis_tlast $end
$var reg 1 6$ axi_stream_gen_mon_1/axi_stream_interface/bb_tx_axis_tuser $end
$var reg 1 7$ axi_stream_gen_mon_1/axi_stream_interface/bb_tx_axis_tready $end
$var reg 1 8$ _TRIGGER $end
$var reg 1 9$ _WINDOW $end
$var reg 1 :$ _GAP $end
$upscope $end
$enddefinitions $end
#0
$dumpvars
b1010101101000011101010110100001110101011010000111010101101000011 "
b11111111 b
1j
0k
0l
1m
b1010101101000000101010110100000010101011010000001010101101000000 n
b11111111 P"
1X"
0Y"
0Z"
1["
b1010101100111111101010110011111110101011001111111010101100111111 \"
b11111111 >#
1F#
0G#
0H#
1I#
b1000100010001000000000000000000000000000000000 J#
b11111111 ,$
14$
05$
06$
17$
08$
19$
0:$
$end
#1
0m
b1010101110110101011111010000000000010001000100010000000000000000 J#
#2
b1010101110110101101010111011010110101011101101011010101110110101 J#
07$
#3
1m
#4
17$
#12
b11101011110001011011100010101011001111111010101100111111 \"
b111 >#
1G#
1H#
#13
b11011000000100111100010001000000010000001010101101000000 n
b111 P"
1Y"
1Z"
b1000100010001000000000000000000000000000000000 \"
b11111111 >#
0F#
0G#
0H#
#14
b101010101010101010101010000000000000000000000000000000000000000 n
b1 P"
0X"
0Y"
0Z"
#16
b111 b
1k
b1000100010001000000000000000000000000000000000 n
b11111111 P"
1X"
1F#
#17
b1000100010001000000000000000000000000000000000 "
b11111111 b
0k
b1010101101000001011111010000000000010001000100010000000000000000 n
b1010101101000000011111010000000000010001000100010000000000000000 \"
#18
b1010101101000100011111010000000000010001000100010000000000000000 "
b1010101101000001101010110100000110101011010000011010101101000001 n
b1010101101000000101010110100000010101011010000001010101101000000 \"
#19
b1010101101000100101010110100010010101011010001001010101101000100 "
b111 ,$
15$
#20
b1000100010001000000000000000000000000000000000 J#
b11111111 ,$
05$
#21
0m
b1010101110110110011111010000000000010001000100010000000000000000 J#
#22
b1010101110110110101010111011011010101011101101101010101110110110 J#
07$
#24
1m
#25
17$
#33
b10011000111001011101011000001000010000011010101101000001 n
b111 P"
1Y"
1Z"
b11011000000100111100010001000000010000001010101101000000 \"
b111 >#
1G#
1H#
#34
b0 n
0X"
0Y"
0Z"
b1000100010001000000000000000000000000000000000 \"
b11111111 >#
0F#
0G#
0H#
#36
1F#
#37
b111 b
1k
b1000100010001000000000000000000000000000000000 n
b11111111 P"
1X"
b1010101101000001011111010000000000010001000100010000000000000000 \"
#38
b1000100010001000000000000000000000000000000000 "
b11111111 b
0k
b1010101101000010011111010000000000010001000100010000000000000000 n
b1010101101000001101010110100000110101011010000011010101101000001 \"
#39
b1010101101000101011111010000000000010001000100010000000000000000 "
b1010101101000010101010110100001010101011010000101010101101000010 n
#40
b1010101101000101101010110100010110101011010001011010101101000101 "
b111 ,$
15$
#41
b1000100010001000000000000000000000000000000000 J#
b11111111 ,$
05$
#42
0m
b1010101110110111011111010000000000010001000100010000000000000000 J#
#43
b1010101110110111101010111011011110101011101101111010101110110111 J#
07$
#44
1m
#45
17$
#53
b10011000111001011101011000001000010000011010101101000001 \"
b111 >#
1G#
1H#
#54
b1011001111111111110000011010000010000101010101101000010 n
b111 P"
1Y"
1Z"
b1000100010001000000000000000000000000000000000 \"
b11111111 >#
0F#
0G#
0H#
#55
b0 n
0X"
0Y"
0Z"
#57
b111 b
1k
1F#
#58
b1000100010001000000000000000000000000000000000 "
b11111111 b
0k
b1000100010001000000000000000000000000000000000 n
b11111111 P"
1X"
b1010101101000010011111010000000000010001000100010000000000000000 \"
#59
b1010101101000110011111010000000000010001000100010000000000000000 "
b1010101101000011011111010000000000010001000100010000000000000000 n
b1010101101000010101010110100001010101011010000101010101101000010 \"
#60
b1010101101000110101010110100011010101011010001101010101101000110 "
b1010101101000011101010110100001110101011010000111010101101000011 n
b111 ,$
15$
#61
b1000100010001000000000000000000000000000000000 J#
b11111111 ,$
05$
#62
0m
b1010101110111000011111010000000000010001000100010000000000000000 J#
#63
b1010101110111000101010111011100010101011101110001010101110111000 J#
07$
#65
1m
#66
17$
#74
b1011001111111111110000011010000010000101010101101000010 \"
b111 >#
1G#
1H#
#75
b11001000010011111001010011000010000111010101101000011 n
b111 P"
1Y"
1Z"
b1000100010001000000000000000000000000000000000 \"
b11111111 >#
0F#
0G#
0H#
#76
b101010101010101010101010000000000000000000000000000000000000000 n
b1 P"
0X"
0Y"
0Z"
#78
b111 b
1k
b1000100010001000000000000000000000000000000000 n
b11111111 P"
1X"
1F#
#79
b1000100010001000000000000000000000000000000000 "
b11111111 b
0k
b1010101101000100011111010000000000010001000100010000000000000000 n
b1010101101000011011111010000000000010001000100010000000000000000 \"
#80
b1010101101000111011111010000000000010001000100010000000000000000 "
b1010101101000100101010110100010010101011010001001010101101000100 n
b1010101101000011101010110100001110101011010000111010101101000011 \"
#81
b1010101101000111101010110100011110101011010001111010101101000111 "
b111 ,$
15$
#82
b1000100010001000000000000000000000000000000000 J#
b11111111 ,$
05$
#83
0m
b1010101110111001011111010000000000010001000100010000000000000000 J#
#84
b1010101110111001101010111011100110101011101110011010101110111001 J#
07$
#85
1m
#86
17$
#95
b101110101000101100100001010001001010101101000100 n
b111 P"
1Y"
1Z"
b11001000010011111001010011000010000111010101101000011 \"
b111 >#
1G#
1H#
#96
b0 n
b1 P"
0X"
0Y"
0Z"
b1000100010001000000000000000000000000000000000 \"
b11111111 >#
0F#
0G#
0H#
#98
b111 b
1k
b1000100010001000000000000000000000000000000000 n
b11111111 P"
1X"
1F#
#99
b1000100010001000000000000000000000000000000000 "
b11111111 b
0k
b1010101101000101011111010000000000010001000100010000000000000000 n
b1010101101000100011111010000000000010001000100010000000000000000 \"
#100
b1010101101001000011111010000000000010001000100010000000000000000 "
b1010101101000101101010110100010110101011010001011010101101000101 n
b1010101101000100101010110100010010101011010001001010101101000100 \"
#101
b1010101101001000101010110100100010101011010010001010101101001000 "
b111 ,$
15$
#102
b1000100010001000000000000000000000000000000000 J#
b11111111 ,$
05$
#103
0m
b1010101110111010011111010000000000010001000100010000000000000000 J#
#104
b1010101110111010101010111011101010101011101110101010101110111010 J#
07$
#106
1m
#107
17$
#115
b1000000010011001001100101101001010001011010101101000101 n
b111 P"
1Y"
1Z"
b101110101000101100100001010001001010101101000100 \"
b111 >#
1G#
1H#
#116
b0 n
0X"
0Y"
0Z"
b1000100010001000000000000000000000000000000000 \"
b11111111 >#
0F#
0G#
0H#
#118
1F#
#119
b111 b
1k
b1000100010001000000000000000000000000000000000 n
b11111111 P"
1X"
b1010101101000101011111010000000000010001000100010000000000000000 \"
#120
b1000100010001000000000000000000000000000000000 "
b11111111 b
0k
b1010101101000110011111010000000000010001000100010000000000000000 n
b1010101101000101101010110100010110101011010001011010101101000101 \"
#121
b1010101101001001011111010000000000010001000100010000000000000000 "
b1010101101000110101010110100011010101011010001101010101101000110 n
#122
b1010101101001001101010110100100110101011010010011010101101001001 "
b111 ,$
15$
#123
b1000100010001000000000000000000000000000000000 J#
b11111111 ,$
05$
#124
0m
b1010101110111011011111010000000000010001000100010000000000000000 J#
#125
b1010101110111011101010111011101110101011101110111010101110111011 J#
07$
#126
1m
#127
17$
#135
b1000000010011001001100101101001010001011010101101000101 \"
b111 >#
1G#
1H#
#136
b10000001010101101010111110110001010001101010101101000110 n
b111 P"
1Y"
1Z"
b1000100010001000000000000000000000000000000000 \"
b11111111 >#
0F#
0G#
0H#
#137
b101010101010101010101010000000000000000000000000000000000000000 n
b1 P"
0X"
0Y"
0Z"
#139
b111 b
1k
b1000100010001000000000000000000000000000000000 n
b11111111 P"
1X"
1F#
#140
b1000100010001000000000000000000000000000000000 "
b11111111 b
0k
b1010101101000111011111010000000000010001000100010000000000000000 n
b1010101101000110011111010000000000010001000100010000000000000000 \"
#141
b1010101101001010011111010000000000010001000100010000000000000000 "
b1010101101000111101010110100011110101011010001111010101101000111 n
b1010101101000110101010110100011010101011010001101010101101000110 \"
#142
b1010101101001010101010110100101010101011010010101010101101001010 "
b111 ,$
15$
#143
b1000100010001000000000000000000000000000000000 J#
b11111111 ,$
05$
#144
0m
b1010101110111100011111010000000000010001000100010000000000000000 J#
#145
b1010101110111100101010111011110010101011101111001010101110111100 J#
07$
#147
1m
#148
17$
#156
b11000001101000001011110111111001010001111010101101000111 n
b111 P"
1Y"
1Z"
b10000001010101101010111110110001010001101010101101000110 \"
b111 >#
1G#
1H#
#157
b0 n
0X"
0Y"
0Z"
b1000100010001000000000000000000000000000000000 \"
b11111111 >#
0F#
0G#
0H#
#159
1F#
#160
b111 b
1k
b1000100010001000000000000000000000000000000000 n
b11111111 P"
1X"
b1010101101000111011111010000000000010001000100010000000000000000 \"
#161
b1000100010001000000000000000000000000000000000 "
b11111111 b
0k
b1010101101001000011111010000000000010001000100010000000000000000 n
b1010101101000111101010110100011110101011010001111010101101000111 \"
#162
b1010101101001011011111010000000000010001000100010000000000000000 "
b1010101101001000101010110100100010101011010010001010101101001000 n
#163
b1010101101001011101010110100101110101011010010111010101101001011 "
b111 ,$
15$
#164
b1000100010001000000000000000000000000000000000 J#
b11111111 ,$
05$
#165
0m
b1010101110111101011111010000000000010001000100010000000000000000 J#
#166
b1010101110111101101010111011110110101011101111011010101110111101 J#
07$
#167
1m
#168
17$
#176
b11000001101000001011110111111001010001111010101101000111 \"
b111 >#
1G#
1H#
#177
b10110010001100000101110011000011010010001010101101001000 n
b111 P"
1Y"
1Z"
b1000100010001000000000000000000000000000000000 \"
b11111111 >#
0F#
0G#
0H#
#178
b0 n
0X"
0Y"
0Z"
#180
b111 b
1k
1F#
#181
b1000100010001000000000000000000000000000000000 "
b11111111 b
0k
b1000100010001000000000000000000000000000000000 n
b11111111 P"
1X"
b1010101101001000011111010000000000010001000100010000000000000000 \"
#182
b1010101101001100011111010000000000010001000100010000000000000000 "
b1010101101001001011111010000000000010001000100010000000000000000 n
b1010101101001000101010110100100010101011010010001010101101001000 \"
#183
b1010101101001100101010110100110010101011010011001010101101001100 "
b1010101101001001101010110100100110101011010010011010101101001001 n
b111 ,$
15$
#184
b1000100010001000000000000000000000000000000000 J#
b11111111 ,$
05$
#185
0m
b1010101110111110011111010000000000010001000100010000000000000000 J#
#186
b1010101110111110101010111011111010101011101111101010101110111110 J#
07$
#188
1m
#189
17$
#197
b10110010001100000101110011000011010010001010101101001000 \"
b111 >#
1G#
1H#
#198
b11110010110001100100111010001011010010011010101101001001 n
b111 P"
1Y"
1Z"
b1000100010001000000000000000000000000000000000 \"
b11111111 >#
0F#
0G#
0H#
#199
b101010101010101010101010000000000000000000000000000000000000000 n
b1 P"
0X"
0Y"
0Z"
#201
b111 b
1k
b1000100010001000000000000000000000000000000000 n
b11111111 P"
1X"
1F#
#202
b1000100010001000000000000000000000000000000000 "
b11111111 b
0k
b1010101101001010011111010000000000010001000100010000000000000000 n
b1010101101001001011111010000000000010001000100010000000000000000 \"
#203
b1010101101001101011111010000000000010001000100010000000000000000 "
b1010101101001010101010110100101010101011010010101010101101001010 n
b1010101101001001101010110100100110101011010010011010101101001001 \"
#204
b1010101101001101101010110100110110101011010011011010101101001101 "
b111 ,$
15$
#205
b1000100010001000000000000000000000000000000000 J#
b11111111 ,$
05$
#206
0m
b1010101110111111011111010000000000010001000100010000000000000000 J#
#207
b1010101110111111101010111011111110101011101111111010101110111111 J#
07$
#208
1m
#209
17$
#218
b110011110111000111100001010011010010101010101101001010 n
b111 P"
1Y"
1Z"
b11110010110001100100111010001011010010011010101101001001 \"
b111 >#
1G#
1H#
#219
b0 n
b1 P"
0X"
0Y"
0Z"
b1000100010001000000000000000000000000000000000 \"
b11111111 >#
0F#
0G#
0H#
#221
b111 b
1k
b1000100010001000000000000000000000000000000000 n
b11111111 P"
1X"
1F#
#222
b1000100010001000000000000000000000000000000000 "
b11111111 b
0k
b1010101101001011011111010000000000010001000100010000000000000000 n
b1010101101001010011111010000000000010001000100010000000000000000 \"
#223
b1010101101001110011111010000000000010001000100010000000000000000 "
b1010101101001011101010110100101110101011010010111010101101001011 n
b1010101101001010101010110100101010101011010010101010101101001010 \"
#224
b1010101101001110101010110100111010101011010011101010101101001110 "
b111 ,$
15$
#225
b1000100010001000000000000000000000000000000000 J#
b11111111 ,$
05$
#226
0m
b1010101111000000011111010000000000010001000100010000000000000000 J#
#227
b1010101111000000101010111100000010101011110000001010101111000000 J#
07$
#229
1m
#230
17$
#238
b1110011001010100110101000011011010010111010101101001011 n
b111 P"
1Y"
1Z"
b110011110111000111100001010011010010101010101101001010 \"
b111 >#
1G#
1H#
#239
b0 n
0X"
0Y"
0Z"
b1000100010001000000000000000000000000000000000 \"
b11111111 >#
0F#
0G#
0H#
#241
1F#
#242
b111 b
1k
b1000100010001000000000000000000000000000000000 n
b11111111 P"
1X"
b1010101101001011011111010000000000010001000100010000000000000000 \"
#243
b1000100010001000000000000000000000000000000000 "
b11111111 b
0k
b1010101101001100011111010000000000010001000100010000000000000000 n
b1010101101001011101010110100101110101011010010111010101101001011 \"
#244
b1010101101001111011111010000000000010001000100010000000000000000 "
b1010101101001100101010110100110010101011010011001010101101001100 n
#245
b1010101101001111101010110100111110101011010011111010101101001111 "
b111 ,$
15$
#246
b1000100010001000000000000000000000000000000000 J#
b11111111 ,$
05$
#247
0m
b1010101111000001011111010000000000010001000100010000000000000000 J#
#248
b1010101111000001101010111100000110101011110000011010101111000001 J#
07$
#249
1m
#250
17$
#258
b1110011001010100110101000011011010010111010101101001011 \"
b111 >#
1G#
1H#
#259
b1101010100110010001001110100010010011001010101101001100 n
b111 P"
1Y"
1Z"
b1000100010001000000000000000000000000000000000 \"
b11111111 >#
0F#
0G#
0H#
#260
b101010101010101010101010000000000000000000000000000000000000000 n
b1 P"
0X"
0Y"
0Z"
#262
b111 b
1k
b1000100010001000000000000000000000000000000000 n
b11111111 P"
1X"
1F#
#263
b1000100010001000000000000000000000000000000000 "
b11111111 b
0k
b1010101101001101011111010000000000010001000100010000000000000000 n
b1010101101001100011111010000000000010001000100010000000000000000 \"
#264
b1010101101010000011111010000000000010001000100010000000000000000 "
b1010101101001101101010110100110110101011010011011010101101001101 n
b1010101101001100101010110100110010101011010011001010101101001100 \"
#265
b1010101101010000101010110101000010101011010100001010101101010000 "
b111 ,$
15$
#266
b1000100010001000000000000000000000000000000000 J#
b11111111 ,$
05$
#267
0m
b1010101111000010011111010000000000010001000100010000000000000000 J#
#268
b1010101111000010101010111100001010101011110000101010101111000010 J#
07$
#270
1m
#271
17$
#279
b101010011011110000000111101010010011011010101101001101 n
b111 P"
1Y"
1Z"
b1101010100110010001001110100010010011001010101101001100 \"
b111 >#
1G#
1H#
#280
b0 n
0X"
0Y"
0Z"
b1000100010001000000000000000000000000000000000 \"
b11111111 >#
0F#
0G#
0H#
#282
1F#
#283
b111 b
1k
b1000100010001000000000000000000000000000000000 n
b11111111 P"
1X"
b1010101101001101011111010000000000010001000100010000000000000000 \"
#284
b1000100010001000000000000000000000000000000000 "
b11111111 b
0k
b1010101101001110011111010000000000010001000100010000000000000000 n
b1010101101001101101010110100110110101011010011011010101101001101 \"
#285
b1010101101010001011111010000000000010001000100010000000000000000 "
b1010101101001110101010110100111010101011010011101010101101001110 n
#286
b1010101101010001101010110101000110101011010100011010101101010001 "
b111 ,$
15$
#287
b1000100010001000000000000000000000000000000000 J#
b11111111 ,$
05$
#288
0m
b1010101111000011011111010000000000010001000100010000000000000000 J#
#289
b1010101111000011101010111100001110101011110000111010101111000011 J#
07$
#290
1m
#291
17$
#299
b101010011011110000000111101010010011011010101101001101 \"
b111 >#
1G#
1H#
#300
b11101011011101010011011100110010010011101010101101001110 n
b111 P"
1Y"
1Z"
b1000100010001000000000000000000000000000000000 \"
b11111111 >#
0F#
0G#
0H#
#301
b0 n
0X"
0Y"
0Z"
#303
b111 b
1k
1F#
#304
b1000100010001000000000000000000000000000000000 "
b11111111 b
0k
b1000100010001000000000000000000000000000000000 n
b11111111 P"
1X"
b1010101101001110011111010000000000010001000100010000000000000000 \"
#305
b1010101101010010011111010000000000010001000100010000000000000000 "
b1010101101001111011111010000000000010001000100010000000000000000 n
b1010101101001110101010110100111010101011010011101010101101001110 \"
#306
b1010101101010010101010110101001010101011010100101010101101010010 "
b1010101101001111101010110100111110101011010011111010101101001111 n
b111 ,$
15$
#307
b1000100010001000000000000000000000000000000000 J#
b11111111 ,$
05$
#308
0m
b1010101111000100011111010000000000010001000100010000000000000000 J#
#309
b1010101111000100101010111100010010101011110001001010101111000100 J#
07$
#311
1m
#312
17$
#320
b11101011011101010011011100110010010011101010101101001110 \"
b111 >#
1G#
1H#
#321
b10101011100000110010010101111010010011111010101101001111 n
b111 P"
1Y"
1Z"
b1000100010001000000000000000000000000000000000 \"
b11111111 >#
0F#
0G#
0H#
#322
b101010101010101010101010000000000000000000000000000000000000000 n
b1 P"
0X"
0Y"
0Z"
#324
b111 b
1k
b1000100010001000000000000000000000000000000000 n
b11111111 P"
1X"
1F#
#325
b1000100010001000000000000000000000000000000000 "
b11111111 b
0k
b1010101101010000011111010000000000010001000100010000000000000000 n
b1010101101001111011111010000000000010001000100010000000000000000 \"
#326
b1010101101010011011111010000000000010001000100010000000000000000 "
b1010101101010000101010110101000010101011010100001010101101010000 n
b1010101101001111101010110100111110101011010011111010101101001111 \"
#327
b1010101101010011101010110101001110101011010100111010101101010011 "
b111 ,$
15$
#328
b1000100010001000000000000000000000000000000000 J#
b11111111 ,$
05$
#329
0m
b1010101111000101011111010000000000010001000100010000000000000000 J#
#330
b1010101111000101101010111100010110101011110001011010101111000101 J#
07$
#331
1m
#332
17$
#341
b1100010101001111010101000110010100001010101101010000 n
b111 P"
1Y"
1Z"
b10101011100000110010010101111010010011111010101101001111 \"
b111 >#
1G#
1H#
#342
b0 n
b1 P"
0X"
0Y"
0Z"
b1000100010001000000000000000000000000000000000 \"
b11111111 >#
0F#
0G#
0H#
#344
b111 b
1k
b1000100010001000000000000000000000000000000000 n
b11111111 P"
1X"
1F#
#345
b1000100010001000000000000000000000000000000000 "
b11111111 b
0k
b1010101101010001011111010000000000010001000100010000000000000000 n
b1010101101010000011111010000000000010001000100010000000000000000 \"
#346
b1010101101010100011111010000000000010001000100010000000000000000 "
b1010101101010001101010110101000110101011010100011010101101010001 n
b1010101101010000101010110101000010101011010100001010101101010000 \"
#347
b1010101101010100101010110101010010101011010101001010101101010100 "
b111 ,$
15$
#348
b1000100010001000000000000000000000000000000000 J#
b11111111 ,$
05$
#349
0m
b1010101111000110011111010000000000010001000100010000000000000000 J#
#350
b1010101111000110101010111100011010101011110001101010101111000110 J#
07$
#352
1m
#353
17$
#361
b1001100101000101110011100001110010100011010101101010001 n
b111 P"
1Y"
1Z"
b1100010101001111010101000110010100001010101101010000 \"
b111 >#
1G#
1H#
#362
b0 n
0X"
0Y"
0Z"
b1000100010001000000000000000000000000000000000 \"
b11111111 >#
0F#
0G#
0H#
#364
1F#
#365
b111 b
1k
b1000100010001000000000000000000000000000000000 n
b11111111 P"
1X"
b1010101101010001011111010000000000010001000100010000000000000000 \"
#366
b1000100010001000000000000000000000000000000000 "
b11111111 b
0k
b1010101101010010011111010000000000010001000100010000000000000000 n
b1010101101010001101010110101000110101011010100011010101101010001 \"
#367
b1010101101010101011111010000000000010001000100010000000000000000 "
b1010101101010010101010110101001010101011010100101010101101010010 n
#368
b1010101101010101101010110101010110101011010101011010101101010101 "
b111 ,$
15$
#369
b1000100010001000000000000000000000000000000000 J#
b11111111 ,$
05$
#370
0m
b1010101111000111011111010000000000010001000100010000000000000000 J#
#371
b1010101111000111101010111100011110101011110001111010101111000111 J#
07$
#372
1m
#373
17$
#381
b1001100101000101110011100001110010100011010101101010001 \"
b111 >#
1G#
1H#
#382
b10001101101110001101000111010110010100101010101101010010 n
b111 P"
1Y"
1Z"
b1000100010001000000000000000000000000000000000 \"
b11111111 >#
0F#
0G#
0H#
#383
b101010101010101010101010000000000000000000000000000000000000000 n
b1 P"
0X"
0Y"
0Z"
#385
b111 b
1k
b1000100010001000000000000000000000000000000000 n
b11111111 P"
1X"
1F#
#386
b1000100010001000000000000000000000000000000000 "
b11111111 b
0k
b1010101101010011011111010000000000010001000100010000000000000000 n
b1010101101010010011111010000000000010001000100010000000000000000 \"
#387
b1010101101010110011111010000000000010001000100010000000000000000 "
b1010101101010011101010110101001110101011010100111010101101010011 n
b1010101101010010101010110101001010101011010100101010101101010010 \"
#388
b1010101101010110101010110101011010101011010101101010101101010110 "
b111 ,$
15$
#389
b1000100010001000000000000000000000000000000000 J#
b11111111 ,$
05$
#390
0m
b1010101111001000011111010000000000010001000100010000000000000000 J#
#391
b1010101111001000101010111100100010101011110010001010101111001000 J#
07$
#393
1m
#394
17$
#402
b11001101010011101100001110011110010100111010101101010011 n
b111 P"
1Y"
1Z"
b10001101101110001101000111010110010100101010101101010010 \"
b111 >#
1G#
1H#
#403
b0 n
0X"
0Y"
0Z"
b1000100010001000000000000000000000000000000000 \"
b11111111 >#
0F#
0G#
0H#
#405
1F#
#406
b111 b
1k
b1000100010001000000000000000000000000000000000 n
b11111111 P"
1X"
b1010101101010011011111010000000000010001000100010000000000000000 \"
#407
b1000100010001000000000000000000000000000000000 "
b11111111 b
0k
b1010101101010100011111010000000000010001000100010000000000000000 n
b1010101101010011101010110101001110101011010100111010101101010011 \"
#408
b1010101101010111011111010000000000010001000100010000000000000000 "
b1010101101010100101010110101010010101011010101001010101101010100 n
#409
b1010101101010111101010110101011110101011010101111010101101010111 "
b111 ,$
15$
#410
b1000100010001000000000000000000000000000000000 J#
b11111111 ,$
05$
#411
0m
b1010101111001001011111010000000000010001000100010000000000000000 J#
#412
b1010101111001001101010111100100110101011110010011010101111001001 J#
07$
#413
1m
#414
17$
#422
b11001101010011101100001110011110010100111010101101010011 \"
b111 >#
1G#
1H#
#423
b11010100111111011011101000100111010101001010101101010100 n
b111 P"
1Y"
1Z"
b1000100010001000000000000000000000000000000000 \"
b11111111 >#
0F#
0G#
0H#
#424
b0 n
0X"
0Y"
0Z"
#426
b111 b
1k
1F#
#427
b1000100010001000000000000000000000000000000000 "
b11111111 b
0k
b1000100010001000000000000000000000000000000000 n
b11111111 P"
1X"
b1010101101010100011111010000000000010001000100010000000000000000 \"
#428
b1010101101011000011111010000000000010001000100010000000000000000 "
b1010101101010101011111010000000000010001000100010000000000000000 n
b1010101101010100101010110101010010101011010101001010101101010100 \"
#429
b1010101101011000101010110101100010101011010110001010101101011000 "
b1010101101010101101010110101010110101011010101011010101101010101 n
b111 ,$
15$
#430
b1000100010001000000000000000000000000000000000 J#
b11111111 ,$
05$
#431
0m
b1010101111001010011111010000000000010001000100010000000000000000 J#
#432
b1010101111001010101010111100101010101011110010101010101111001010 J#
07$
#434
1m
#435
17$
#443
b11010100111111011011101000100111010101001010101101010100 \"
b111 >#
1G#
1H#
#444
b10010100000010111010100001101111010101011010101101010101 n
b111 P"
1Y"
1Z"
b1000100010001000000000000000000000000000000000 \"
b11111111 >#
0F#
0G#
0H#
#445
b101010101010101010101010000000000000000000000000000000000000000 n
b1 P"
0X"
0Y"
0Z"
#447
b111 b
1k
b1000100010001000000000000000000000000000000000 n
b11111111 P"
1X"
1F#
#448
b1000100010001000000000000000000000000000000000 "
b11111111 b
0k
b1010101101010110011111010000000000010001000100010000000000000000 n
b1010101101010101011111010000000000010001000100010000000000000000 \"
#449
b1010101101011001011111010000000000010001000100010000000000000000 "
b1010101101010110101010110101011010101011010101101010101101010110 n
b1010101101010101101010110101010110101011010101011010101101010101 \"
#450
b1010101101011001101010110101100110101011010110011010101101011001 "
b111 ,$
15$
#451
b1000100010001000000000000000000000000000000000 J#
b11111111 ,$
05$
#452
0m
b1010101111001011011111010000000000010001000100010000000000000000 J#
#453
b1010101111001011101010111100101110101011110010111010101111001011 J#
07$
#454
1m
#455
17$
#464
b1010101000100011001111010110111010101101010101101010110 n
b111 P"
1Y"
1Z"
b10010100000010111010100001101111010101011010101101010101 \"
b111 >#
1G#
1H#
#465
b0 n
b1 P"
0X"
0Y"
0Z"
b1000100010001000000000000000000000000000000000 \"
b11111111 >#
0F#
0G#
0H#
#467
b111 b
1k
b1000100010001000000000000000000000000000000000 n
b11111111 P"
1X"
1F#
#468
b1000100010001000000000000000000000000000000000 "
b11111111 b
0k
b1010101101010111011111010000000000010001000100010000000000000000 n
b1010101101010110011111010000000000010001000100010000000000000000 \"
#469
b1010101101011010011111010000000000010001000100010000000000000000 "
b1010101101010111101010110101011110101011010101111010101101010111 n
b1010101101010110101010110101011010101011010101101010101101010110 \"
#470
b1010101101011010101010110101101010101011010110101010101101011010 "
b111 ,$
15$
#471
b1000100010001000000000000000000000000000000000 J#
b11111111 ,$
05$
#472
0m
b1010101111001100011111010000000000010001000100010000000000000000 J#
#473
b1010101111001100101010111100110010101011110011001010101111001100 J#
07$
#475
1m
#476
17$
#484
b10101111001111000110011111111010101111010101101010111 n
b111 P"
1Y"
1Z"
b1010101000100011001111010110111010101101010101101010110 \"
b111 >#
1G#
1H#
#485
b0 n
0X"
0Y"
0Z"
b1000100010001000000000000000000000000000000000 \"
b11111111 >#
0F#
0G#
0H#
#487
1F#
#488
b111 b
1k
b1000100010001000000000000000000000000000000000 n
b11111111 P"
1X"
b1010101101010111011111010000000000010001000100010000000000000000 \"
#489
b1000100010001000000000000000000000000000000000 "
b11111111 b
0k
b1010101101011000011111010000000000010001000100010000000000000000 n
b1010101101010111101010110101011110101011010101111010101101010111 \"
#490
b1010101101011011011111010000000000010001000100010000000000000000 "
b1010101101011000101010110101100010101011010110001010101101011000 n
#491
b1010101101011011101010110101101110101011010110111010101101011011 "
b111 ,$
15$
#492
b1000100010001000000000000000000000000000000000 J#
b11111111 ,$
05$
#493
0m
b1010101111001101011111010000000000010001000100010000000000000000 J#
#494
b1010101111001101101010111100110110101011110011011010101111001101 J#
07$
#495
1m
#496
17$
#504
b10101111001111000110011111111010101111010101101010111 \"
b111 >#
1G#
1H#
#505
b1100110011101110110110111000101010110001010101101011000 n
b111 P"
1Y"
1Z"
b1000100010001000000000000000000000000000000000 \"
b11111111 >#
0F#
0G#
0H#
#506
b101010101010101010101010000000000000000000000000000000000000000 n
b1 P"
0X"
0Y"
0Z"
#508
b111 b
1k
b1000100010001000000000000000000000000000000000 n
b11111111 P"
1X"
1F#
#509
b1000100010001000000000000000000000000000000000 "
b11111111 b
0k
b1010101101011001011111010000000000010001000100010000000000000000 n
b1010101101011000011111010000000000010001000100010000000000000000 \"
#510
b1010101101011100011111010000000000010001000100010000000000000000 "
b1010101101011001101010110101100110101011010110011010101101011001 n
b1010101101011000101010110101100010101011010110001010101101011000 \"
#511
b1010101101011100101010110101110010101011010111001010101101011100 "
b111 ,$
15$
#512
b1000100010001000000000000000000000000000000000 J#
b11111111 ,$
05$
#513
0m
b1010101111001110011111010000000000010001000100010000000000000000 J#
#514
b1010101111001110101010111100111010101011110011101010101111001110 J#
07$
#516
1m
#517
17$
#525
b100110100000010111111110001101010110011010101101011001 n
b111 P"
1Y"
1Z"
b1100110011101110110110111000101010110001010101101011000 \"
b111 >#
1G#
1H#
#526
b0 n
0X"
0Y"
0Z"
b1000100010001000000000000000000000000000000000 \"
b11111111 >#
0F#
0G#
0H#
#528
1F#
#529
b111 b
1k
b1000100010001000000000000000000000000000000000 n
b11111111 P"
1X"
b1010101101011001011111010000000000010001000100010000000000000000 \"
