kcu105_10gbaser_trd/hardware/vivado/runs/impl_run/.Xil/Vivado-15056-DESKTOP-4A374NS/hw_ila_data_1/zip_work/waveform.vcd
$date
        2019-Nov-21 17:49:57
$end
$version
        Vivado v2019.2 (64-bit)
$end
$timescale
        1ps
$end
$scope module dut $end
$var reg 64 " axi_stream_gen_mon_0/axi_stream_interface/tx_axis_tdata [63:0] $end
$var reg 8 b axi_stream_gen_mon_0/axi_stream_interface/tx_axis_tkeep [7:0] $end
$var reg 1 j axi_stream_gen_mon_0/axi_stream_interface/tx_axis_tvalid $end
$var reg 1 k axi_stream_gen_mon_0/axi_stream_interface/tx_axis_tlast $end
$var reg 1 l axi_stream_gen_mon_0/axi_stream_interface/tx_axis_tuser $end
$var reg 1 m axi_stream_gen_mon_0/axi_stream_interface/tx_axis_tready $end
$var reg 64 n axi_stream_gen_mon_0/axi_stream_interface/rx_axis_tdata [63:0] $end
$var reg 8 P" axi_stream_gen_mon_0/axi_stream_interface/rx_axis_tkeep [7:0] $end
$var reg 1 X" axi_stream_gen_mon_0/axi_stream_interface/rx_axis_tvalid $end
$var reg 1 Y" axi_stream_gen_mon_0/axi_stream_interface/rx_axis_tlast $end
$var reg 1 Z" axi_stream_gen_mon_0/axi_stream_interface/rx_axis_tuser $end
$var reg 1 [" axi_stream_gen_mon_0/axi_stream_interface/rx_axis_tready $end
$var reg 64 \" axi_stream_gen_mon_0/axi_stream_interface/bb_rx_axis_tdata [63:0] $end
$var reg 8 ># axi_stream_gen_mon_0/axi_stream_interface/bb_rx_axis_tkeep [7:0] $end
$var reg 1 F# axi_stream_gen_mon_0/axi_stream_interface/bb_rx_axis_tvalid $end
$var reg 1 G# axi_stream_gen_mon_0/axi_stream_interface/bb_rx_axis_tlast $end
$var reg 1 H# axi_stream_gen_mon_0/axi_stream_interface/bb_rx_axis_tuser $end
$var reg 1 I# axi_stream_gen_mon_0/axi_stream_interface/bb_rx_axis_tready $end
$var reg 64 J# axi_stream_gen_mon_0/axi_stream_interface/bb_tx_axis_tdata [63:0] $end
$var reg 8 ,$ axi_stream_gen_mon_0/axi_stream_interface/bb_tx_axis_tkeep [7:0] $end
$var reg 1 4$ axi_stream_gen_mon_0/axi_stream_interface/bb_tx_axis_tvalid $end
$var reg 1 5$ axi_stream_gen_mon_0/axi_stream_interface/bb_tx_axis_tlast $end
$var reg 1 6$ axi_stream_gen_mon_0/axi_stream_interface/bb_tx_axis_tuser $end
$var reg 1 7$ axi_stream_gen_mon_0/axi_stream_interface/bb_tx_axis_tready $end
$var reg 1 8$ _TRIGGER $end
$var reg 1 9$ _WINDOW $end
$var reg 1 :$ _GAP $end
$upscope $end
$enddefinitions $end
#0
$dumpvars
b1111010011000000111101001100000011110100110000001111010011000000 "
b11111111 b
1j
0k
0l
1m
b1111010010111100111101001011110011110100101111001111010010111100 n
b11111111 P"
1X"
0Y"
0Z"
1["
b1111010010111011111101001011101111110100101110111111010010111011 \"
b11111111 >#
1F#
0G#
0H#
1I#
b1111010101101011111101010110101111110101011010111111010101101011 J#
b11111111 ,$
14$
05$
06$
17$
08$
19$
0:$
$end
#2
b100011010101110010101011011101111110100101110111111010010111011 \"
b11111 >#
1G#
1H#
#3
b1111111111010011011001001011110011110100101111001111010010111100 n
b11111 P"
1Y"
1Z"
b1000100010001000000000000000000000000000000000 \"
b11111111 >#
0F#
0G#
0H#
#4
b11111 b
1k
b10011 n
0X"
0Y"
0Z"
#5
b1000100010001000000000000000000000000000000000 "
b11111111 b
0k
#6
b1111010011000001010011110000000000010001000100010000000000000000 "
1F#
#7
b1111010011000001111101001100000111110100110000011111010011000001 "
b1000100010001000000000000000000000000000000000 n
b11111111 P"
1X"
b1111010010111100010011110000000000010001000100010000000000000000 \"
b11111 ,$
15$
#8
b1111010010111101010011110000000000010001000100010000000000000000 n
b1111010010111100111101001011110011110100101111001111010010111100 \"
b1000100010001000000000000000000000000000000000 J#
b11111111 ,$
05$
#9
0m
b1111010010111101111101001011110111110100101111011111010010111101 n
b1111010101101100010011110000000000010001000100010000000000000000 J#
#10
b1111010101101100111101010110110011110101011011001111010101101100 J#
07$
#12
1m
#13
17$
#17
b1111111111010011011001001011110011110100101111001111010010111100 \"
b11111 >#
1G#
1H#
#18
b111011110101100011011111011110111110100101111011111010010111101 n
b11111 P"
1Y"
1Z"
b1000100010001000000000000000000000000000000000 \"
b11111111 >#
0F#
0G#
0H#
#19
b11111 b
1k
b101010 n
0X"
0Y"
0Z"
#20
b1000100010001000000000000000000000000000000000 "
b11111111 b
0k
#21
b1111010011000010010011110000000000010001000100010000000000000000 "
1F#
#22
b1111010011000010111101001100001011110100110000101111010011000010 "
b1111010010111101010011110000000000010001000100010000000000000000 \"
b11111 ,$
15$
#23
b1000100010001000000000000000000000000000000000 n
b11111111 P"
1X"
b1111010010111101111101001011110111110100101111011111010010111101 \"
b1000100010001000000000000000000000000000000000 J#
b11111111 ,$
05$
#24
0m
b1111010010111110010011110000000000010001000100010000000000000000 n
b1111010101101101010011110000000000010001000100010000000000000000 J#
#25
b1111010010111110111101001011111011110100101111101111010010111110 n
b1111010101101101111101010110110111110101011011011111010101101101 J#
07$
#27
1m
#28
17$
#32
b111011110101100011011111011110111110100101111011111010010111101 \"
b11111 >#
1G#
1H#
#33
b1000100010001000000000000000000000000000000000 \"
b11111111 >#
0F#
0G#
0H#
#34
b11111 b
1k
b1110111100101101011100101011111011110100101111101111010010111110 n
b11111 P"
1Y"
1Z"
#35
b1000100010001000000000000000000000000000000000 "
b11111111 b
0k
b1100000 n
b1 P"
0X"
0Y"
0Z"
#36
b1111010011000011010011110000000000010001000100010000000000000000 "
#37
b1111010011000011111101001100001111110100110000111111010011000011 "
b1000100010001000000000000000000000000000000000 n
b11111111 P"
1X"
1F#
b11111 ,$
15$
#38
b1111010010111111010011110000000000010001000100010000000000000000 n
b1111010010111110010011110000000000010001000100010000000000000000 \"
b1000100010001000000000000000000000000000000000 J#
b11111111 ,$
05$
#39
0m
b1111010010111111111101001011111111110100101111111111010010111111 n
b1111010010111110111101001011111011110100101111101111010010111110 \"
b1111010101101110010011110000000000010001000100010000000000000000 J#
#40
b1111010101101110111101010110111011110101011011101111010101101110 J#
07$
#42
1m
#43
17$
#48
b110011101010010011110011011111111110100101111111111010010111111 n
b11111 P"
1Y"
1Z"
b1110111100101101011100101011111011110100101111101111010010111110 \"
b11111 >#
1G#
1H#
#49
b11111 b
1k
b1011001 n
0X"
0Y"
0Z"
b1000100010001000000000000000000000000000000000 \"
b11111111 >#
0F#
0G#
0H#
#50
b1000100010001000000000000000000000000000000000 "
b11111111 b
0k
#51
b1111010011000100010011110000000000010001000100010000000000000000 "
1F#
#52
b1111010011000100111101001100010011110100110001001111010011000100 "
b1000100010001000000000000000000000000000000000 n
b11111111 P"
1X"
b1111010010111111010011110000000000010001000100010000000000000000 \"
b11111 ,$
15$
#53
b1111010011000000010011110000000000010001000100010000000000000000 n
b1111010010111111111101001011111111110100101111111111010010111111 \"
b1000100010001000000000000000000000000000000000 J#
b11111111 ,$
05$
#54
0m
b1111010011000000111101001100000011110100110000001111010011000000 n
b1111010101101111010011110000000000010001000100010000000000000000 J#
#55
b1111010101101111111101010110111111110101011011111111010101101111 J#
07$
#57
1m
#58
17$
#62
b110011101010010011110011011111111110100101111111111010010111111 \"
b11111 >#
1G#
1H#
#63
b1101010100100101110011111100000011110100110000001111010011000000 n
b11111 P"
1Y"
1Z"
b1000100010001000000000000000000000000000000000 \"
b11111111 >#
0F#
0G#
0H#
#64
b11111 b
1k
b101001 n
b1 P"
0X"
0Y"
0Z"
#65
b1000100010001000000000000000000000000000000000 "
b11111111 b
0k
#66
b1111010011000101010011110000000000010001000100010000000000000000 "
b1000100010001000000000000000000000000000000000 n
b11111111 P"
1X"
1F#
#67
b1111010011000101111101001100010111110100110001011111010011000101 "
b1111010011000001010011110000000000010001000100010000000000000000 n
b1111010011000000010011110000000000010001000100010000000000000000 \"
b11111 ,$
15$
#68
b1111010011000001111101001100000111110100110000011111010011000001 n
b1111010011000000111101001100000011110100110000001111010011000000 \"
b1000100010001000000000000000000000000000000000 J#
b11111111 ,$
05$
#69
0m
b1111010101110000010011110000000000010001000100010000000000000000 J#
#70
b1111010101110000111101010111000011110101011100001111010101110000 J#
07$
#72
1m
#73
17$
#77
b101110101011010110001001100000111110100110000011111010011000001 n
b11111 P"
1Y"
1Z"
b1101010100100101110011111100000011110100110000001111010011000000 \"
b11111 >#
1G#
1H#
#78
b10000 n
0X"
0Y"
0Z"
b1000100010001000000000000000000000000000000000 \"
b11111111 >#
0F#
0G#
0H#
#79
b11111 b
1k
#80
b1000100010001000000000000000000000000000000000 "
b11111111 b
0k
1F#
#81
b1111010011000110010011110000000000010001000100010000000000000000 "
b1000100010001000000000000000000000000000000000 n
b11111111 P"
1X"
b1111010011000001010011110000000000010001000100010000000000000000 \"
#82
b1111010011000110111101001100011011110100110001101111010011000110 "
b1111010011000010010011110000000000010001000100010000000000000000 n
b1111010011000001111101001100000111110100110000011111010011000001 \"
b11111 ,$
15$
#83
b1111010011000010111101001100001011110100110000101111010011000010 n
b1000100010001000000000000000000000000000000000 J#
b11111111 ,$
05$
#84
0m
b1111010101110001010011110000000000010001000100010000000000000000 J#
#85
b1111010101110001111101010111000111110101011100011111010101110001 J#
07$
#87
1m
#88
17$
#91
b101110101011010110001001100000111110100110000011111010011000001 \"
b11111 >#
1G#
1H#
#92
b1100010111011011110110011100001011110100110000101111010011000010 n
b11111 P"
1Y"
1Z"
b1000100010001000000000000000000000000000000000 \"
b11111111 >#
0F#
0G#
0H#
#93
b1011010 n
0X"
0Y"
0Z"
#94
b11111 b
1k
#95
b1000100010001000000000000000000000000000000000 "
b11111111 b
0k
1F#
#96
b1111010011000111010011110000000000010001000100010000000000000000 "
b1111010011000010010011110000000000010001000100010000000000000000 \"
#97
b1111010011000111111101001100011111110100110001111111010011000111 "
b1000100010001000000000000000000000000000000000 n
b11111111 P"
1X"
b1111010011000010111101001100001011110100110000101111010011000010 \"
b11111 ,$
15$
#98
b1111010011000011010011110000000000010001000100010000000000000000 n
b1000100010001000000000000000000000000000000000 J#
b11111111 ,$
05$
#99
0m
b1111010011000011111101001100001111110100110000111111010011000011 n
b1111010101110010010011110000000000010001000100010000000000000000 J#
#100
b1111010101110010111101010111001011110101011100101111010101110010 J#
07$
#102
1m
#103
17$
#106
b1100010111011011110110011100001011110100110000101111010011000010 \"
b11111 >#
1G#
1H#
#107
b1000100010001000000000000000000000000000000000 \"
b11111111 >#
0F#
0G#
0H#
#108
b100110110100100110100101100001111110100110000111111010011000011 n
b11111 P"
1Y"
1Z"
#109
b11111 b
1k
b1100011 n
0X"
0Y"
0Z"
#110
b1000100010001000000000000000000000000000000000 "
b11111111 b
0k
#111
b1111010011001000010011110000000000010001000100010000000000000000 "
1F#
#112
b1111010011001000111101001100100011110100110010001111010011001000 "
b1000100010001000000000000000000000000000000000 n
b11111111 P"
1X"
b1111010011000011010011110000000000010001000100010000000000000000 \"
b11111 ,$
15$
#113
b1111010011000100010011110000000000010001000100010000000000000000 n
b1111010011000011111101001100001111110100110000111111010011000011 \"
b1000100010001000000000000000000000000000000000 J#
b11111111 ,$
05$
#114
0m
b1111010011000100111101001100010011110100110001001111010011000100 n
b1111010101110011010011110000000000010001000100010000000000000000 J#
#115
b1111010101110011111101010111001111110101011100111111010101110011 J#
07$
#117
1m
#118
17$
#122
b100110110100100110100101100001111110100110000111111010011000011 \"
b11111 >#
1G#
1H#
#123
b1111010011011001111000111100010011110100110001001111010011000100 n
b11111 P"
1Y"
1Z"
b1000100010001000000000000000000000000000000000 \"
b11111111 >#
0F#
0G#
0H#
#124
b11111 b
1k
b11001111 n
0X"
0Y"
0Z"
#125
b1000100010001000000000000000000000000000000000 "
b11111111 b
0k
#126
b1111010011001001010011110000000000010001000100010000000000000000 "
1F#
#127
b1111010011001001111101001100100111110100110010011111010011001001 "
b1000100010001000000000000000000000000000000000 n
b11111111 P"
1X"
b1111010011000100010011110000000000010001000100010000000000000000 \"
b11111 ,$
15$
#128
b1111010011000101010011110000000000010001000100010000000000000000 n
b1111010011000100111101001100010011110100110001001111010011000100 \"
b1000100010001000000000000000000000000000000000 J#
b11111111 ,$
05$
#129
0m
b1111010011000101111101001100010111110100110001011111010011000101 n
b1111010101110100010011110000000000010001000100010000000000000000 J#
#130
b1111010101110100111101010111010011110101011101001111010101110100 J#
07$
#132
1m
#133
17$
#137
b1111010011011001111000111100010011110100110001001111010011000100 \"
b11111 >#
1G#
1H#
#138
b111110010100110111010001100010111110100110001011111010011000101 n
b11111 P"
1Y"
1Z"
b1000100010001000000000000000000000000000000000 \"
b11111111 >#
0F#
0G#
0H#
#139
b11111 b
1k
b11110110 n
0X"
0Y"
0Z"
#140
b1000100010001000000000000000000000000000000000 "
b11111111 b
0k
#141
b1111010011001010010011110000000000010001000100010000000000000000 "
1F#
#142
b1111010011001010111101001100101011110100110010101111010011001010 "
b1000100010001000000000000000000000000000000000 n
b11111111 P"
1X"
b1111010011000101010011110000000000010001000100010000000000000000 \"
b11111 ,$
15$
#143
b1111010011000110010011110000000000010001000100010000000000000000 n
b1111010011000101111101001100010111110100110001011111010011000101 \"
b1000100010001000000000000000000000000000000000 J#
b11111111 ,$
05$
#144
0m
b1111010011000110111101001100011011110100110001101111010011000110 n
b1111010101110101010011110000000000010001000100010000000000000000 J#
#145
b1111010101110101111101010111010111110101011101011111010101110101 J#
07$
#147
1m
#148
17$
#152
b111110010100110111010001100010111110100110001011111010011000101 \"
b11111 >#
1G#
1H#
#153
b1110010000100111111101011100011011110100110001101111010011000110 n
b11111 P"
1Y"
1Z"
b1000100010001000000000000000000000000000000000 \"
b11111111 >#
0F#
0G#
0H#
#154
b11111 b
1k
b10111100 n
0X"
0Y"
0Z"
#155
b1000100010001000000000000000000000000000000000 "
b11111111 b
0k
#156
b1111010011001011010011110000000000010001000100010000000000000000 "
1F#
#157
b1111010011001011111101001100101111110100110010111111010011001011 "
b1111010011000110010011110000000000010001000100010000000000000000 \"
b11111 ,$
15$
#158
b1000100010001000000000000000000000000000000000 n
b11111111 P"
1X"
b1111010011000110111101001100011011110100110001101111010011000110 \"
b1000100010001000000000000000000000000000000000 J#
b11111111 ,$
05$
#159
0m
b1111010011000111010011110000000000010001000100010000000000000000 n
b1111010101110110010011110000000000010001000100010000000000000000 J#
#160
b1111010011000111111101001100011111110100110001111111010011000111 n
b1111010101110110111101010111011011110101011101101111010101110110 J#
07$
#162
1m
#163
17$
#167
b1110010000100111111101011100011011110100110001101111010011000110 \"
b11111 >#
1G#
1H#
#168
b1000100010001000000000000000000000000000000000 \"
b11111111 >#
0F#
0G#
0H#
#169
b11111 b
1k
b110110001011000111111101100011111110100110001111111010011000111 n
b11111 P"
1Y"
1Z"
#170
b1000100010001000000000000000000000000000000000 "
b11111111 b
0k
b10000101 n
b1 P"
0X"
0Y"
0Z"
#171
b1111010011001100010011110000000000010001000100010000000000000000 "
#172
b1111010011001100111101001100110011110100110011001111010011001100 "
b1000100010001000000000000000000000000000000000 n
b11111111 P"
1X"
1F#
b11111 ,$
15$
#173
b1111010011001000010011110000000000010001000100010000000000000000 n
b1111010011000111010011110000000000010001000100010000000000000000 \"
b1000100010001000000000000000000000000000000000 J#
b11111111 ,$
05$
#174
0m
b1111010011001000111101001100100011110100110010001111010011001000 n
b1111010011000111111101001100011111110100110001111111010011000111 \"
b1111010101110111010011110000000000010001000100010000000000000000 J#
#175
b1111010101110111111101010111011111110101011101111111010101110111 J#
07$
#177
1m
#178
17$
#183
b1110011111011011110101101100100011110100110010001111010011001000 n
b11111 P"
1Y"
1Z"
b110110001011000111111101100011111110100110001111111010011000111 \"
b11111 >#
1G#
1H#
#184
b11111 b
1k
b111110 n
0X"
0Y"
0Z"
b1000100010001000000000000000000000000000000000 \"
b11111111 >#
0F#
0G#
0H#
#185
b1000100010001000000000000000000000000000000000 "
b11111111 b
0k
#186
b1111010011001101010011110000000000010001000100010000000000000000 "
1F#
#187
b1111010011001101111101001100110111110100110011011111010011001101 "
b1000100010001000000000000000000000000000000000 n
b11111111 P"
1X"
b1111010011001000010011110000000000010001000100010000000000000000 \"
b11111 ,$
15$
#188
b1111010011001001010011110000000000010001000100010000000000000000 n
b1111010011001000111101001100100011110100110010001111010011001000 \"
b1000100010001000000000000000000000000000000000 J#
b11111111 ,$
05$
#189
0m
b1111010011001001111101001100100111110100110010011111010011001001 n
b1111010101111000010011110000000000010001000100010000000000000000 J#
#190
b1111010101111000111101010111100011110101011110001111010101111000 J#
07$
#192
1m
#193
17$
#197
b1110011111011011110101101100100011110100110010001111010011001000 \"
b11111 >#
1G#
1H#
#198
b110111110100100110111011100100111110100110010011111010011001001 n
b11111 P"
1Y"
1Z"
b1000100010001000000000000000000000000000000000 \"
b11111111 >#
0F#
0G#
0H#
#199
b11111 b
1k
b111 n
b1 P"
0X"
0Y"
0Z"
#200
b1000100010001000000000000000000000000000000000 "
b11111111 b
0k
#201
b1111010011001110010011110000000000010001000100010000000000000000 "
b1000100010001000000000000000000000000000000000 n
b11111111 P"
1X"
1F#
#202
b1111010011001110111101001100111011110100110011101111010011001110 "
b1111010011001010010011110000000000010001000100010000000000000000 n
b1111010011001001010011110000000000010001000100010000000000000000 \"
b11111 ,$
15$
#203
b1111010011001010111101001100101011110100110010101111010011001010 n
b1111010011001001111101001100100111110100110010011111010011001001 \"
b1000100010001000000000000000000000000000000000 J#
b11111111 ,$
05$
#204
0m
b1111010101111001010011110000000000010001000100010000000000000000 J#
#205
b1111010101111001111101010111100111110101011110011111010101111001 J#
07$
#207
1m
#208
17$
#212
b1111011100100101110000001100101011110100110010101111010011001010 n
b11111 P"
1Y"
1Z"
b110111110100100110111011100100111110100110010011111010011001001 \"
b11111 >#
1G#
1H#
#213
b1001101 n
0X"
0Y"
0Z"
b1000100010001000000000000000000000000000000000 \"
b11111111 >#
0F#
0G#
0H#
#214
b11111 b
1k
#215
b1000100010001000000000000000000000000000000000 "
b11111111 b
0k
1F#
#216
b1111010011001111010011110000000000010001000100010000000000000000 "
b1000100010001000000000000000000000000000000000 n
b11111111 P"
1X"
b1111010011001010010011110000000000010001000100010000000000000000 \"
#217
b1111010011001111111101001100111111110100110011111111010011001111 "
b1111010011001011010011110000000000010001000100010000000000000000 n
b1111010011001010111101001100101011110100110010101111010011001010 \"
b11111 ,$
15$
#218
b1111010011001011111101001100101111110100110010111111010011001011 n
b1000100010001000000000000000000000000000000000 J#
b11111111 ,$
05$
#219
0m
b1111010101111010010011110000000000010001000100010000000000000000 J#
#220
b1111010101111010111101010111101011110101011110101111010101111010 J#
07$
#222
1m
#223
17$
#226
b1111011100100101110000001100101011110100110010101111010011001010 \"
b11111 >#
1G#
1H#
#227
b111111101011010110010111100101111110100110010111111010011001011 n
b11111 P"
1Y"
1Z"
b1000100010001000000000000000000000000000000000 \"
b11111111 >#
0F#
0G#
0H#
#228
b1110100 n
0X"
0Y"
0Z"
#229
b11111 b
1k
#230
b1000100010001000000000000000000000000000000000 "
b11111111 b
0k
1F#
#231
b1111010011010000010011110000000000010001000100010000000000000000 "
b1111010011001011010011110000000000010001000100010000000000000000 \"
#232
b1111010011010000111101001101000011110100110100001111010011010000 "
b1000100010001000000000000000000000000000000000 n
b11111111 P"
1X"
b1111010011001011111101001100101111110100110010111111010011001011 \"
b11111 ,$
15$
#233
b1111010011001100010011110000000000010001000100010000000000000000 n
b1000100010001000000000000000000000000000000000 J#
b11111111 ,$
05$
#234
0m
b1111010011001100111101001100110011110100110011001111010011001100 n
b1111010101111011010011110000000000010001000100010000000000000000 J#
#235
b1111010101111011111101010111101111110101011110111111010101111011 J#
07$
#237
1m
#238
17$
#241
b111111101011010110010111100101111110100110010111111010011001011 \"
b11111 >#
1G#
1H#
#242
b1000100010001000000000000000000000000000000000 \"
b11111111 >#
0F#
0G#
0H#
#243
b1100011000100111111110101100110011110100110011001111010011001100 n
b11111 P"
1Y"
1Z"
#244
b11111 b
1k
b11011000 n
0X"
0Y"
0Z"
#245
b1000100010001000000000000000000000000000000000 "
b11111111 b
0k
#246
b1111010011010001010011110000000000010001000100010000000000000000 "
1F#
#247
b1111010011010001111101001101000111110100110100011111010011010001 "
b1000100010001000000000000000000000000000000000 n
b11111111 P"
1X"
b1111010011001100010011110000000000010001000100010000000000000000 \"
b11111 ,$
15$
#248
b1111010011001101010011110000000000010001000100010000000000000000 n
b1111010011001100111101001100110011110100110011001111010011001100 \"
b1000100010001000000000000000000000000000000000 J#
b11111111 ,$
05$
#249
0m
b1111010011001101111101001100110111110100110011011111010011001101 n
b1111010101111100010011110000000000010001000100010000000000000000 J#
#250
b1111010101111100111101010111110011110101011111001111010101111100 J#
07$
#252
1m
#253
17$
#257
b1100011000100111111110101100110011110100110011001111010011001100 \"
b11111 >#
1G#
1H#
#258
b100111001011000111100011100110111110100110011011111010011001101 n
b11111 P"
1Y"
1Z"
b1000100010001000000000000000000000000000000000 \"
b11111111 >#
0F#
0G#
0H#
#259
b11111 b
1k
b11100001 n
0X"
0Y"
0Z"
#260
b1000100010001000000000000000000000000000000000 "
b11111111 b
0k
#261
b1111010011010010010011110000000000010001000100010000000000000000 "
1F#
#262
b1111010011010010111101001101001011110100110100101111010011010010 "
b1000100010001000000000000000000000000000000000 n
b11111111 P"
1X"
b1111010011001101010011110000000000010001000100010000000000000000 \"
b11111 ,$
15$
#263
b1111010011001110010011110000000000010001000100010000000000000000 n
b1111010011001101111101001100110111110100110011011111010011001101 \"
b1000100010001000000000000000000000000000000000 J#
b11111111 ,$
05$
#264
0m
b1111010011001110111101001100111011110100110011101111010011001110 n
b1111010101111101010011110000000000010001000100010000000000000000 J#
#265
b1111010101111101111101010111110111110101011111011111010101111101 J#
07$
#267
1m
#268
17$
#272
b100111001011000111100011100110111110100110011011111010011001101 \"
b11111 >#
1G#
1H#
#273
b1101011011011001111011001100111011110100110011101111010011001110 n
b11111 P"
1Y"
1Z"
b1000100010001000000000000000000000000000000000 \"
b11111111 >#
0F#
0G#
0H#
#274
b11111 b
1k
b10101011 n
0X"
0Y"
0Z"
#275
b1000100010001000000000000000000000000000000000 "
b11111111 b
0k
#276
b1111010011010011010011110000000000010001000100010000000000000000 "
1F#
#277
b1111010011010011111101001101001111110100110100111111010011010011 "
b1000100010001000000000000000000000000000000000 n
b11111111 P"
1X"
b1111010011001110010011110000000000010001000100010000000000000000 \"
b11111 ,$
15$
#278
b1111010011001111010011110000000000010001000100010000000000000000 n
b1111010011001110111101001100111011110100110011101111010011001110 \"
b1000100010001000000000000000000000000000000000 J#
b11111111 ,$
05$
#279
0m
b1111010011001111111101001100111111110100110011111111010011001111 n
b1111010101111110010011110000000000010001000100010000000000000000 J#
#280
b1111010101111110111101010111111011110101011111101111010101111110 J#
07$
#282
1m
#283
17$
#287
b1101011011011001111011001100111011110100110011101111010011001110 \"
b11111 >#
1G#
1H#
#288
b101111010100110111001111100111111110100110011111111010011001111 n
b11111 P"
1Y"
1Z"
b1000100010001000000000000000000000000000000000 \"
b11111111 >#
0F#
0G#
0H#
#289
b11111 b
1k
b10010010 n
0X"
0Y"
0Z"
#290
b1000100010001000000000000000000000000000000000 "
b11111111 b
0k
#291
b1111010011010100010011110000000000010001000100010000000000000000 "
1F#
#292
b1111010011010100111101001101010011110100110101001111010011010100 "
b1111010011001111010011110000000000010001000100010000000000000000 \"
b11111 ,$
15$
#293
b1000100010001000000000000000000000000000000000 n
b11111111 P"
1X"
b1111010011001111111101001100111111110100110011111111010011001111 \"
b1000100010001000000000000000000000000000000000 J#
b11111111 ,$
05$
#294
0m
b1111010011010000010011110000000000010001000100010000000000000000 n
b1111010101111111010011110000000000010001000100010000000000000000 J#
#295
b1111010011010000111101001101000011110100110100001111010011010000 n
b1111010101111111111101010111111111110101011111111111010101111111 J#
07$
#297
1m
#298
17$
#302
b101111010100110111001111100111111110100110011111111010011001111 \"
b11111 >#
1G#
1H#
#303
b1000100010001000000000000000000000000000000000 \"
b11111111 >#
0F#
0G#
0H#
#304
b11111 b
1k
b1011000011011001111111011101000011110100110100001111010011010000 n
b11111 P"
1Y"
1Z"
#305
b1000100010001000000000000000000000000000000000 "
b11111111 b
0k
b111 n
b1 P"
0X"
0Y"
0Z"
#306
b1111010011010101010011110000000000010001000100010000000000000000 "
#307
b1111010011010101111101001101010111110100110101011111010011010101 "
b1000100010001000000000000000000000000000000000 n
b11111111 P"
1X"
1F#
b11111 ,$
15$
#308
b1111010011010001010011110000000000010001000100010000000000000000 n
b1111010011010000010011110000000000010001000100010000000000000000 \"
b1000100010001000000000000000000000000000000000 J#
b11111111 ,$
05$
#309
0m
b1111010011010001111101001101000111110100110100011111010011010001 n
b1111010011010000111101001101000011110100110100001111010011010000 \"
b1111010110000000010011110000000000010001000100010000000000000000 J#
#310
b1111010110000000111101011000000011110101100000001111010110000000 J#
07$
#312
1m
#313
17$
#318
b11100010100110111101101101000111110100110100011111010011010001 n
b11111 P"
1Y"
1Z"
b1011000011011001111111011101000011110100110100001111010011010000 \"
b11111 >#
1G#
1H#
#319
b11111 b
1k
b111110 n
0X"
0Y"
0Z"
b1000100010001000000000000000000000000000000000 \"
b11111111 >#
0F#
0G#
0H#
#320
b1000100010001000000000000000000000000000000000 "
b11111111 b
0k
#321
b1111010011010110010011110000000000010001000100010000000000000000 "
1F#
#322
b1111010011010110111101001101011011110100110101101111010011010110 "
b1000100010001000000000000000000000000000000000 n
b11111111 P"
1X"
b1111010011010001010011110000000000010001000100010000000000000000 \"
b11111 ,$
15$
#323
b1111010011010010010011110000000000010001000100010000000000000000 n
b1111010011010001111101001101000111110100110100011111010011010001 \"
b1000100010001000000000000000000000000000000000 J#
b11111111 ,$
05$
#324
0m
b1111010011010010111101001101001011110100110100101111010011010010 n
b1111010110000001010011110000000000010001000100010000000000000000 J#
#325
b1111010110000001111101011000000111110101100000011111010110000001 J#
07$
#327
1m
#328
17$
#332
b11100010100110111101101101000111110100110100011111010011010001 \"
b11111 >#
1G#
1H#
#333
b1010000000100111111010111101001011110100110100101111010011010010 n
b11111 P"
1Y"
1Z"
b1000100010001000000000000000000000000000000000 \"
b11111111 >#
0F#
0G#
0H#
#334
b11111 b
1k
b1110100 n
b1 P"
0X"
0Y"
0Z"
#335
b1000100010001000000000000000000000000000000000 "
b11111111 b
0k
#336
b1111010011010111010011110000000000010001000100010000000000000000 "
b1000100010001000000000000000000000000000000000 n
b11111111 P"
1X"
1F#
#337
b1111010011010111111101001101011111110100110101111111010011010111 "
b1111010011010011010011110000000000010001000100010000000000000000 n
b1111010011010010010011110000000000010001000100010000000000000000 \"
b11111 ,$
15$
#338
b1111010011010011111101001101001111110100110100111111010011010011 n
b1111010011010010111101001101001011110100110100101111010011010010 \"
b1000100010001000000000000000000000000000000000 J#
b11111111 ,$
05$
#339
0m
b1111010110000010010011110000000000010001000100010000000000000000 J#
#340
b1111010110000010111101011000001011110101100000101111010110000010 J#
07$
#342
1m
#343
17$
#347
b10100001011000111000001101001111110100110100111111010011010011 n
b11111 P"
1Y"
1Z"
b1010000000100111111010111101001011110100110100101111010011010010 \"
b11111 >#
1G#
1H#
#348
b1001101 n
0X"
0Y"
0Z"
b1000100010001000000000000000000000000000000000 \"
b11111111 >#
0F#
0G#
0H#
#349
b11111 b
1k
#350
b1000100010001000000000000000000000000000000000 "
b11111111 b
0k
1F#
#351
b1111010011011000010011110000000000010001000100010000000000000000 "
b1000100010001000000000000000000000000000000000 n
b11111111 P"
1X"
b1111010011010011010011110000000000010001000100010000000000000000 \"
#352
b1111010011011000111101001101100011110100110110001111010011011000 "
b1111010011010100010011110000000000010001000100010000000000000000 n
b1111010011010011111101001101001111110100110100111111010011010011 \"
b11111 ,$
15$
#353
b1111010011010100111101001101010011110100110101001111010011010100 n
b1000100010001000000000000000000000000000000000 J#
b11111111 ,$
05$
#354
0m
b1111010110000011010011110000000000010001000100010000000000000000 J#
#355
b1111010110000011111101011000001111110101100000111111010110000011 J#
07$
#357
1m
#358
17$
#361
b10100001011000111000001101001111110100110100111111010011010011 \"
b11111 >#
1G#
1H#
#362
b1001000100100101110100011101010011110100110101001111010011010100 n
b11111 P"
1Y"
1Z"
b1000100010001000000000000000000000000000000000 \"
b11111111 >#
0F#
0G#
0H#
#363
b11100001 n
0X"
0Y"
0Z"
#364
b11111 b
1k
#365
b1000100010001000000000000000000000000000000000 "
b11111111 b
0k
1F#
#366
b1111010011011001010011110000000000010001000100010000000000000000 "
b1111010011010100010011110000000000010001000100010000000000000000 \"
#367
b1111010011011001111101001101100111110100110110011111010011011001 "
b1000100010001000000000000000000000000000000000 n
b11111111 P"
1X"
b1111010011010100111101001101010011110100110101001111010011010100 \"
b11111 ,$
15$
#368
b1111010011010101010011110000000000010001000100010000000000000000 n
b1000100010001000000000000000000000000000000000 J#
b11111111 ,$
05$
#369
0m
b1111010011010101111101001101010111110100110101011111010011010101 n
b1111010110000100010011110000000000010001000100010000000000000000 J#
#370
b1111010110000100111101011000010011110101100001001111010110000100 J#
07$
#372
1m
#373
17$
#376
b1001000100100101110100011101010011110100110101001111010011010100 \"
b11111 >#
1G#
1H#
#377
b1000100010001000000000000000000000000000000000 \"
b11111111 >#
0F#
0G#
0H#
#378
b1100101011010110110101101010111110100110101011111010011010101 n
b11111 P"
1Y"
1Z"
#379
b11111 b
1k
b11011000 n
0X"
0Y"
0Z"
#380
b1000100010001000000000000000000000000000000000 "
b11111111 b
0k
#381
b1111010011011010010011110000000000010001000100010000000000000000 "
1F#
#382
b1111010011011010111101001101101011110100110110101111010011011010 "
b1000100010001000000000000000000000000000000000 n
b11111111 P"
1X"
b1111010011010101010011110000000000010001000100010000000000000000 \"
b11111 ,$
15$
