kcu105_10gbaser_trd/hardware/vivado/runs/impl_run/.Xil/Vivado-11460-DESKTOP-I48MRRI/hw_ila_data_3/zip_work/waveform.vcd
$date
        2019-Oct-23 15:10:00
$end
$version
        Vivado v2017.3 (64-bit)
$end
$timescale
        1ps
$end
$scope module dut $end
$var reg 32 " tb_tg_config_ch0 [31:0] $end
$var reg 32 B tb_tg_config_ch1 [31:0] $end
$var reg 8 b xphy_status_ch0 [7:0] $end
$var reg 8 j xphy_status_ch1 [7:0] $end
$var reg 64 r s_axis_tx_0_tdata [63:0] $end
$var reg 64 T" m_axis_rx_0_tdata [63:0] $end
$var reg 1 6# reset_sys $end
$var reg 1 7# rx_statistics_valid_ch0 $end
$var reg 30 8# rx_statistics_vector_ch0 [29:0] $end
$var reg 1 V# tx_statistics_valid_ch0 $end
$var reg 26 W# tx_statistics_vector_ch0 [25:0] $end
$var reg 1 q# rx_statistics_valid_ch1 $end
$var reg 30 r# rx_statistics_vector_ch1 [29:0] $end
$var reg 1 2$ tx_statistics_valid_ch1 $end
$var reg 26 3$ tx_statistics_vector_ch1 [25:0] $end
$var reg 64 M$ s_axis_tx_1_tdata [63:0] $end
$var reg 64 /% m_axis_rx_1_tdata [63:0] $end
$var reg 1 o% _TRIGGER $end
$var reg 1 p% _WINDOW $end
$var reg 1 q% _GAP $end
$upscope $end
$enddefinitions $end
#0
$dumpvars
b100000000000000000000000001 "
b11111010000000000000010 B
b1 b
b1 j
b101010111010010010101011101001001010101110100100101010111010010 r
b101010111010011010101011101001101010101110100110101010111010011 T"
06#
07#
b100000000000000110011100010 8#
0V#
b1000000000000100000000001 W#
0q#
b100000000000000100111100010 r#
02$
b1000000000000100000000001 3$
b101010111010110010101011101011001010101110101100101010111010110 M$
b101010111001111010101011100111101010101110011110101010111001111 /%
0o%
1p%
0q%
$end
#1
b100000000000000110111100010 8#
b100000000000000101011100010 r#
#2
b100000000000000111011100010 8#
b100000000000000101111100010 r#
#3
b100000000000000111111100010 8#
b100000000000000110011100010 r#
#4
b100000000000001000011100010 8#
b1000000000000100100000001 W#
b100000000000000110111100010 r#
#5
b100000000000001000111100001 8#
b1000000000000101000000001 W#
b100000000000000111011100010 r#
b1000000000000100100000001 3$
#6
b10101000011100010100111010001110110100110101010111010011 T"
b11100000000001000111100001 8#
b1000000000000101100000001 W#
b100000000000000111111100010 r#
b1000000000000101000000001 3$
#7
b0 T"
17#
b1000111100001 8#
b1000000000000110000000001 W#
b100000000000001000011100010 r#
b1000000000000101100000001 3$
#8
07#
b11100001 8#
b1000000000000110100000001 W#
b100000000000001000111100001 r#
b1000000000000110000000001 3$
#9
b1000000000000111000000001 W#
b11100000000001000111100001 r#
b1000000000000110100000001 3$
b100011010001011111001111011010110011110101010111001111 /%
#10
b11101000100001110101110011000110110100100101010111010010 r
b1000100010001000000000000000000000000000000000 T"
b100000000000000000111100010 8#
b1000000000000111100000001 W#
1q#
b1000111100001 r#
b1000000000000111000000001 3$
b1000100010001000000000000000000000000000000000 M$
b101010101010101010101010000000000000000000000000000000000000000 /%
#11
b1100110011001100000000000000000000000000000000 r
b101010111010100011111010000000000010001000100010000000000000000 T"
b100000000000000001011100010 8#
b1000000000001000000000001 W#
0q#
b11100001 r#
b1000000000000111100000001 3$
b101010111010111011111010000000000010001000100010000000000000000 M$
#12
b101010111010011011111010000000000010001000100010000000000000000 r
b101010111010100010101011101010001010101110101000101010111010100 T"
b100000000000000001111100010 8#
b1000000000001000100000001 W#
b100000000000000000111100010 r#
b1000000000001000000000001 3$
b101010111010111010101011101011101010101110101110101010111010111 M$
b1100110011001100000000000000000000000000000000 /%
#13
b101010111010011010101011101001101010101110100110101010111010011 r
b100000000000000010011100010 8#
1V#
b111000000001000111100001 W#
b100000000000000001011100010 r#
b1000000000001000100000001 3$
b101010111010000011111010000000000010001000100010000000000000000 /%
#14
b100000000000000010111100010 8#
0V#
b1000111100001 W#
b100000000000000001111100010 r#
12$
b111000000001000111100001 3$
b101010111010000010101011101000001010101110100000101010111010000 /%
#15
b100000000000000011011100010 8#
b1 W#
b100000000000000010011100010 r#
02$
b1000111100001 3$
#16
b100000000000000011111100010 8#
b1000000000000100000000001 W#
b100000000000000010111100010 r#
#17
b100000000000000100011100010 8#
b100000000000000011011100010 r#
b1 3$
#18
b100000000000000100111100010 8#
b100000000000000011111100010 r#
b1000000000000100000000001 3$
#19
b100000000000000101011100010 8#
b100000000000000100011100010 r#
#20
b100000000000000101111100010 8#
b100000000000000100111100010 r#
#21
b100000000000000110011100010 8#
b100000000000000101011100010 r#
#22
b100000000000000110111100010 8#
b100000000000000101111100010 r#
#23
b100000000000000111011100010 8#
b100000000000000110011100010 r#
#24
b100000000000000111111100010 8#
b1000000000000100100000001 W#
b100000000000000110111100010 r#
#25
b100000000000001000011100010 8#
b1000000000000101000000001 W#
b100000000000000111011100010 r#
#26
b100000000000001000111100001 8#
b1000000000000101100000001 W#
b100000000000000111111100010 r#
b1000000000000100100000001 3$
#27
b10110001110000100011011100110111110101000101010111010100 T"
b11100000000001000111100001 8#
b1000000000000110000000001 W#
b100000000000001000011100010 r#
b1000000000000101000000001 3$
#28
b0 T"
17#
b1000111100001 8#
b1000000000000110100000001 W#
b100000000000001000111100001 r#
b1000000000000101100000001 3$
#29
07#
b11100001 8#
b1000000000000111000000001 W#
b11100000000001000111100001 r#
b1000000000000110000000001 3$
b10000100100100100010001111100110110100000101010111010000 /%
#30
b1000000000000111100000001 W#
1q#
b1000111100001 r#
b1000000000000110100000001 3$
b1000100010001000000000000000000000000000000000 M$
b0 /%
#31
b10101000011100010100111010001110110100110101010111010011 r
b1000100010001000000000000000000000000000000000 T"
b100000000000000000111100010 8#
b1000000000001000000000001 W#
0q#
b11100001 r#
b1000000000000111000000001 3$
b101010111011000011111010000000000010001000100010000000000000000 M$
#32
b1100110011001100000000000000000000000000000000 r
b101010111010101011111010000000000010001000100010000000000000000 T"
b100000000000000001011100010 8#
b1000000000001000100000001 W#
b1000000000000111100000001 3$
b101010111011000010101011101100001010101110110000101010111011000 M$
#33
b101010111010100011111010000000000010001000100010000000000000000 r
b101010111010101010101011101010101010101110101010101010111010101 T"
b100000000000000001111100010 8#
1V#
b111000000001000111100001 W#
b100000000000000000111100010 r#
b1000000000001000000000001 3$
b1100110011001100000000000000000000000000000000 /%
#34
b101010111010100010101011101010001010101110101000101010111010100 r
b100000000000000010011100010 8#
0V#
b1000111100001 W#
b100000000000000001011100010 r#
b1000000000001000100000001 3$
b101010111010001011111010000000000010001000100010000000000000000 /%
#35
b100000000000000010111100010 8#
b100000000000000001111100010 r#
12$
b111000000001000111100001 3$
b101010111010001010101011101000101010101110100010101010111010001 /%
#36
b100000000000000011011100010 8#
b1 W#
b100000000000000010011100010 r#
02$
b1000111100001 3$
#37
b100000000000000011111100010 8#
b1000000000000100000000001 W#
b100000000000000010111100010 r#
b1 3$
#38
b100000000000000100011100010 8#
b100000000000000011011100010 r#
b1000000000000100000000001 3$
#39
b100000000000000100111100010 8#
b100000000000000011111100010 r#
#40
b100000000000000101011100010 8#
b100000000000000100011100010 r#
#41
b100000000000000101111100010 8#
b100000000000000100111100010 r#
#42
b100000000000000110011100010 8#
b100000000000000101011100010 r#
#43
b100000000000000110111100010 8#
b100000000000000101111100010 r#
#44
b100000000000000111011100010 8#
b100000000000000110011100010 r#
#45
b100000000000000111111100010 8#
b1000000000000100100000001 W#
b100000000000000110111100010 r#
#46
b100000000000001000011100010 8#
b1000000000000101000000001 W#
b100000000000000111011100010 r#
b1000000000000100100000001 3$
#47
b100000000000001000111100001 8#
b1000000000000101100000001 W#
b100000000000000111111100010 r#
b1000000000000101000000001 3$
#48
b11110001001101000010010101111111110101010101010111010101 T"
b11100000000001000111100001 8#
b1000000000000110000000001 W#
b100000000000001000011100010 r#
b1000000000000101100000001 3$
#49
b101010101010101010101010000000000000000000000000000000000000000 T"
17#
b1000111100001 8#
b1000000000000110100000001 W#
b100000000000001000111100001 r#
b1000000000000110000000001 3$
#50
07#
b11100001 8#
b1000000000000111000000001 W#
b11100000000001000111100001 r#
b1000000000000110100000001 3$
b11000100011001000011000110101110110100010101010111010001 /%
#51
b10110001110000100011011100110111110101000101010111010100 r
b1000100010001000000000000000000000000000000000 T"
b100000000000000000111100010 8#
b1000000000000111100000001 W#
1q#
b1000111100001 r#
b1000000000000111000000001 3$
b1000100010001000000000000000000000000000000000 M$
b0 /%
#52
b1100110011001100000000000000000000000000000000 r
b101010111010110011111010000000000010001000100010000000000000000 T"
b100000000000000001011100010 8#
b1000000000001000000000001 W#
0q#
b11100001 r#
b1000000000000111100000001 3$
b101010111011001011111010000000000010001000100010000000000000000 M$
#53
b101010111010101011111010000000000010001000100010000000000000000 r
b101010111010110010101011101011001010101110101100101010111010110 T"
b100000000000000001111100010 8#
b1000000000001000100000001 W#
b1000000000001000000000001 3$
b101010111011001010101011101100101010101110110010101010111011001 M$
#54
b101010111010101010101011101010101010101110101010101010111010101 r
b100000000000000010011100010 8#
1V#
b111000000001000111100001 W#
b100000000000000000111100010 r#
b1000000000001000100000001 3$
b1100110011001100000000000000000000000000000000 /%
#55
b100000000000000010111100010 8#
0V#
b1000111100001 W#
b100000000000000001011100010 r#
12$
b111000000001000111100001 3$
b101010111010010011111010000000000010001000100010000000000000000 /%
#56
b100000000000000011011100010 8#
b1 W#
b100000000000000001111100010 r#
02$
b1000111100001 3$
b101010111010010010101011101001001010101110100100101010111010010 /%
#57
b100000000000000011111100010 8#
b1000000000000100000000001 W#
b100000000000000010011100010 r#
#58
b100000000000000100011100010 8#
b100000000000000010111100010 r#
b1 3$
#59
b100000000000000100111100010 8#
b100000000000000011011100010 r#
b1000000000000100000000001 3$
#60
b100000000000000101011100010 8#
b100000000000000011111100010 r#
#61
b100000000000000101111100010 8#
b100000000000000100011100010 r#
#62
b100000000000000110011100010 8#
b100000000000000100111100010 r#
#63
b100000000000000110111100010 8#
b100000000000000101011100010 r#
#64
b100000000000000111011100010 8#
b100000000000000101111100010 r#
#65
b100000000000000111111100010 8#
b1000000000000100100000001 W#
b100000000000000110011100010 r#
#66
b100000000000001000011100010 8#
b1000000000000101000000001 W#
b100000000000000110111100010 r#
#67
b100000000000001000111100001 8#
b1000000000000101100000001 W#
b100000000000000111011100010 r#
b1000000000000100100000001 3$
#68
b110000001011100001001110100111110101100101010111010110 T"
b11100000000001000111100001 8#
b1000000000000110000000001 W#
b100000000000000111111100010 r#
b1000000000000101000000001 3$
#69
b0 T"
17#
b1000111100001 8#
b1000000000000110100000001 W#
b100000000000001000011100010 r#
b1000000000000101100000001 3$
#70
07#
b11100001 8#
b1000000000000111000000001 W#
b100000000000001000111100001 r#
b1000000000000110000000001 3$
#71
b1000100010001000000000000000000000000000000000 T"
b100000000000000000111100010 8#
b1000000000000111100000001 W#
b11100000000001000111100001 r#
b1000000000000110100000001 3$
b1000100010001000000000000000000000000000000000 M$
b101011111100000011101110110110100100101010111010010 /%
#72
b11110001001101000010010101111111110101010101010111010101 r
b101010111010111011111010000000000010001000100010000000000000000 T"
b100000000000000001011100010 8#
b1000000000001000000000001 W#
1q#
b1000111100001 r#
b1000000000000111000000001 3$
b101010111011010011111010000000000010001000100010000000000000000 M$
b101010101010101010101010000000000000000000000000000000000000000 /%
#73
b1100110011001100000000000000000000000000000000 r
b101010111010111010101011101011101010101110101110101010111010111 T"
b100000000000000001111100010 8#
b1000000000001000100000001 W#
0q#
b11100001 r#
b1000000000000111100000001 3$
b101010111011010010101011101101001010101110110100101010111011010 M$
#74
b101010111010110011111010000000000010001000100010000000000000000 r
b100000000000000010011100010 8#
1V#
b111000000001000111100001 W#
b100000000000000000111100010 r#
b1000000000001000000000001 3$
b1100110011001100000000000000000000000000000000 /%
#75
b101010111010110010101011101011001010101110101100101010111010110 r
b100000000000000010111100010 8#
0V#
b1000111100001 W#
b100000000000000001011100010 r#
b1000000000001000100000001 3$
b101010111010011011111010000000000010001000100010000000000000000 /%
#76
b100000000000000011011100010 8#
b100000000000000001111100010 r#
12$
b111000000001000111100001 3$
b101010111010011010101011101001101010101110100110101010111010011 /%
#77
b100000000000000011111100010 8#
b1 W#
b100000000000000010011100010 r#
02$
b1000111100001 3$
#78
b100000000000000100011100010 8#
b1000000000000100000000001 W#
b100000000000000010111100010 r#
b1 3$
#79
b100000000000000100111100010 8#
b100000000000000011011100010 r#
b1000000000000100000000001 3$
#80
b100000000000000101011100010 8#
b100000000000000011111100010 r#
#81
b100000000000000101111100010 8#
b100000000000000100011100010 r#
#82
b100000000000000110011100010 8#
b100000000000000100111100010 r#
#83
b100000000000000110111100010 8#
b100000000000000101011100010 r#
#84
b100000000000000111011100010 8#
b100000000000000101111100010 r#
#85
b100000000000000111111100010 8#
b100000000000000110011100010 r#
#86
b100000000000001000011100010 8#
b1000000000000100100000001 W#
b100000000000000110111100010 r#
#87
b100000000000001000111100001 8#
b1000000000000101000000001 W#
b100000000000000111011100010 r#
b1000000000000100100000001 3$
#88
b1110000110110000000000111101111110101110101010111010111 T"
b11100000000001000111100001 8#
b1000000000000101100000001 W#
b100000000000000111111100010 r#
b1000000000000101000000001 3$
#89
b0 T"
17#
b1000111100001 8#
b1000000000000110000000001 W#
b100000000000001000011100010 r#
b1000000000000101100000001 3$
#90
07#
b11100001 8#
b1000000000000110100000001 W#
b100000000000001000111100001 r#
b1000000000000110000000001 3$
#91
b1000000000000111000000001 W#
b11100000000001000111100001 r#
b1000000000000110100000001 3$
b1000101100010000001010100111110110100110101010111010011 /%
#92
b110000001011100001001110100111110101100101010111010110 r
b1000100010001000000000000000000000000000000000 T"
b100000000000000000111100010 8#
b1000000000000111100000001 W#
1q#
b1000111100001 r#
b1000000000000111000000001 3$
b1000100010001000000000000000000000000000000000 M$
b0 /%
#93
b1100110011001100000000000000000000000000000000 r
b101010111011000011111010000000000010001000100010000000000000000 T"
b100000000000000001011100010 8#
b1000000000001000000000001 W#
0q#
b11100001 r#
b1000000000000111100000001 3$
b101010111011011011111010000000000010001000100010000000000000000 M$
#94
b101010111010111011111010000000000010001000100010000000000000000 r
b101010111011000010101011101100001010101110110000101010111011000 T"
b100000000000000001111100010 8#
b1000000000001000100000001 W#
b100000000000000000111100010 r#
b1000000000001000000000001 3$
b101010111011011010101011101101101010101110110110101010111011011 M$
b1100110011001100000000000000000000000000000000 /%
#95
b101010111010111010101011101011101010101110101110101010111010111 r
b100000000000000010011100010 8#
1V#
b111000000001000111100001 W#
b100000000000000001011100010 r#
b1000000000001000100000001 3$
b101010111010100011111010000000000010001000100010000000000000000 /%
#96
b100000000000000010111100010 8#
0V#
b1000111100001 W#
b100000000000000001111100010 r#
12$
b111000000001000111100001 3$
b101010111010100010101011101010001010101110101000101010111010100 /%
#97
b100000000000000011011100010 8#
b1 W#
b100000000000000010011100010 r#
02$
b1000111100001 3$
#98
b100000000000000011111100010 8#
b1000000000000100000000001 W#
b100000000000000010111100010 r#
#99
b100000000000000100011100010 8#
b100000000000000011011100010 r#
b1 3$
#100
b100000000000000100111100010 8#
b100000000000000011111100010 r#
b1000000000000100000000001 3$
#101
b100000000000000101011100010 8#
b100000000000000100011100010 r#
#102
b100000000000000101111100010 8#
b100000000000000100111100010 r#
#103
b100000000000000110011100010 8#
b100000000000000101011100010 r#
#104
b100000000000000110111100010 8#
b100000000000000101111100010 r#
#105
b100000000000000111011100010 8#
b100000000000000110011100010 r#
#106
b100000000000000111111100010 8#
b1000000000000100100000001 W#
b100000000000000110111100010 r#
#107
b100000000000001000011100010 8#
b1000000000000101000000001 W#
b100000000000000111011100010 r#
#108
b100000000000001000111100001 8#
b1000000000000101100000001 W#
b100000000000000111111100010 r#
b1000000000000100100000001 3$
#109
b11010010001110000011010101110110000101010111011000 T"
b11100000000001000111100001 8#
b1000000000000110000000001 W#
b100000000000001000011100010 r#
b1000000000000101000000001 3$
#110
b101010101010101010101010000000000000000000000000000000000000000 T"
17#
b1000111100001 8#
b1000000000000110100000001 W#
b100000000000001000111100001 r#
b1000000000000101100000001 3$
#111
07#
b11100001 8#
b1000000000000111000000001 W#
b11100000000001000111100001 r#
b1000000000000110000000001 3$
b1011100001110110110110010000111110101000101010111010100 /%
#112
b1000100010001000000000000000000000000000000000 T"
b100000000000000000111100010 8#
b1000000000000111100000001 W#
1q#
b1000111100001 r#
b1000000000000110100000001 3$
b1000100010001000000000000000000000000000000000 M$
b0 /%
#113
b1110000110110000000000111101111110101110101010111010111 r
b101010111011001011111010000000000010001000100010000000000000000 T"
b100000000000000001011100010 8#
b1000000000001000000000001 W#
0q#
b11100001 r#
b1000000000000111000000001 3$
b101010111011100011111010000000000010001000100010000000000000000 M$
#114
b1100110011001100000000000000000000000000000000 r
b101010111011001010101011101100101010101110110010101010111011001 T"
b100000000000000001111100010 8#
b1000000000001000100000001 W#
b1000000000000111100000001 3$
b101010111011100010101011101110001010101110111000101010111011100 M$
#115
b101010111011000011111010000000000010001000100010000000000000000 r
b100000000000000010011100010 8#
1V#
b111000000001000111100001 W#
b100000000000000000111100010 r#
b1000000000001000000000001 3$
b1100110011001100000000000000000000000000000000 /%
#116
b101010111011000010101011101100001010101110110000101010111011000 r
b100000000000000010111100010 8#
0V#
b1000111100001 W#
b100000000000000001011100010 r#
b1000000000001000100000001 3$
b101010111010101011111010000000000010001000100010000000000000000 /%
#117
b100000000000000011011100010 8#
b100000000000000001111100010 r#
12$
b111000000001000111100001 3$
b101010111010101010101011101010101010101110101010101010111010101 /%
#118
b100000000000000011111100010 8#
b1 W#
b100000000000000010011100010 r#
02$
b1000111100001 3$
#119
b100000000000000100011100010 8#
b1000000000000100000000001 W#
b100000000000000010111100010 r#
b1 3$
#120
b100000000000000100111100010 8#
b100000000000000011011100010 r#
b1000000000000100000000001 3$
#121
b100000000000000101011100010 8#
b100000000000000011111100010 r#
#122
b100000000000000101111100010 8#
b100000000000000100011100010 r#
#123
b100000000000000110011100010 8#
b100000000000000100111100010 r#
#124
b100000000000000110111100010 8#
b100000000000000101011100010 r#
#125
b100000000000000111011100010 8#
b100000000000000101111100010 r#
#126
b100000000000000111111100010 8#
b100000000000000110011100010 r#
#127
b100000000000001000011100010 8#
b1000000000000100100000001 W#
b100000000000000110111100010 r#
#128
b100000000000001000111100001 8#
b1000000000000101000000001 W#
b100000000000000111011100010 r#
b1000000000000100100000001 3$
#129
b1000011101111101111001010011101110110010101010111011001 T"
b11100000000001000111100001 8#
b1000000000000101100000001 W#
b100000000000000111111100010 r#
b1000000000000101000000001 3$
#130
b0 T"
17#
b1000111100001 8#
b1000000000000110000000001 W#
b100000000000001000011100010 r#
b1000000000000101100000001 3$
#131
07#
b11100001 8#
b1000000000000110100000001 W#
b100000000000001000111100001 r#
b1000000000000110000000001 3$
#132
b1000000000000111000000001 W#
b11100000000001000111100001 r#
b1000000000000110100000001 3$
b11100110011010111111011001111110101010101010111010101 /%
#133
b11010010001110000011010101110110000101010111011000 r
b1000100010001000000000000000000000000000000000 T"
b100000000000000000111100010 8#
b1000000000000111100000001 W#
1q#
b1000111100001 r#
b1000000000000111000000001 3$
b1000100010001000000000000000000000000000000000 M$
b101010101010101010101010000000000000000000000000000000000000000 /%
#134
b1100110011001100000000000000000000000000000000 r
b101010111011010011111010000000000010001000100010000000000000000 T"
b100000000000000001011100010 8#
b1000000000001000000000001 W#
0q#
b11100001 r#
b1000000000000111100000001 3$
b101010111011101011111010000000000010001000100010000000000000000 M$
#135
b101010111011001011111010000000000010001000100010000000000000000 r
b101010111011010010101011101101001010101110110100101010111011010 T"
b100000000000000001111100010 8#
b1000000000001000100000001 W#
b100000000000000000111100010 r#
b1000000000001000000000001 3$
b101010111011101010101011101110101010101110111010101010111011101 M$
b1100110011001100000000000000000000000000000000 /%
#136
b101010111011001010101011101100101010101110110010101010111011001 r
b100000000000000010011100010 8#
1V#
b111000000001000111100001 W#
b100000000000000001011100010 r#
b1000000000001000100000001 3$
b101010111010110011111010000000000010001000100010000000000000000 /%
#137
b100000000000000010111100010 8#
0V#
b1000111100001 W#
b100000000000000001111100010 r#
12$
b111000000001000111100001 3$
b101010111010110010101011101011001010101110101100101010111010110 /%
#138
b100000000000000011011100010 8#
b1 W#
b100000000000000010011100010 r#
02$
b1000111100001 3$
#139
b100000000000000011111100010 8#
b1000000000000100000000001 W#
b100000000000000010111100010 r#
#140
b100000000000000100011100010 8#
b100000000000000011011100010 r#
b1 3$
#141
b100000000000000100111100010 8#
b100000000000000011111100010 r#
b1000000000000100000000001 3$
#142
b100000000000000101011100010 8#
b100000000000000100011100010 r#
#143
b100000000000000101111100010 8#
b100000000000000100111100010 r#
#144
b100000000000000110011100010 8#
b100000000000000101011100010 r#
#145
b100000000000000110111100010 8#
b100000000000000101111100010 r#
#146
b100000000000000111011100010 8#
b100000000000000110011100010 r#
#147
b100000000000000111111100010 8#
b1000000000000100100000001 W#
b100000000000000110111100010 r#
#148
b100000000000001000011100010 8#
b1000000000000101000000001 W#
b100000000000000111011100010 r#
#149
b100000000000001000111100001 8#
b1000000000000101100000001 W#
b100000000000000111111100010 r#
b1000000000000100100000001 3$
#150
b10000010101001001100010001000101110110100101010111011010 T"
b11100000000001000111100001 8#
b1000000000000110000000001 W#
b100000000000001000011100010 r#
b1000000000000101000000001 3$
#151
b0 T"
17#
b1000111100001 8#
b1000000000000110100000001 W#
b100000000000001000111100001 r#
b1000000000000101100000001 3$
#152
07#
b11100001 8#
b1000000000000111000000001 W#
b11100000000001000111100001 r#
b1000000000000110000000001 3$
b11011101110101110100100000010111110101100101010111010110 /%
#153
b1000000000000111100000001 W#
1q#
b1000111100001 r#
b1000000000000110100000001 3$
b1000100010001000000000000000000000000000000000 M$
b0 /%
#154
b1000011101111101111001010011101110110010101010111011001 r
b1000100010001000000000000000000000000000000000 T"
b100000000000000000111100010 8#
b1000000000001000000000001 W#
0q#
b11100001 r#
b1000000000000111000000001 3$
b101010111011110011111010000000000010001000100010000000000000000 M$
#155
b1100110011001100000000000000000000000000000000 r
b101010111011011011111010000000000010001000100010000000000000000 T"
b100000000000000001011100010 8#
b1000000000001000100000001 W#
b1000000000000111100000001 3$
b101010111011110010101011101111001010101110111100101010111011110 M$
#156
b101010111011010011111010000000000010001000100010000000000000000 r
b101010111011011010101011101101101010101110110110101010111011011 T"
b100000000000000001111100010 8#
1V#
b111000000001000111100001 W#
b100000000000000000111100010 r#
b1000000000001000000000001 3$
b1100110011001100000000000000000000000000000000 /%
#157
b101010111011010010101011101101001010101110110100101010111011010 r
b100000000000000010011100010 8#
0V#
b1000111100001 W#
b100000000000000001011100010 r#
b1000000000001000100000001 3$
b101010111010111011111010000000000010001000100010000000000000000 /%
#158
b100000000000000010111100010 8#
b100000000000000001111100010 r#
12$
b111000000001000111100001 3$
b101010111010111010101011101011101010101110101110101010111010111 /%
#159
b100000000000000011011100010 8#
b1 W#
b100000000000000010011100010 r#
02$
b1000111100001 3$
#160
b100000000000000011111100010 8#
b1000000000000100000000001 W#
b100000000000000010111100010 r#
b1 3$
#161
b100000000000000100011100010 8#
b100000000000000011011100010 r#
b1000000000000100000000001 3$
#162
b100000000000000100111100010 8#
b100000000000000011111100010 r#
#163
b100000000000000101011100010 8#
b100000000000000100011100010 r#
#164
b100000000000000101111100010 8#
b100000000000000100111100010 r#
#165
b100000000000000110011100010 8#
b100000000000000101011100010 r#
#166
b100000000000000110111100010 8#
b100000000000000101111100010 r#
#167
b100000000000000111011100010 8#
b100000000000000110011100010 r#
#168
b100000000000000111111100010 8#
b1000000000000100100000001 W#
b100000000000000110111100010 r#
#169
b100000000000001000011100010 8#
b1000000000000101000000001 W#
b100000000000000111011100010 r#
b1000000000000100100000001 3$
#170
b100000000000001000111100001 8#
b1000000000000101100000001 W#
b100000000000000111111100010 r#
b1000000000000101000000001 3$
#171
b11000010010100101101011000001101110110110101010111011011 T"
b11100000000001000111100001 8#
b1000000000000110000000001 W#
b100000000000001000011100010 r#
b1000000000000101100000001 3$
#172
b101010101010101010101010000000000000000000000000000000000000000 T"
17#
b1000111100001 8#
b1000000000000110100000001 W#
b100000000000001000111100001 r#
b1000000000000110000000001 3$
#173
07#
b11100001 8#
b1000000000000111000000001 W#
b11100000000001000111100001 r#
b1000000000000110100000001 3$
b10011101001000010101101001011111110101110101010111010111 /%
#174
b10000010101001001100010001000101110110100101010111011010 r
b1000100010001000000000000000000000000000000000 T"
b100000000000000000111100010 8#
b1000000000000111100000001 W#
1q#
b1000111100001 r#
b1000000000000111000000001 3$
b1000100010001000000000000000000000000000000000 M$
b0 /%
#175
b1100110011001100000000000000000000000000000000 r
b101010111011100011111010000000000010001000100010000000000000000 T"
b100000000000000001011100010 8#
b1000000000001000000000001 W#
0q#
b11100001 r#
b1000000000000111100000001 3$
b101010111011111011111010000000000010001000100010000000000000000 M$
#176
b101010111011011011111010000000000010001000100010000000000000000 r
b101010111011100010101011101110001010101110111000101010111011100 T"
b100000000000000001111100010 8#
b1000000000001000100000001 W#
b1000000000001000000000001 3$
b101010111011111010101011101111101010101110111110101010111011111 M$
#177
b101010111011011010101011101101101010101110110110101010111011011 r
b100000000000000010011100010 8#
1V#
b111000000001000111100001 W#
b100000000000000000111100010 r#
b1000000000001000100000001 3$
b1100110011001100000000000000000000000000000000 /%
#178
b100000000000000010111100010 8#
0V#
b1000111100001 W#
b100000000000000001011100010 r#
12$
b111000000001000111100001 3$
b101010111011000011111010000000000010001000100010000000000000000 /%
#179
b100000000000000011011100010 8#
b1 W#
b100000000000000001111100010 r#
02$
b1000111100001 3$
b101010111011000010101011101100001010101110110000101010111011000 /%
#180
b100000000000000011111100010 8#
b1000000000000100000000001 W#
b100000000000000010011100010 r#
#181
b100000000000000100011100010 8#
b100000000000000010111100010 r#
b1 3$
#182
b100000000000000100111100010 8#
b100000000000000011011100010 r#
b1000000000000100000000001 3$
#183
b100000000000000101011100010 8#
b100000000000000011111100010 r#
#184
b100000000000000101111100010 8#
b100000000000000100011100010 r#
#185
b100000000000000110011100010 8#
b100000000000000100111100010 r#
#186
b100000000000000110111100010 8#
b100000000000000101011100010 r#
#187
b100000000000000111011100010 8#
b100000000000000101111100010 r#
#188
b100000000000000111111100010 8#
b1000000000000100100000001 W#
b100000000000000110011100010 r#
#189
b100000000000001000011100010 8#
b1000000000000101000000001 W#
b100000000000000110111100010 r#
#190
b100000000000001000111100001 8#
b1000000000000101100000001 W#
b100000000000000111011100010 r#
b1000000000000100100000001 3$
#191
b11011011111000011010111110110100110111000101010111011100 T"
b11100000000001000111100001 8#
b1000000000000110000000001 W#
b100000000000000111111100010 r#
b1000000000000101000000001 3$
#192
b0 T"
17#
b1000111100001 8#
b1000000000000110100000001 W#
b100000000000001000011100010 r#
b1000000000000101100000001 3$
#193
07#
b11100001 8#
b1000000000000111000000001 W#
b100000000000001000111100001 r#
b1000000000000110000000001 3$
#194
b1000100010001000000000000000000000000000000000 T"
b100000000000000000111100010 8#
b1000000000000111100000001 W#
b11100000000001000111100001 r#
b1000000000000110100000001 3$
b1000100010001000000000000000000000000000000000 M$
b11101110101100011011101101100101110110000101010111011000 /%
#195
b11000010010100101101011000001101110110110101010111011011 r
b101010111011101011111010000000000010001000100010000000000000000 T"
b100000000000000001011100010 8#
b1000000000001000000000001 W#
1q#
b1000111100001 r#
b1000000000000111000000001 3$
b101010111100000011111010000000000010001000100010000000000000000 M$
b101010101010101010101010000000000000000000000000000000000000000 /%
#196
b1100110011001100000000000000000000000000000000 r
b101010111011101010101011101110101010101110111010101010111011101 T"
b100000000000000001111100010 8#
b1000000000001000100000001 W#
0q#
b11100001 r#
b1000000000000111100000001 3$
b101010111100000010101011110000001010101111000000101010111100000 M$
#197
b101010111011100011111010000000000010001000100010000000000000000 r
b100000000000000010011100010 8#
1V#
b111000000001000111100001 W#
b100000000000000000111100010 r#
b1000000000001000000000001 3$
b1100110011001100000000000000000000000000000000 /%
#198
b101010111011100010101011101110001010101110111000101010111011100 r
b100000000000000010111100010 8#
0V#
b1000111100001 W#
b100000000000000001011100010 r#
b1000000000001000100000001 3$
b101010111011001011111010000000000010001000100010000000000000000 /%
#199
b100000000000000011011100010 8#
b100000000000000001111100010 r#
12$
b111000000001000111100001 3$
b101010111011001010101011101100101010101110110010101010111011001 /%
#200
b100000000000000011111100010 8#
b1 W#
b100000000000000010011100010 r#
02$
b1000111100001 3$
#201
b100000000000000100011100010 8#
b1000000000000100000000001 W#
b100000000000000010111100010 r#
b1 3$
#202
b100000000000000100111100010 8#
b100000000000000011011100010 r#
b1000000000000100000000001 3$
#203
b100000000000000101011100010 8#
b100000000000000011111100010 r#
#204
b100000000000000101111100010 8#
b100000000000000100011100010 r#
#205
b100000000000000110011100010 8#
b100000000000000100111100010 r#
#206
b100000000000000110111100010 8#
b100000000000000101011100010 r#
#207
b100000000000000111011100010 8#
b100000000000000101111100010 r#
#208
b100000000000000111111100010 8#
b100000000000000110011100010 r#
#209
b100000000000001000011100010 8#
b1000000000000100100000001 W#
b100000000000000110111100010 r#
#210
b100000000000001000111100001 8#
b1000000000000101000000001 W#
b100000000000000111011100010 r#
b1000000000000100100000001 3$
#211
b10011011000101111011110111111100110111010101010111011101 T"
b11100000000001000111100001 8#
b1000000000000101100000001 W#
b100000000000000111111100010 r#
b1000000000000101000000001 3$
#212
b0 T"
17#
b1000111100001 8#
b1000000000000110000000001 W#
b100000000000001000011100010 r#
b1000000000000101100000001 3$
#213
07#
b11100001 8#
b1000000000000110100000001 W#
b100000000000001000111100001 r#
b1000000000000110000000001 3$
#214
b1000000000000111000000001 W#
b11100000000001000111100001 r#
b1000000000000110100000001 3$
b10101110010001111010100100101101110110010101010111011001 /%
