kcu105_10gbaser_trd/hardware/vivado/runs/impl_run/.Xil/Vivado-31180-DESKTOP-4A374NS/hw_ila_data_2/zip_work/waveform.vcd
$date
        2019-Nov-14 20:09:18
$end
$version
        Vivado v2019.2 (64-bit)
$end
$timescale
        1ps
$end
$scope module dut $end
$var reg 64 " axi_stream_gen_mon_1/rx_axis_tdata [63:0] $end
$var reg 8 b axi_stream_gen_mon_1/rx_axis_tkeep [7:0] $end
$var reg 1 j axi_stream_gen_mon_1/rx_axis_tvalid $end
$var reg 1 k axi_stream_gen_mon_1/rx_axis_tlast $end
$var reg 1 l axi_stream_gen_mon_1/rx_axis_tuser $end
$var reg 1 m axi_stream_gen_mon_1/rx_axis_tready $end
$var reg 64 n axi_stream_gen_mon_1/tx_axis_tdata [63:0] $end
$var reg 8 P" axi_stream_gen_mon_1/tx_axis_tkeep [7:0] $end
$var reg 1 X" axi_stream_gen_mon_1/tx_axis_tvalid $end
$var reg 1 Y" axi_stream_gen_mon_1/tx_axis_tlast $end
$var reg 1 Z" axi_stream_gen_mon_1/tx_axis_tuser $end
$var reg 1 [" axi_stream_gen_mon_1/tx_axis_tready_1 $end
$var reg 64 \" axi_stream_gen_mon_1/tx_axis_tdata_lb [63:0] $end
$var reg 8 ># axi_stream_gen_mon_1/tx_axis_tkeep_lb [7:0] $end
$var reg 1 F# axi_stream_gen_mon_1/tx_axis_tvalid_lb $end
$var reg 1 G# axi_stream_gen_mon_1/tx_axis_tlast_lb $end
$var reg 1 H# axi_stream_gen_mon_1/tx_axis_tuser_lb $end
$var reg 1 I# axi_stream_gen_mon_1/rx_axis_tready_lb $end
$var reg 64 J# axi_stream_gen_mon_1/tx_axis_tdata_g [63:0] $end
$var reg 8 ,$ axi_stream_gen_mon_1/tx_axis_tkeep_g [7:0] $end
$var reg 1 4$ axi_stream_gen_mon_1/tx_axis_tvalid_g $end
$var reg 1 5$ axi_stream_gen_mon_1/tx_axis_tlast_g $end
$var reg 1 6$ axi_stream_gen_mon_1/tx_axis_tuser_g $end
$var reg 1 7$ axi_stream_gen_mon_1/tx_axis_tready $end
$var reg 1 8$ _TRIGGER $end
$var reg 1 9$ _WINDOW $end
$var reg 1 :$ _GAP $end
$upscope $end
$enddefinitions $end
#0
$dumpvars
b0 "
b1 b
0j
0k
0l
1m
b1000001100100110100000110010011010000011001001101000001100100110 n
b11111111 P"
1X"
0Y"
0Z"
0["
b1100110011001100000000000000000000000000000000 \"
b1111 >#
0F#
1G#
0H#
1I#
b1000001100100110100000110010011010000011001001101000001100100110 J#
b11111111 ,$
14$
05$
06$
07$
08$
19$
0:$
$end
#1
1["
17$
#14
b111 P"
1Y"
b111 ,$
15$
#15
b1000100010001000000000000000000000000000000000 n
b11111111 P"
0Y"
b1000100010001000000000000000000000000000000000 J#
b11111111 ,$
05$
#16
b1000001100100111011111010000000000010001000100010000000000000000 n
b1000001100100111011111010000000000010001000100010000000000000000 J#
#17
b1000001100100111100000110010011110000011001001111000001100100111 n
b1000001100100111100000110010011110000011001001111000001100100111 J#
#19
0["
07$
#21
1["
17$
#34
b111 P"
1Y"
b111 ,$
15$
#35
b1000100010001000000000000000000000000000000000 n
b11111111 P"
0Y"
b1000100010001000000000000000000000000000000000 J#
b11111111 ,$
05$
#36
b1000001100101000011111010000000000010001000100010000000000000000 n
b1000001100101000011111010000000000010001000100010000000000000000 J#
#37
b1000001100101000100000110010100010000011001010001000001100101000 n
b1000001100101000100000110010100010000011001010001000001100101000 J#
#39
0["
07$
#42
1["
17$
#55
b111 P"
1Y"
b111 ,$
15$
#56
b1000100010001000000000000000000000000000000000 n
b11111111 P"
0Y"
b1000100010001000000000000000000000000000000000 J#
b11111111 ,$
05$
#57
b1000001100101001011111010000000000010001000100010000000000000000 n
b1000001100101001011111010000000000010001000100010000000000000000 J#
#58
b1000001100101001100000110010100110000011001010011000001100101001 n
b1000001100101001100000110010100110000011001010011000001100101001 J#
#60
0["
07$
#62
1["
17$
#75
b111 P"
1Y"
b111 ,$
15$
#76
b1000100010001000000000000000000000000000000000 n
b11111111 P"
0Y"
b1000100010001000000000000000000000000000000000 J#
b11111111 ,$
05$
#77
b1000001100101010011111010000000000010001000100010000000000000000 n
b1000001100101010011111010000000000010001000100010000000000000000 J#
#78
b1000001100101010100000110010101010000011001010101000001100101010 n
b1000001100101010100000110010101010000011001010101000001100101010 J#
#80
0["
07$
#83
1["
17$
#96
b111 P"
1Y"
b111 ,$
15$
#97
b1000100010001000000000000000000000000000000000 n
b11111111 P"
0Y"
b1000100010001000000000000000000000000000000000 J#
b11111111 ,$
05$
#98
b1000001100101011011111010000000000010001000100010000000000000000 n
b1000001100101011011111010000000000010001000100010000000000000000 J#
#99
b1000001100101011100000110010101110000011001010111000001100101011 n
b1000001100101011100000110010101110000011001010111000001100101011 J#
#101
0["
07$
#103
1["
17$
#116
b111 P"
1Y"
b111 ,$
15$
#117
b1000100010001000000000000000000000000000000000 n
b11111111 P"
0Y"
b1000100010001000000000000000000000000000000000 J#
b11111111 ,$
05$
#118
b1000001100101100011111010000000000010001000100010000000000000000 n
b1000001100101100011111010000000000010001000100010000000000000000 J#
#119
b1000001100101100100000110010110010000011001011001000001100101100 n
b1000001100101100100000110010110010000011001011001000001100101100 J#
#121
0["
07$
#124
1["
17$
#137
b111 P"
1Y"
b111 ,$
15$
#138
b1000100010001000000000000000000000000000000000 n
b11111111 P"
0Y"
b1000100010001000000000000000000000000000000000 J#
b11111111 ,$
05$
#139
b1000001100101101011111010000000000010001000100010000000000000000 n
b1000001100101101011111010000000000010001000100010000000000000000 J#
#140
b1000001100101101100000110010110110000011001011011000001100101101 n
b1000001100101101100000110010110110000011001011011000001100101101 J#
#142
0["
07$
#144
1["
17$
#157
b111 P"
1Y"
b111 ,$
15$
#158
b1000100010001000000000000000000000000000000000 n
b11111111 P"
0Y"
b1000100010001000000000000000000000000000000000 J#
b11111111 ,$
05$
#159
b1000001100101110011111010000000000010001000100010000000000000000 n
b1000001100101110011111010000000000010001000100010000000000000000 J#
#160
b1000001100101110100000110010111010000011001011101000001100101110 n
b1000001100101110100000110010111010000011001011101000001100101110 J#
#162
0["
07$
#165
1["
17$
#178
b111 P"
1Y"
b111 ,$
15$
#179
b1000100010001000000000000000000000000000000000 n
b11111111 P"
0Y"
b1000100010001000000000000000000000000000000000 J#
b11111111 ,$
05$
#180
b1000001100101111011111010000000000010001000100010000000000000000 n
b1000001100101111011111010000000000010001000100010000000000000000 J#
#181
b1000001100101111100000110010111110000011001011111000001100101111 n
b1000001100101111100000110010111110000011001011111000001100101111 J#
#183
0["
07$
#185
1["
17$
#198
b111 P"
1Y"
b111 ,$
15$
#199
b1000100010001000000000000000000000000000000000 n
b11111111 P"
0Y"
b1000100010001000000000000000000000000000000000 J#
b11111111 ,$
05$
#200
b1000001100110000011111010000000000010001000100010000000000000000 n
b1000001100110000011111010000000000010001000100010000000000000000 J#
#201
b1000001100110000100000110011000010000011001100001000001100110000 n
b1000001100110000100000110011000010000011001100001000001100110000 J#
#203
0["
07$
#206
1["
17$
#219
b111 P"
1Y"
b111 ,$
15$
#220
b1000100010001000000000000000000000000000000000 n
b11111111 P"
0Y"
b1000100010001000000000000000000000000000000000 J#
b11111111 ,$
05$
#221
b1000001100110001011111010000000000010001000100010000000000000000 n
b1000001100110001011111010000000000010001000100010000000000000000 J#
#222
b1000001100110001100000110011000110000011001100011000001100110001 n
b1000001100110001100000110011000110000011001100011000001100110001 J#
#224
0["
07$
#226
1["
17$
#239
b111 P"
1Y"
b111 ,$
15$
#240
b1000100010001000000000000000000000000000000000 n
b11111111 P"
0Y"
b1000100010001000000000000000000000000000000000 J#
b11111111 ,$
05$
#241
b1000001100110010011111010000000000010001000100010000000000000000 n
b1000001100110010011111010000000000010001000100010000000000000000 J#
#242
b1000001100110010100000110011001010000011001100101000001100110010 n
b1000001100110010100000110011001010000011001100101000001100110010 J#
#244
0["
07$
#247
1["
17$
#260
b111 P"
1Y"
b111 ,$
15$
#261
b1000100010001000000000000000000000000000000000 n
b11111111 P"
0Y"
b1000100010001000000000000000000000000000000000 J#
b11111111 ,$
05$
#262
b1000001100110011011111010000000000010001000100010000000000000000 n
b1000001100110011011111010000000000010001000100010000000000000000 J#
#263
b1000001100110011100000110011001110000011001100111000001100110011 n
b1000001100110011100000110011001110000011001100111000001100110011 J#
#265
0["
07$
#267
1["
17$
#280
b111 P"
1Y"
b111 ,$
15$
#281
b1000100010001000000000000000000000000000000000 n
b11111111 P"
0Y"
b1000100010001000000000000000000000000000000000 J#
b11111111 ,$
05$
#282
b1000001100110100011111010000000000010001000100010000000000000000 n
b1000001100110100011111010000000000010001000100010000000000000000 J#
#283
b1000001100110100100000110011010010000011001101001000001100110100 n
b1000001100110100100000110011010010000011001101001000001100110100 J#
#285
0["
07$
#288
1["
17$
#301
b111 P"
1Y"
b111 ,$
15$
#302
b1000100010001000000000000000000000000000000000 n
b11111111 P"
0Y"
b1000100010001000000000000000000000000000000000 J#
b11111111 ,$
05$
#303
b1000001100110101011111010000000000010001000100010000000000000000 n
b1000001100110101011111010000000000010001000100010000000000000000 J#
#304
b1000001100110101100000110011010110000011001101011000001100110101 n
b1000001100110101100000110011010110000011001101011000001100110101 J#
#306
0["
07$
#308
1["
17$
#321
b111 P"
1Y"
b111 ,$
15$
#322
b1000100010001000000000000000000000000000000000 n
b11111111 P"
0Y"
b1000100010001000000000000000000000000000000000 J#
b11111111 ,$
05$
#323
b1000001100110110011111010000000000010001000100010000000000000000 n
b1000001100110110011111010000000000010001000100010000000000000000 J#
#324
b1000001100110110100000110011011010000011001101101000001100110110 n
b1000001100110110100000110011011010000011001101101000001100110110 J#
#326
0["
07$
#329
1["
17$
#342
b111 P"
1Y"
b111 ,$
15$
#343
b1000100010001000000000000000000000000000000000 n
b11111111 P"
0Y"
b1000100010001000000000000000000000000000000000 J#
b11111111 ,$
05$
#344
b1000001100110111011111010000000000010001000100010000000000000000 n
b1000001100110111011111010000000000010001000100010000000000000000 J#
#345
b1000001100110111100000110011011110000011001101111000001100110111 n
b1000001100110111100000110011011110000011001101111000001100110111 J#
#347
0["
07$
#349
1["
17$
#362
b111 P"
1Y"
b111 ,$
15$
#363
b1000100010001000000000000000000000000000000000 n
b11111111 P"
0Y"
b1000100010001000000000000000000000000000000000 J#
b11111111 ,$
05$
#364
b1000001100111000011111010000000000010001000100010000000000000000 n
b1000001100111000011111010000000000010001000100010000000000000000 J#
#365
b1000001100111000100000110011100010000011001110001000001100111000 n
b1000001100111000100000110011100010000011001110001000001100111000 J#
#367
0["
07$
#370
1["
17$
#383
b111 P"
1Y"
b111 ,$
15$
#384
b1000100010001000000000000000000000000000000000 n
b11111111 P"
0Y"
b1000100010001000000000000000000000000000000000 J#
b11111111 ,$
05$
#385
b1000001100111001011111010000000000010001000100010000000000000000 n
b1000001100111001011111010000000000010001000100010000000000000000 J#
#386
b1000001100111001100000110011100110000011001110011000001100111001 n
b1000001100111001100000110011100110000011001110011000001100111001 J#
#388
0["
07$
#390
1["
17$
#403
b111 P"
1Y"
b111 ,$
15$
#404
b1000100010001000000000000000000000000000000000 n
b11111111 P"
0Y"
b1000100010001000000000000000000000000000000000 J#
b11111111 ,$
05$
#405
b1000001100111010011111010000000000010001000100010000000000000000 n
b1000001100111010011111010000000000010001000100010000000000000000 J#
#406
b1000001100111010100000110011101010000011001110101000001100111010 n
b1000001100111010100000110011101010000011001110101000001100111010 J#
#408
0["
07$
#411
1["
17$
#424
b111 P"
1Y"
b111 ,$
15$
#425
b1000100010001000000000000000000000000000000000 n
b11111111 P"
0Y"
b1000100010001000000000000000000000000000000000 J#
b11111111 ,$
05$
#426
b1000001100111011011111010000000000010001000100010000000000000000 n
b1000001100111011011111010000000000010001000100010000000000000000 J#
#427
b1000001100111011100000110011101110000011001110111000001100111011 n
b1000001100111011100000110011101110000011001110111000001100111011 J#
#429
0["
07$
#431
1["
17$
#444
b111 P"
1Y"
b111 ,$
15$
#445
b1000100010001000000000000000000000000000000000 n
b11111111 P"
0Y"
b1000100010001000000000000000000000000000000000 J#
b11111111 ,$
05$
#446
b1000001100111100011111010000000000010001000100010000000000000000 n
b1000001100111100011111010000000000010001000100010000000000000000 J#
#447
b1000001100111100100000110011110010000011001111001000001100111100 n
b1000001100111100100000110011110010000011001111001000001100111100 J#
#449
0["
07$
#452
1["
17$
#465
b111 P"
1Y"
b111 ,$
15$
#466
b1000100010001000000000000000000000000000000000 n
b11111111 P"
0Y"
b1000100010001000000000000000000000000000000000 J#
b11111111 ,$
05$
#467
b1000001100111101011111010000000000010001000100010000000000000000 n
b1000001100111101011111010000000000010001000100010000000000000000 J#
#468
b1000001100111101100000110011110110000011001111011000001100111101 n
b1000001100111101100000110011110110000011001111011000001100111101 J#
#470
0["
07$
#472
1["
17$
#485
b111 P"
1Y"
b111 ,$
15$
#486
b1000100010001000000000000000000000000000000000 n
b11111111 P"
0Y"
b1000100010001000000000000000000000000000000000 J#
b11111111 ,$
05$
#487
b1000001100111110011111010000000000010001000100010000000000000000 n
b1000001100111110011111010000000000010001000100010000000000000000 J#
#488
b1000001100111110100000110011111010000011001111101000001100111110 n
b1000001100111110100000110011111010000011001111101000001100111110 J#
#490
0["
07$
#493
1["
17$
#506
b111 P"
1Y"
b111 ,$
15$
#507
b1000100010001000000000000000000000000000000000 n
b11111111 P"
0Y"
b1000100010001000000000000000000000000000000000 J#
b11111111 ,$
05$
#508
b1000001100111111011111010000000000010001000100010000000000000000 n
b1000001100111111011111010000000000010001000100010000000000000000 J#
#509
b1000001100111111100000110011111110000011001111111000001100111111 n
b1000001100111111100000110011111110000011001111111000001100111111 J#
#511
0["
07$
#513
1["
17$
#526
b111 P"
1Y"
b111 ,$
15$
#527
b1000100010001000000000000000000000000000000000 n
b11111111 P"
0Y"
b1000100010001000000000000000000000000000000000 J#
b11111111 ,$
05$
#528
b1000001101000000011111010000000000010001000100010000000000000000 n
b1000001101000000011111010000000000010001000100010000000000000000 J#
#529
b1000001101000000100000110100000010000011010000001000001101000000 n
b1000001101000000100000110100000010000011010000001000001101000000 J#
#531
0["
07$
#534
1["
17$
#547
b111 P"
1Y"
b111 ,$
15$
#548
b1000100010001000000000000000000000000000000000 n
b11111111 P"
0Y"
b1000100010001000000000000000000000000000000000 J#
b11111111 ,$
05$
#549
b1000001101000001011111010000000000010001000100010000000000000000 n
b1000001101000001011111010000000000010001000100010000000000000000 J#
#550
b1000001101000001100000110100000110000011010000011000001101000001 n
b1000001101000001100000110100000110000011010000011000001101000001 J#
#552
0["
07$
#554
1["
17$
#567
b111 P"
1Y"
b111 ,$
15$
#568
b1000100010001000000000000000000000000000000000 n
b11111111 P"
0Y"
b1000100010001000000000000000000000000000000000 J#
b11111111 ,$
05$
#569
b1000001101000010011111010000000000010001000100010000000000000000 n
b1000001101000010011111010000000000010001000100010000000000000000 J#
#570
b1000001101000010100000110100001010000011010000101000001101000010 n
b1000001101000010100000110100001010000011010000101000001101000010 J#
#572
0["
07$
#575
1["
17$
#588
b111 P"
1Y"
b111 ,$
15$
#589
b1000100010001000000000000000000000000000000000 n
b11111111 P"
0Y"
b1000100010001000000000000000000000000000000000 J#
b11111111 ,$
05$
#590
b1000001101000011011111010000000000010001000100010000000000000000 n
b1000001101000011011111010000000000010001000100010000000000000000 J#
#591
b1000001101000011100000110100001110000011010000111000001101000011 n
b1000001101000011100000110100001110000011010000111000001101000011 J#
#593
0["
07$
#595
1["
17$
#608
b111 P"
1Y"
b111 ,$
15$
#609
b1000100010001000000000000000000000000000000000 n
b11111111 P"
0Y"
b1000100010001000000000000000000000000000000000 J#
b11111111 ,$
05$
#610
b1000001101000100011111010000000000010001000100010000000000000000 n
b1000001101000100011111010000000000010001000100010000000000000000 J#
#611
b1000001101000100100000110100010010000011010001001000001101000100 n
b1000001101000100100000110100010010000011010001001000001101000100 J#
#613
0["
07$
#616
1["
17$
#629
b111 P"
1Y"
b111 ,$
15$
#630
b1000100010001000000000000000000000000000000000 n
b11111111 P"
0Y"
b1000100010001000000000000000000000000000000000 J#
b11111111 ,$
05$
#631
b1000001101000101011111010000000000010001000100010000000000000000 n
b1000001101000101011111010000000000010001000100010000000000000000 J#
#632
b1000001101000101100000110100010110000011010001011000001101000101 n
b1000001101000101100000110100010110000011010001011000001101000101 J#
#634
0["
07$
#636
1["
17$
#649
b111 P"
1Y"
b111 ,$
15$
#650
b1000100010001000000000000000000000000000000000 n
b11111111 P"
0Y"
b1000100010001000000000000000000000000000000000 J#
b11111111 ,$
05$
#651
b1000001101000110011111010000000000010001000100010000000000000000 n
b1000001101000110011111010000000000010001000100010000000000000000 J#
#652
b1000001101000110100000110100011010000011010001101000001101000110 n
b1000001101000110100000110100011010000011010001101000001101000110 J#
#654
0["
07$
#657
1["
17$
#670
b111 P"
1Y"
b111 ,$
15$
#671
b1000100010001000000000000000000000000000000000 n
b11111111 P"
0Y"
b1000100010001000000000000000000000000000000000 J#
b11111111 ,$
05$
#672
b1000001101000111011111010000000000010001000100010000000000000000 n
b1000001101000111011111010000000000010001000100010000000000000000 J#
#673
b1000001101000111100000110100011110000011010001111000001101000111 n
b1000001101000111100000110100011110000011010001111000001101000111 J#
#675
0["
07$
#677
1["
17$
#690
b111 P"
1Y"
b111 ,$
15$
#691
b1000100010001000000000000000000000000000000000 n
b11111111 P"
0Y"
b1000100010001000000000000000000000000000000000 J#
b11111111 ,$
05$
#692
b1000001101001000011111010000000000010001000100010000000000000000 n
b1000001101001000011111010000000000010001000100010000000000000000 J#
#693
b1000001101001000100000110100100010000011010010001000001101001000 n
b1000001101001000100000110100100010000011010010001000001101001000 J#
#695
0["
07$
#698
1["
17$
#711
b111 P"
1Y"
b111 ,$
15$
#712
b1000100010001000000000000000000000000000000000 n
b11111111 P"
0Y"
b1000100010001000000000000000000000000000000000 J#
b11111111 ,$
05$
#713
b1000001101001001011111010000000000010001000100010000000000000000 n
b1000001101001001011111010000000000010001000100010000000000000000 J#
#714
b1000001101001001100000110100100110000011010010011000001101001001 n
b1000001101001001100000110100100110000011010010011000001101001001 J#
#716
0["
07$
#718
1["
17$
#731
b111 P"
1Y"
b111 ,$
15$
#732
b1000100010001000000000000000000000000000000000 n
b11111111 P"
0Y"
b1000100010001000000000000000000000000000000000 J#
b11111111 ,$
05$
#733
b1000001101001010011111010000000000010001000100010000000000000000 n
b1000001101001010011111010000000000010001000100010000000000000000 J#
#734
b1000001101001010100000110100101010000011010010101000001101001010 n
b1000001101001010100000110100101010000011010010101000001101001010 J#
#736
0["
07$
#739
1["
17$
#752
b111 P"
1Y"
b111 ,$
15$
#753
b1000100010001000000000000000000000000000000000 n
b11111111 P"
0Y"
b1000100010001000000000000000000000000000000000 J#
b11111111 ,$
05$
#754
b1000001101001011011111010000000000010001000100010000000000000000 n
b1000001101001011011111010000000000010001000100010000000000000000 J#
#755
b1000001101001011100000110100101110000011010010111000001101001011 n
b1000001101001011100000110100101110000011010010111000001101001011 J#
#757
0["
07$
#759
1["
17$
#772
b111 P"
1Y"
b111 ,$
15$
#773
b1000100010001000000000000000000000000000000000 n
b11111111 P"
0Y"
b1000100010001000000000000000000000000000000000 J#
b11111111 ,$
05$
#774
b1000001101001100011111010000000000010001000100010000000000000000 n
b1000001101001100011111010000000000010001000100010000000000000000 J#
#775
b1000001101001100100000110100110010000011010011001000001101001100 n
b1000001101001100100000110100110010000011010011001000001101001100 J#
#777
0["
07$
#780
1["
17$
#793
b111 P"
1Y"
b111 ,$
15$
#794
b1000100010001000000000000000000000000000000000 n
b11111111 P"
0Y"
b1000100010001000000000000000000000000000000000 J#
b11111111 ,$
05$
#795
b1000001101001101011111010000000000010001000100010000000000000000 n
b1000001101001101011111010000000000010001000100010000000000000000 J#
#796
b1000001101001101100000110100110110000011010011011000001101001101 n
b1000001101001101100000110100110110000011010011011000001101001101 J#
#798
0["
07$
#800
1["
17$
#813
b111 P"
1Y"
b111 ,$
15$
#814
b1000100010001000000000000000000000000000000000 n
b11111111 P"
0Y"
b1000100010001000000000000000000000000000000000 J#
b11111111 ,$
05$
#815
b1000001101001110011111010000000000010001000100010000000000000000 n
b1000001101001110011111010000000000010001000100010000000000000000 J#
#816
b1000001101001110100000110100111010000011010011101000001101001110 n
b1000001101001110100000110100111010000011010011101000001101001110 J#
#818
0["
07$
#821
1["
17$
#834
b111 P"
1Y"
b111 ,$
15$
#835
b1000100010001000000000000000000000000000000000 n
b11111111 P"
0Y"
b1000100010001000000000000000000000000000000000 J#
b11111111 ,$
05$
#836
b1000001101001111011111010000000000010001000100010000000000000000 n
b1000001101001111011111010000000000010001000100010000000000000000 J#
#837
b1000001101001111100000110100111110000011010011111000001101001111 n
b1000001101001111100000110100111110000011010011111000001101001111 J#
#839
0["
07$
#841
1["
17$
#854
b111 P"
1Y"
b111 ,$
15$
#855
b1000100010001000000000000000000000000000000000 n
b11111111 P"
0Y"
b1000100010001000000000000000000000000000000000 J#
b11111111 ,$
05$
#856
b1000001101010000011111010000000000010001000100010000000000000000 n
b1000001101010000011111010000000000010001000100010000000000000000 J#
#857
b1000001101010000100000110101000010000011010100001000001101010000 n
b1000001101010000100000110101000010000011010100001000001101010000 J#
#859
0["
07$
#862
1["
17$
#875
b111 P"
1Y"
b111 ,$
15$
#876
b1000100010001000000000000000000000000000000000 n
b11111111 P"
0Y"
b1000100010001000000000000000000000000000000000 J#
b11111111 ,$
05$
#877
b1000001101010001011111010000000000010001000100010000000000000000 n
b1000001101010001011111010000000000010001000100010000000000000000 J#
#878
b1000001101010001100000110101000110000011010100011000001101010001 n
b1000001101010001100000110101000110000011010100011000001101010001 J#
#880
0["
07$
#882
1["
17$
#895
b111 P"
1Y"
b111 ,$
15$
#896
b1000100010001000000000000000000000000000000000 n
b11111111 P"
0Y"
b1000100010001000000000000000000000000000000000 J#
b11111111 ,$
05$
#897
b1000001101010010011111010000000000010001000100010000000000000000 n
b1000001101010010011111010000000000010001000100010000000000000000 J#
#898
b1000001101010010100000110101001010000011010100101000001101010010 n
b1000001101010010100000110101001010000011010100101000001101010010 J#
#900
0["
07$
#903
1["
17$
#916
b111 P"
1Y"
b111 ,$
15$
#917
b1000100010001000000000000000000000000000000000 n
b11111111 P"
0Y"
b1000100010001000000000000000000000000000000000 J#
b11111111 ,$
05$
#918
b1000001101010011011111010000000000010001000100010000000000000000 n
b1000001101010011011111010000000000010001000100010000000000000000 J#
#919
b1000001101010011100000110101001110000011010100111000001101010011 n
b1000001101010011100000110101001110000011010100111000001101010011 J#
#921
0["
07$
#923
1["
17$
#936
b111 P"
1Y"
b111 ,$
15$
#937
b1000100010001000000000000000000000000000000000 n
b11111111 P"
0Y"
b1000100010001000000000000000000000000000000000 J#
b11111111 ,$
05$
#938
b1000001101010100011111010000000000010001000100010000000000000000 n
b1000001101010100011111010000000000010001000100010000000000000000 J#
#939
b1000001101010100100000110101010010000011010101001000001101010100 n
b1000001101010100100000110101010010000011010101001000001101010100 J#
#941
0["
07$
#944
1["
17$
#957
b111 P"
1Y"
b111 ,$
15$
#958
b1000100010001000000000000000000000000000000000 n
b11111111 P"
0Y"
b1000100010001000000000000000000000000000000000 J#
b11111111 ,$
05$
#959
b1000001101010101011111010000000000010001000100010000000000000000 n
b1000001101010101011111010000000000010001000100010000000000000000 J#
#960
b1000001101010101100000110101010110000011010101011000001101010101 n
b1000001101010101100000110101010110000011010101011000001101010101 J#
#962
0["
07$
#964
1["
17$
#977
b111 P"
1Y"
b111 ,$
15$
#978
b1000100010001000000000000000000000000000000000 n
b11111111 P"
0Y"
b1000100010001000000000000000000000000000000000 J#
b11111111 ,$
05$
#979
b1000001101010110011111010000000000010001000100010000000000000000 n
b1000001101010110011111010000000000010001000100010000000000000000 J#
#980
b1000001101010110100000110101011010000011010101101000001101010110 n
b1000001101010110100000110101011010000011010101101000001101010110 J#
#982
0["
07$
#985
1["
17$
#998
b111 P"
1Y"
b111 ,$
15$
#999
b1000100010001000000000000000000000000000000000 n
b11111111 P"
0Y"
b1000100010001000000000000000000000000000000000 J#
b11111111 ,$
05$
#1000
b1000001101010111011111010000000000010001000100010000000000000000 n
b1000001101010111011111010000000000010001000100010000000000000000 J#
#1001
b1000001101010111100000110101011110000011010101111000001101010111 n
b1000001101010111100000110101011110000011010101111000001101010111 J#
#1003
0["
07$
#1005
1["
17$
#1018
b111 P"
1Y"
b111 ,$
15$
#1019
b1000100010001000000000000000000000000000000000 n
b11111111 P"
0Y"
b1000100010001000000000000000000000000000000000 J#
b11111111 ,$
05$
#1020
b1000001101011000011111010000000000010001000100010000000000000000 n
b1000001101011000011111010000000000010001000100010000000000000000 J#
#1021
b1000001101011000100000110101100010000011010110001000001101011000 n
b1000001101011000100000110101100010000011010110001000001101011000 J#
#1023
0["
07$
#1024
18$
#1026
1["
17$
#1039
b111 P"
1Y"
b111 ,$
15$
#1040
b1000100010001000000000000000000000000000000000 n
b11111111 P"
0Y"
b1000100010001000000000000000000000000000000000 J#
b11111111 ,$
05$
#1041
b1000001101011001011111010000000000010001000100010000000000000000 n
b1000001101011001011111010000000000010001000100010000000000000000 J#
#1042
b1000001101011001100000110101100110000011010110011000001101011001 n
b1000001101011001100000110101100110000011010110011000001101011001 J#
#1044
0["
07$
#1046
1["
17$
#1059
b111 P"
1Y"
b111 ,$
15$
#1060
b1000100010001000000000000000000000000000000000 n
b11111111 P"
0Y"
b1000100010001000000000000000000000000000000000 J#
b11111111 ,$
05$
#1061
b1000001101011010011111010000000000010001000100010000000000000000 n
b1000001101011010011111010000000000010001000100010000000000000000 J#
#1062
b1000001101011010100000110101101010000011010110101000001101011010 n
b1000001101011010100000110101101010000011010110101000001101011010 J#
#1064
0["
07$
#1067
1["
17$
#1080
b111 P"
1Y"
b111 ,$
15$
#1081
b1000100010001000000000000000000000000000000000 n
b11111111 P"
0Y"
b1000100010001000000000000000000000000000000000 J#
b11111111 ,$
05$
#1082
b1000001101011011011111010000000000010001000100010000000000000000 n
b1000001101011011011111010000000000010001000100010000000000000000 J#
#1083
b1000001101011011100000110101101110000011010110111000001101011011 n
b1000001101011011100000110101101110000011010110111000001101011011 J#
#1085
0["
07$
#1087
1["
17$
#1100
b111 P"
1Y"
b111 ,$
15$
#1101
b1000100010001000000000000000000000000000000000 n
b11111111 P"
0Y"
b1000100010001000000000000000000000000000000000 J#
b11111111 ,$
05$
#1102
b1000001101011100011111010000000000010001000100010000000000000000 n
b1000001101011100011111010000000000010001000100010000000000000000 J#
#1103
b1000001101011100100000110101110010000011010111001000001101011100 n
b1000001101011100100000110101110010000011010111001000001101011100 J#
#1105
0["
07$
#1108
1["
17$
#1121
b111 P"
1Y"
b111 ,$
15$
#1122
b1000100010001000000000000000000000000000000000 n
b11111111 P"
0Y"
b1000100010001000000000000000000000000000000000 J#
b11111111 ,$
05$
#1123
b1000001101011101011111010000000000010001000100010000000000000000 n
b1000001101011101011111010000000000010001000100010000000000000000 J#
#1124
b1000001101011101100000110101110110000011010111011000001101011101 n
b1000001101011101100000110101110110000011010111011000001101011101 J#
#1126
0["
07$
#1128
1["
17$
#1141
b111 P"
1Y"
b111 ,$
15$
#1142
b1000100010001000000000000000000000000000000000 n
b11111111 P"
0Y"
b1000100010001000000000000000000000000000000000 J#
b11111111 ,$
05$
#1143
b1000001101011110011111010000000000010001000100010000000000000000 n
b1000001101011110011111010000000000010001000100010000000000000000 J#
#1144
b1000001101011110100000110101111010000011010111101000001101011110 n
b1000001101011110100000110101111010000011010111101000001101011110 J#
#1146
0["
07$
#1149
1["
17$
#1162
b111 P"
1Y"
b111 ,$
15$
#1163
b1000100010001000000000000000000000000000000000 n
b11111111 P"
0Y"
b1000100010001000000000000000000000000000000000 J#
b11111111 ,$
05$
#1164
b1000001101011111011111010000000000010001000100010000000000000000 n
b1000001101011111011111010000000000010001000100010000000000000000 J#
#1165
b1000001101011111100000110101111110000011010111111000001101011111 n
b1000001101011111100000110101111110000011010111111000001101011111 J#
#1167
0["
07$
#1169
1["
17$
#1182
b111 P"
1Y"
b111 ,$
15$
#1183
b1000100010001000000000000000000000000000000000 n
b11111111 P"
0Y"
b1000100010001000000000000000000000000000000000 J#
b11111111 ,$
05$
#1184
b1000001101100000011111010000000000010001000100010000000000000000 n
b1000001101100000011111010000000000010001000100010000000000000000 J#
#1185
b1000001101100000100000110110000010000011011000001000001101100000 n
b1000001101100000100000110110000010000011011000001000001101100000 J#
#1187
0["
07$
#1190
1["
17$
#1203
b111 P"
1Y"
b111 ,$
15$
#1204
b1000100010001000000000000000000000000000000000 n
b11111111 P"
0Y"
b1000100010001000000000000000000000000000000000 J#
b11111111 ,$
05$
#1205
b1000001101100001011111010000000000010001000100010000000000000000 n
b1000001101100001011111010000000000010001000100010000000000000000 J#
#1206
b1000001101100001100000110110000110000011011000011000001101100001 n
b1000001101100001100000110110000110000011011000011000001101100001 J#
#1208
0["
07$
#1210
1["
17$
#1223
b111 P"
1Y"
b111 ,$
15$
#1224
b1000100010001000000000000000000000000000000000 n
b11111111 P"
0Y"
b1000100010001000000000000000000000000000000000 J#
b11111111 ,$
05$
#1225
b1000001101100010011111010000000000010001000100010000000000000000 n
b1000001101100010011111010000000000010001000100010000000000000000 J#
#1226
b1000001101100010100000110110001010000011011000101000001101100010 n
b1000001101100010100000110110001010000011011000101000001101100010 J#
#1228
0["
07$
#1231
1["
17$
#1244
b111 P"
1Y"
b111 ,$
15$
#1245
b1000100010001000000000000000000000000000000000 n
b11111111 P"
0Y"
b1000100010001000000000000000000000000000000000 J#
b11111111 ,$
05$
#1246
b1000001101100011011111010000000000010001000100010000000000000000 n
b1000001101100011011111010000000000010001000100010000000000000000 J#
#1247
b1000001101100011100000110110001110000011011000111000001101100011 n
b1000001101100011100000110110001110000011011000111000001101100011 J#
