kcu105_10gbaser_trd/hardware/vivado/runs/impl_run/.Xil/Vivado-15056-DESKTOP-4A374NS/hw_ila_data_6/zip_work/waveform.vcd
$date
        2019-Nov-21 15:59:45
$end
$version
        Vivado v2019.2 (64-bit)
$end
$timescale
        1ps
$end
$scope module dut $end
$var reg 64 " mac_phy_wrapper_i/mac_phy_i/system_ila_mac_phy2/inst/net_slot_0_axis_tdata [63:0] $end
$var reg 8 b mac_phy_wrapper_i/mac_phy_i/system_ila_mac_phy2/inst/net_slot_0_axis_tkeep [7:0] $end
$var reg 1 j mac_phy_wrapper_i/mac_phy_i/system_ila_mac_phy2/inst/net_slot_0_axis_tuser $end
$var reg 1 k mac_phy_wrapper_i/mac_phy_i/system_ila_mac_phy2/inst/net_slot_0_axis_tvalid $end
$var reg 1 l mac_phy_wrapper_i/mac_phy_i/system_ila_mac_phy2/inst/net_slot_0_axis_tready $end
$var reg 1 m mac_phy_wrapper_i/mac_phy_i/system_ila_mac_phy2/inst/net_slot_0_axis_tlast $end
$var reg 64 n mac_phy_wrapper_i/mac_phy_i/system_ila_mac_phy2/inst/net_slot_1_axis_tdata [63:0] $end
$var reg 8 P" mac_phy_wrapper_i/mac_phy_i/system_ila_mac_phy2/inst/net_slot_1_axis_tkeep [7:0] $end
$var reg 1 X" mac_phy_wrapper_i/mac_phy_i/system_ila_mac_phy2/inst/net_slot_1_axis_tuser $end
$var reg 1 Y" mac_phy_wrapper_i/mac_phy_i/system_ila_mac_phy2/inst/net_slot_1_axis_tvalid $end
$var reg 1 Z" mac_phy_wrapper_i/mac_phy_i/system_ila_mac_phy2/inst/net_slot_1_axis_tlast $end
$var reg 64 [" mac_phy_wrapper_i/mac_phy_i/system_ila_mac_phy2/inst/net_slot_2_axis_tdata [63:0] $end
$var reg 8 =# mac_phy_wrapper_i/mac_phy_i/system_ila_mac_phy2/inst/net_slot_2_axis_tkeep [7:0] $end
$var reg 1 E# mac_phy_wrapper_i/mac_phy_i/system_ila_mac_phy2/inst/net_slot_2_axis_tuser $end
$var reg 1 F# mac_phy_wrapper_i/mac_phy_i/system_ila_mac_phy2/inst/net_slot_2_axis_tvalid $end
$var reg 1 G# mac_phy_wrapper_i/mac_phy_i/system_ila_mac_phy2/inst/net_slot_2_axis_tready $end
$var reg 1 H# mac_phy_wrapper_i/mac_phy_i/system_ila_mac_phy2/inst/net_slot_2_axis_tlast $end
$var reg 64 I# mac_phy_wrapper_i/mac_phy_i/system_ila_mac_phy2/inst/net_slot_3_axis_tdata [63:0] $end
$var reg 8 +$ mac_phy_wrapper_i/mac_phy_i/system_ila_mac_phy2/inst/net_slot_3_axis_tkeep [7:0] $end
$var reg 1 3$ mac_phy_wrapper_i/mac_phy_i/system_ila_mac_phy2/inst/net_slot_3_axis_tuser $end
$var reg 1 4$ mac_phy_wrapper_i/mac_phy_i/system_ila_mac_phy2/inst/net_slot_3_axis_tvalid $end
$var reg 1 5$ mac_phy_wrapper_i/mac_phy_i/system_ila_mac_phy2/inst/net_slot_3_axis_tlast $end
$var reg 3 6$ Interface__i6_s0___s_axis_tx_0_1_ [2:0] $end
$var reg 3 9$ Interface__i6_s1___mac_phy_ch0_m_axis_rx_ [2:0] $end
$var reg 3 <$ Interface__i6_s2___s_axis_tx_1_1_ [2:0] $end
$var reg 3 ?$ Interface__i6_s3___mac_phy_ch1_m_axis_rx_ [2:0] $end
$var reg 3 B$ T_Channel__i6_s0___s_axis_tx_0_1_ [2:0] $end
$var reg 3 E$ T_Channel__i6_s1___mac_phy_ch0_m_axis_rx_ [2:0] $end
$var reg 3 H$ T_Channel__i6_s2___s_axis_tx_1_1_ [2:0] $end
$var reg 3 K$ T_Channel__i6_s3___mac_phy_ch1_m_axis_rx_ [2:0] $end
$var reg 1 N$ _TRIGGER $end
$var reg 1 O$ _WINDOW $end
$var reg 1 P$ _GAP $end
$upscope $end
$enddefinitions $end
#0
$dumpvars
b110101110010000011010111001000001101011100100000110101110010000 "
b11111111 b
0j
1k
0l
0m
b0 n
b0 P"
0X"
0Y"
0Z"
b1010111011101101101011101110110110101110111011011010111011101101 ["
b11111111 =#
0E#
1F#
1G#
0H#
b0 I#
b0 +$
03$
04$
05$
b0 6$
b11 9$
b0 <$
b11 ?$
b0 B$
b11 E$
b0 H$
b11 K$
0N$
1O$
0P$
$end
#1
1l
b1 6$
b1 <$
b1 B$
b1 H$
#7
b111 =#
1H#
b10 H$
#8
b11111 b
1m
b1000100010001000000000000000000000000000000000 ["
b11111111 =#
0H#
b10 B$
b1 H$
#9
b1000100010001000000000000000000000000000000000 "
b11111111 b
0m
b1010111011101110011111010000000000010001000100010000000000000000 ["
b1 B$
#10
b110101110010001010011110000000000010001000100010000000000000000 "
b1010111011101110101011101110111010101110111011101010111011101110 ["
#11
b110101110010001011010111001000101101011100100010110101110010001 "
#13
0l
b0 6$
b0 B$
#16
1l
b1 6$
b1 B$
#23
b11111 b
1m
b10 B$
#24
b1000100010001000000000000000000000000000000000 "
b11111111 b
0m
b1 B$
#25
b110101110010010010011110000000000010001000100010000000000000000 "
b111 =#
1H#
b10 H$
#26
b110101110010010011010111001001001101011100100100110101110010010 "
b1000100010001000000000000000000000000000000000 ["
b11111111 =#
0H#
b1 H$
#27
b1010111011101111011111010000000000010001000100010000000000000000 ["
#28
0l
b1010111011101111101011101110111110101110111011111010111011101111 ["
b0 6$
b0 B$
#31
1l
b1 6$
b1 B$
#38
b11111 b
1m
b10 B$
#39
b1000100010001000000000000000000000000000000000 "
b11111111 b
0m
b1 B$
#40
b110101110010011010011110000000000010001000100010000000000000000 "
#41
b110101110010011011010111001001101101011100100110110101110010011 "
#43
0l
b111 =#
1H#
b0 6$
b0 B$
b10 H$
#44
b1000100010001000000000000000000000000000000000 ["
b11111111 =#
0H#
b1 H$
#45
b1010111011110000011111010000000000010001000100010000000000000000 ["
#46
1l
b1010111011110000101011101111000010101110111100001010111011110000 ["
b1 6$
b1 B$
#53
b11111 b
1m
b10 B$
#54
b1000100010001000000000000000000000000000000000 "
b11111111 b
0m
b1 B$
#55
b110101110010100010011110000000000010001000100010000000000000000 "
#56
b110101110010100011010111001010001101011100101000110101110010100 "
#58
0l
b0 6$
b0 B$
#61
1l
b111 =#
1H#
b1 6$
b1 B$
b10 H$
#62
b1000100010001000000000000000000000000000000000 ["
b11111111 =#
0H#
b1 H$
#63
b1010111011110001011111010000000000010001000100010000000000000000 ["
#64
b1010111011110001101011101111000110101110111100011010111011110001 ["
#68
b11111 b
1m
b10 B$
#69
b1000100010001000000000000000000000000000000000 "
b11111111 b
0m
b1 B$
#70
b110101110010101010011110000000000010001000100010000000000000000 "
#71
b110101110010101011010111001010101101011100101010110101110010101 "
#73
0l
b0 6$
b0 B$
#76
1l
b1 6$
b1 B$
#79
b111 =#
1H#
b10 H$
#80
b1000100010001000000000000000000000000000000000 ["
b11111111 =#
0H#
b1 H$
#81
b1010111011110010011111010000000000010001000100010000000000000000 ["
#82
b1010111011110010101011101111001010101110111100101010111011110010 ["
#83
b11111 b
1m
b10 B$
#84
b1000100010001000000000000000000000000000000000 "
b11111111 b
0m
b1 B$
#85
b110101110010110010011110000000000010001000100010000000000000000 "
#86
b110101110010110011010111001011001101011100101100110101110010110 "
#88
0l
b0 6$
b0 B$
#91
1l
b1 6$
b1 B$
#97
b111 =#
1H#
b10 H$
#98
b11111 b
1m
b1000100010001000000000000000000000000000000000 ["
b11111111 =#
0H#
b10 B$
b1 H$
#99
b1000100010001000000000000000000000000000000000 "
b11111111 b
0m
b1010111011110011011111010000000000010001000100010000000000000000 ["
b1 B$
#100
b110101110010111010011110000000000010001000100010000000000000000 "
b1010111011110011101011101111001110101110111100111010111011110011 ["
#101
b110101110010111011010111001011101101011100101110110101110010111 "
#103
0l
b0 6$
b0 B$
#106
1l
b1 6$
b1 B$
#113
b11111 b
1m
b10 B$
#114
b1000100010001000000000000000000000000000000000 "
b11111111 b
0m
b1 B$
#115
b110101110011000010011110000000000010001000100010000000000000000 "
b111 =#
1H#
b10 H$
#116
b110101110011000011010111001100001101011100110000110101110011000 "
b1000100010001000000000000000000000000000000000 ["
b11111111 =#
0H#
b1 H$
#117
b1010111011110100011111010000000000010001000100010000000000000000 ["
#118
0l
b1010111011110100101011101111010010101110111101001010111011110100 ["
b0 6$
b0 B$
#121
1l
b1 6$
b1 B$
#128
b11111 b
1m
b10 B$
#129
b1000100010001000000000000000000000000000000000 "
b11111111 b
0m
b1 B$
#130
b110101110011001010011110000000000010001000100010000000000000000 "
#131
b110101110011001011010111001100101101011100110010110101110011001 "
#133
0l
b111 =#
1H#
b0 6$
b0 B$
b10 H$
#134
b1000100010001000000000000000000000000000000000 ["
b11111111 =#
0H#
b1 H$
#135
b1010111011110101011111010000000000010001000100010000000000000000 ["
#136
1l
b1010111011110101101011101111010110101110111101011010111011110101 ["
b1 6$
b1 B$
#143
b11111 b
1m
b10 B$
#144
b1000100010001000000000000000000000000000000000 "
b11111111 b
0m
b1 B$
#145
b110101110011010010011110000000000010001000100010000000000000000 "
#146
b110101110011010011010111001101001101011100110100110101110011010 "
#148
0l
b0 6$
b0 B$
#151
1l
b111 =#
1H#
b1 6$
b1 B$
b10 H$
#152
b1000100010001000000000000000000000000000000000 ["
b11111111 =#
0H#
b1 H$
#153
b1010111011110110011111010000000000010001000100010000000000000000 ["
#154
b1010111011110110101011101111011010101110111101101010111011110110 ["
#158
b11111 b
1m
b10 B$
#159
b1000100010001000000000000000000000000000000000 "
b11111111 b
0m
b1 B$
#160
b110101110011011010011110000000000010001000100010000000000000000 "
#161
b110101110011011011010111001101101101011100110110110101110011011 "
#163
0l
b0 6$
b0 B$
#166
1l
b1 6$
b1 B$
#169
b111 =#
1H#
b10 H$
#170
b1000100010001000000000000000000000000000000000 ["
b11111111 =#
0H#
b1 H$
#171
b1010111011110111011111010000000000010001000100010000000000000000 ["
#172
b1010111011110111101011101111011110101110111101111010111011110111 ["
#173
b11111 b
1m
b10 B$
#174
b1000100010001000000000000000000000000000000000 "
b11111111 b
0m
b1 B$
#175
b110101110011100010011110000000000010001000100010000000000000000 "
#176
b110101110011100011010111001110001101011100111000110101110011100 "
#178
0l
b0 6$
b0 B$
#181
1l
b1 6$
b1 B$
#187
b111 =#
1H#
b10 H$
#188
b11111 b
1m
b1000100010001000000000000000000000000000000000 ["
b11111111 =#
0H#
b10 B$
b1 H$
#189
b1000100010001000000000000000000000000000000000 "
b11111111 b
0m
b1010111011111000011111010000000000010001000100010000000000000000 ["
b1 B$
#190
b110101110011101010011110000000000010001000100010000000000000000 "
b1010111011111000101011101111100010101110111110001010111011111000 ["
#191
b110101110011101011010111001110101101011100111010110101110011101 "
#193
0l
b0 6$
b0 B$
#196
1l
b1 6$
b1 B$
#203
b11111 b
1m
b10 B$
#204
b1000100010001000000000000000000000000000000000 "
b11111111 b
0m
b1 B$
#205
b110101110011110010011110000000000010001000100010000000000000000 "
b111 =#
1H#
b10 H$
#206
b110101110011110011010111001111001101011100111100110101110011110 "
b1000100010001000000000000000000000000000000000 ["
b11111111 =#
0H#
b1 H$
#207
b1010111011111001011111010000000000010001000100010000000000000000 ["
#208
0l
b1010111011111001101011101111100110101110111110011010111011111001 ["
b0 6$
b0 B$
#211
1l
b1 6$
b1 B$
#218
b11111 b
1m
b10 B$
#219
b1000100010001000000000000000000000000000000000 "
b11111111 b
0m
b1 B$
#220
b110101110011111010011110000000000010001000100010000000000000000 "
#221
b110101110011111011010111001111101101011100111110110101110011111 "
#223
0l
b111 =#
1H#
b0 6$
b0 B$
b10 H$
#224
b1000100010001000000000000000000000000000000000 ["
b11111111 =#
0H#
b1 H$
#225
b1010111011111010011111010000000000010001000100010000000000000000 ["
#226
1l
b1010111011111010101011101111101010101110111110101010111011111010 ["
b1 6$
b1 B$
#233
b11111 b
1m
b10 B$
#234
b1000100010001000000000000000000000000000000000 "
b11111111 b
0m
b1 B$
#235
b110101110100000010011110000000000010001000100010000000000000000 "
#236
b110101110100000011010111010000001101011101000000110101110100000 "
#238
0l
b0 6$
b0 B$
#241
1l
b111 =#
1H#
b1 6$
b1 B$
b10 H$
#242
b1000100010001000000000000000000000000000000000 ["
b11111111 =#
0H#
b1 H$
#243
b1010111011111011011111010000000000010001000100010000000000000000 ["
#244
b1010111011111011101011101111101110101110111110111010111011111011 ["
#248
b11111 b
1m
b10 B$
#249
b1000100010001000000000000000000000000000000000 "
b11111111 b
0m
b1 B$
#250
b110101110100001010011110000000000010001000100010000000000000000 "
#251
b110101110100001011010111010000101101011101000010110101110100001 "
#253
0l
b0 6$
b0 B$
#256
1l
b1 6$
b1 B$
#259
b111 =#
1H#
b10 H$
#260
b1000100010001000000000000000000000000000000000 ["
b11111111 =#
0H#
b1 H$
#261
b1010111011111100011111010000000000010001000100010000000000000000 ["
#262
b1010111011111100101011101111110010101110111111001010111011111100 ["
#263
b11111 b
1m
b10 B$
#264
b1000100010001000000000000000000000000000000000 "
b11111111 b
0m
b1 B$
#265
b110101110100010010011110000000000010001000100010000000000000000 "
#266
b110101110100010011010111010001001101011101000100110101110100010 "
#268
0l
b0 6$
b0 B$
#271
1l
b1 6$
b1 B$
#277
b111 =#
1H#
b10 H$
#278
b11111 b
1m
b1000100010001000000000000000000000000000000000 ["
b11111111 =#
0H#
b10 B$
b1 H$
#279
b1000100010001000000000000000000000000000000000 "
b11111111 b
0m
b1010111011111101011111010000000000010001000100010000000000000000 ["
b1 B$
#280
b110101110100011010011110000000000010001000100010000000000000000 "
b1010111011111101101011101111110110101110111111011010111011111101 ["
#281
b110101110100011011010111010001101101011101000110110101110100011 "
#283
0l
b0 6$
b0 B$
#286
1l
b1 6$
b1 B$
#293
b11111 b
1m
b10 B$
#294
b1000100010001000000000000000000000000000000000 "
b11111111 b
0m
b1 B$
#295
b110101110100100010011110000000000010001000100010000000000000000 "
b111 =#
1H#
b10 H$
#296
b110101110100100011010111010010001101011101001000110101110100100 "
b1000100010001000000000000000000000000000000000 ["
b11111111 =#
0H#
b1 H$
#297
b1010111011111110011111010000000000010001000100010000000000000000 ["
#298
0l
b1010111011111110101011101111111010101110111111101010111011111110 ["
b0 6$
b0 B$
#301
1l
b1 6$
b1 B$
#308
b11111 b
1m
b10 B$
#309
b1000100010001000000000000000000000000000000000 "
b11111111 b
0m
b1 B$
#310
b110101110100101010011110000000000010001000100010000000000000000 "
#311
b110101110100101011010111010010101101011101001010110101110100101 "
#313
0l
b111 =#
1H#
b0 6$
b0 B$
b10 H$
#314
b1000100010001000000000000000000000000000000000 ["
b11111111 =#
0H#
b1 H$
#315
b1010111011111111011111010000000000010001000100010000000000000000 ["
#316
1l
b1010111011111111101011101111111110101110111111111010111011111111 ["
b1 6$
b1 B$
#323
b11111 b
1m
b10 B$
#324
b1000100010001000000000000000000000000000000000 "
b11111111 b
0m
b1 B$
#325
b110101110100110010011110000000000010001000100010000000000000000 "
#326
b110101110100110011010111010011001101011101001100110101110100110 "
#328
0l
b0 6$
b0 B$
#331
1l
b111 =#
1H#
b1 6$
b1 B$
b10 H$
#332
b1000100010001000000000000000000000000000000000 ["
b11111111 =#
0H#
b1 H$
#333
b1010111100000000011111010000000000010001000100010000000000000000 ["
#334
b1010111100000000101011110000000010101111000000001010111100000000 ["
#338
b11111 b
1m
b10 B$
#339
b1000100010001000000000000000000000000000000000 "
b11111111 b
0m
b1 B$
#340
b110101110100111010011110000000000010001000100010000000000000000 "
#341
b110101110100111011010111010011101101011101001110110101110100111 "
#343
0l
b0 6$
b0 B$
#346
1l
b1 6$
b1 B$
#349
b111 =#
1H#
b10 H$
#350
b1000100010001000000000000000000000000000000000 ["
b11111111 =#
0H#
b1 H$
#351
b1010111100000001011111010000000000010001000100010000000000000000 ["
#352
b1010111100000001101011110000000110101111000000011010111100000001 ["
#353
b11111 b
1m
b10 B$
#354
b1000100010001000000000000000000000000000000000 "
b11111111 b
0m
b1 B$
#355
b110101110101000010011110000000000010001000100010000000000000000 "
#356
b110101110101000011010111010100001101011101010000110101110101000 "
#358
0l
b0 6$
b0 B$
#361
1l
b1 6$
b1 B$
#367
b111 =#
1H#
b10 H$
#368
b11111 b
1m
b1000100010001000000000000000000000000000000000 ["
b11111111 =#
0H#
b10 B$
b1 H$
#369
b1000100010001000000000000000000000000000000000 "
b11111111 b
0m
b1010111100000010011111010000000000010001000100010000000000000000 ["
b1 B$
#370
b110101110101001010011110000000000010001000100010000000000000000 "
b1010111100000010101011110000001010101111000000101010111100000010 ["
#371
b110101110101001011010111010100101101011101010010110101110101001 "
#373
0l
b0 6$
b0 B$
#376
1l
b1 6$
b1 B$
#383
b11111 b
1m
b10 B$
#384
b1000100010001000000000000000000000000000000000 "
b11111111 b
0m
b1 B$
#385
b110101110101010010011110000000000010001000100010000000000000000 "
b111 =#
1H#
b10 H$
#386
b110101110101010011010111010101001101011101010100110101110101010 "
b1000100010001000000000000000000000000000000000 ["
b11111111 =#
0H#
b1 H$
#387
b1010111100000011011111010000000000010001000100010000000000000000 ["
#388
0l
b1010111100000011101011110000001110101111000000111010111100000011 ["
b0 6$
b0 B$
#391
1l
b1 6$
b1 B$
#398
b11111 b
1m
b10 B$
#399
b1000100010001000000000000000000000000000000000 "
b11111111 b
0m
b1 B$
#400
b110101110101011010011110000000000010001000100010000000000000000 "
#401
b110101110101011011010111010101101101011101010110110101110101011 "
#403
0l
b111 =#
1H#
b0 6$
b0 B$
b10 H$
#404
b1000100010001000000000000000000000000000000000 ["
b11111111 =#
0H#
b1 H$
#405
b1010111100000100011111010000000000010001000100010000000000000000 ["
#406
1l
b1010111100000100101011110000010010101111000001001010111100000100 ["
b1 6$
b1 B$
#413
b11111 b
1m
b10 B$
#414
b1000100010001000000000000000000000000000000000 "
b11111111 b
0m
b1 B$
#415
b110101110101100010011110000000000010001000100010000000000000000 "
#416
b110101110101100011010111010110001101011101011000110101110101100 "
#418
0l
b0 6$
b0 B$
#421
1l
b111 =#
1H#
b1 6$
b1 B$
b10 H$
#422
b1000100010001000000000000000000000000000000000 ["
b11111111 =#
0H#
b1 H$
#423
b1010111100000101011111010000000000010001000100010000000000000000 ["
#424
b1010111100000101101011110000010110101111000001011010111100000101 ["
#428
b11111 b
1m
b10 B$
#429
b1000100010001000000000000000000000000000000000 "
b11111111 b
0m
b1 B$
#430
b110101110101101010011110000000000010001000100010000000000000000 "
#431
b110101110101101011010111010110101101011101011010110101110101101 "
#433
0l
b0 6$
b0 B$
#436
1l
b1 6$
b1 B$
#439
b111 =#
1H#
b10 H$
#440
b1000100010001000000000000000000000000000000000 ["
b11111111 =#
0H#
b1 H$
#441
b1010111100000110011111010000000000010001000100010000000000000000 ["
#442
b1010111100000110101011110000011010101111000001101010111100000110 ["
#443
b11111 b
1m
b10 B$
#444
b1000100010001000000000000000000000000000000000 "
b11111111 b
0m
b1 B$
#445
b110101110101110010011110000000000010001000100010000000000000000 "
#446
b110101110101110011010111010111001101011101011100110101110101110 "
#448
0l
b0 6$
b0 B$
#451
1l
b1 6$
b1 B$
#457
b111 =#
1H#
b10 H$
#458
b11111 b
1m
b1000100010001000000000000000000000000000000000 ["
b11111111 =#
0H#
b10 B$
b1 H$
#459
b1000100010001000000000000000000000000000000000 "
b11111111 b
0m
b1010111100000111011111010000000000010001000100010000000000000000 ["
b1 B$
#460
b110101110101111010011110000000000010001000100010000000000000000 "
b1010111100000111101011110000011110101111000001111010111100000111 ["
#461
b110101110101111011010111010111101101011101011110110101110101111 "
#463
0l
b0 6$
b0 B$
#466
1l
b1 6$
b1 B$
#473
b11111 b
1m
b10 B$
#474
b1000100010001000000000000000000000000000000000 "
b11111111 b
0m
b1 B$
#475
b110101110110000010011110000000000010001000100010000000000000000 "
b111 =#
1H#
b10 H$
#476
b110101110110000011010111011000001101011101100000110101110110000 "
b1000100010001000000000000000000000000000000000 ["
b11111111 =#
0H#
b1 H$
#477
b1010111100001000011111010000000000010001000100010000000000000000 ["
#478
0l
b1010111100001000101011110000100010101111000010001010111100001000 ["
b0 6$
b0 B$
#481
1l
b1 6$
b1 B$
#488
b11111 b
1m
b10 B$
#489
b1000100010001000000000000000000000000000000000 "
b11111111 b
0m
b1 B$
#490
b110101110110001010011110000000000010001000100010000000000000000 "
#491
b110101110110001011010111011000101101011101100010110101110110001 "
#493
0l
b111 =#
1H#
b0 6$
b0 B$
b10 H$
#494
b1000100010001000000000000000000000000000000000 ["
b11111111 =#
0H#
b1 H$
#495
b1010111100001001011111010000000000010001000100010000000000000000 ["
#496
1l
b1010111100001001101011110000100110101111000010011010111100001001 ["
b1 6$
b1 B$
#503
b11111 b
1m
b10 B$
#504
b1000100010001000000000000000000000000000000000 "
b11111111 b
0m
b1 B$
#505
b110101110110010010011110000000000010001000100010000000000000000 "
#506
b110101110110010011010111011001001101011101100100110101110110010 "
#508
0l
b0 6$
b0 B$
#511
1l
b111 =#
1H#
b1 6$
b1 B$
b10 H$
#512
b1000100010001000000000000000000000000000000000 ["
b11111111 =#
0H#
b1 H$
#513
b1010111100001010011111010000000000010001000100010000000000000000 ["
#514
b1010111100001010101011110000101010101111000010101010111100001010 ["
#518
b11111 b
1m
b10 B$
#519
b1000100010001000000000000000000000000000000000 "
b11111111 b
0m
b1 B$
#520
b110101110110011010011110000000000010001000100010000000000000000 "
#521
b110101110110011011010111011001101101011101100110110101110110011 "
#523
0l
b0 6$
b0 B$
#526
1l
b1 6$
b1 B$
#529
b111 =#
1H#
b10 H$
#530
b1000100010001000000000000000000000000000000000 ["
b11111111 =#
0H#
b1 H$
#531
b1010111100001011011111010000000000010001000100010000000000000000 ["
#532
b1010111100001011101011110000101110101111000010111010111100001011 ["
#533
b11111 b
1m
b10 B$
#534
b1000100010001000000000000000000000000000000000 "
b11111111 b
0m
b1 B$
#535
b110101110110100010011110000000000010001000100010000000000000000 "
#536
b110101110110100011010111011010001101011101101000110101110110100 "
#538
0l
b0 6$
b0 B$
#541
1l
b1 6$
b1 B$
#547
b111 =#
1H#
b10 H$
#548
b11111 b
1m
b1000100010001000000000000000000000000000000000 ["
b11111111 =#
0H#
b10 B$
b1 H$
#549
b1000100010001000000000000000000000000000000000 "
b11111111 b
0m
b1010111100001100011111010000000000010001000100010000000000000000 ["
b1 B$
#550
b110101110110101010011110000000000010001000100010000000000000000 "
b1010111100001100101011110000110010101111000011001010111100001100 ["
#551
b110101110110101011010111011010101101011101101010110101110110101 "
#553
0l
b0 6$
b0 B$
#556
1l
b1 6$
b1 B$
#563
b11111 b
1m
b10 B$
#564
b1000100010001000000000000000000000000000000000 "
b11111111 b
0m
b1 B$
#565
b110101110110110010011110000000000010001000100010000000000000000 "
b111 =#
1H#
b10 H$
#566
b110101110110110011010111011011001101011101101100110101110110110 "
b1000100010001000000000000000000000000000000000 ["
b11111111 =#
0H#
b1 H$
#567
b1010111100001101011111010000000000010001000100010000000000000000 ["
#568
0l
b1010111100001101101011110000110110101111000011011010111100001101 ["
b0 6$
b0 B$
#571
1l
b1 6$
b1 B$
#578
b11111 b
1m
b10 B$
#579
b1000100010001000000000000000000000000000000000 "
b11111111 b
0m
b1 B$
#580
b110101110110111010011110000000000010001000100010000000000000000 "
#581
b110101110110111011010111011011101101011101101110110101110110111 "
#583
0l
b111 =#
1H#
b0 6$
b0 B$
b10 H$
#584
b1000100010001000000000000000000000000000000000 ["
b11111111 =#
0H#
b1 H$
#585
b1010111100001110011111010000000000010001000100010000000000000000 ["
#586
1l
b1010111100001110101011110000111010101111000011101010111100001110 ["
b1 6$
b1 B$
#593
b11111 b
1m
b10 B$
#594
b1000100010001000000000000000000000000000000000 "
b11111111 b
0m
b1 B$
#595
b110101110111000010011110000000000010001000100010000000000000000 "
#596
b110101110111000011010111011100001101011101110000110101110111000 "
#598
0l
b0 6$
b0 B$
#601
1l
b111 =#
1H#
b1 6$
b1 B$
b10 H$
#602
b1000100010001000000000000000000000000000000000 ["
b11111111 =#
0H#
b1 H$
#603
b1010111100001111011111010000000000010001000100010000000000000000 ["
#604
b1010111100001111101011110000111110101111000011111010111100001111 ["
#608
b11111 b
1m
b10 B$
#609
b1000100010001000000000000000000000000000000000 "
b11111111 b
0m
b1 B$
#610
b110101110111001010011110000000000010001000100010000000000000000 "
#611
b110101110111001011010111011100101101011101110010110101110111001 "
#613
0l
b0 6$
b0 B$
#616
1l
b1 6$
b1 B$
#619
b111 =#
1H#
b10 H$
#620
b1000100010001000000000000000000000000000000000 ["
b11111111 =#
0H#
b1 H$
#621
b1010111100010000011111010000000000010001000100010000000000000000 ["
#622
b1010111100010000101011110001000010101111000100001010111100010000 ["
#623
b11111 b
1m
b10 B$
#624
b1000100010001000000000000000000000000000000000 "
b11111111 b
0m
b1 B$
#625
b110101110111010010011110000000000010001000100010000000000000000 "
#626
b110101110111010011010111011101001101011101110100110101110111010 "
#628
0l
b0 6$
b0 B$
#631
1l
b1 6$
b1 B$
#637
b111 =#
1H#
b10 H$
#638
b11111 b
1m
b1000100010001000000000000000000000000000000000 ["
b11111111 =#
0H#
b10 B$
b1 H$
#639
b1000100010001000000000000000000000000000000000 "
b11111111 b
0m
b1010111100010001011111010000000000010001000100010000000000000000 ["
b1 B$
#640
b110101110111011010011110000000000010001000100010000000000000000 "
b1010111100010001101011110001000110101111000100011010111100010001 ["
#641
b110101110111011011010111011101101101011101110110110101110111011 "
#643
0l
b0 6$
b0 B$
#646
1l
b1 6$
b1 B$
#653
b11111 b
1m
b10 B$
#654
b1000100010001000000000000000000000000000000000 "
b11111111 b
0m
b1 B$
#655
b110101110111100010011110000000000010001000100010000000000000000 "
b111 =#
1H#
b10 H$
#656
b110101110111100011010111011110001101011101111000110101110111100 "
b1000100010001000000000000000000000000000000000 ["
b11111111 =#
0H#
b1 H$
#657
b1010111100010010011111010000000000010001000100010000000000000000 ["
#658
0l
b1010111100010010101011110001001010101111000100101010111100010010 ["
b0 6$
b0 B$
#661
1l
b1 6$
b1 B$
#668
b11111 b
1m
b10 B$
#669
b1000100010001000000000000000000000000000000000 "
b11111111 b
0m
b1 B$
#670
b110101110111101010011110000000000010001000100010000000000000000 "
#671
b110101110111101011010111011110101101011101111010110101110111101 "
#673
0l
b111 =#
1H#
b0 6$
b0 B$
b10 H$
#674
b1000100010001000000000000000000000000000000000 ["
b11111111 =#
0H#
b1 H$
#675
b1010111100010011011111010000000000010001000100010000000000000000 ["
#676
1l
b1010111100010011101011110001001110101111000100111010111100010011 ["
b1 6$
b1 B$
#683
b11111 b
1m
b10 B$
#684
b1000100010001000000000000000000000000000000000 "
b11111111 b
0m
b1 B$
#685
b110101110111110010011110000000000010001000100010000000000000000 "
#686
b110101110111110011010111011111001101011101111100110101110111110 "
#688
0l
b0 6$
b0 B$
#691
1l
b111 =#
1H#
b1 6$
b1 B$
b10 H$
#692
b1000100010001000000000000000000000000000000000 ["
b11111111 =#
0H#
b1 H$
#693
b1010111100010100011111010000000000010001000100010000000000000000 ["
#694
b1010111100010100101011110001010010101111000101001010111100010100 ["
#698
b11111 b
1m
b10 B$
#699
b1000100010001000000000000000000000000000000000 "
b11111111 b
0m
b1 B$
#700
b110101110111111010011110000000000010001000100010000000000000000 "
#701
b110101110111111011010111011111101101011101111110110101110111111 "
#703
0l
b0 6$
b0 B$
#706
1l
b1 6$
b1 B$
#709
b111 =#
1H#
b10 H$
#710
b1000100010001000000000000000000000000000000000 ["
b11111111 =#
0H#
b1 H$
#711
b1010111100010101011111010000000000010001000100010000000000000000 ["
#712
b1010111100010101101011110001010110101111000101011010111100010101 ["
#713
b11111 b
1m
b10 B$
#714
b1000100010001000000000000000000000000000000000 "
b11111111 b
0m
b1 B$
#715
b110101111000000010011110000000000010001000100010000000000000000 "
#716
b110101111000000011010111100000001101011110000000110101111000000 "
#718
0l
b0 6$
b0 B$
#721
1l
b1 6$
b1 B$
#727
b111 =#
1H#
b10 H$
#728
b11111 b
1m
b1000100010001000000000000000000000000000000000 ["
b11111111 =#
0H#
b10 B$
b1 H$
#729
b1000100010001000000000000000000000000000000000 "
b11111111 b
0m
b1010111100010110011111010000000000010001000100010000000000000000 ["
b1 B$
#730
b110101111000001010011110000000000010001000100010000000000000000 "
b1010111100010110101011110001011010101111000101101010111100010110 ["
#731
b110101111000001011010111100000101101011110000010110101111000001 "
#733
0l
b0 6$
b0 B$
#736
1l
b1 6$
b1 B$
#743
b11111 b
1m
b10 B$
#744
b1000100010001000000000000000000000000000000000 "
b11111111 b
0m
b1 B$
#745
b110101111000010010011110000000000010001000100010000000000000000 "
b111 =#
1H#
b10 H$
#746
b110101111000010011010111100001001101011110000100110101111000010 "
b1000100010001000000000000000000000000000000000 ["
b11111111 =#
0H#
b1 H$
#747
b1010111100010111011111010000000000010001000100010000000000000000 ["
#748
0l
b1010111100010111101011110001011110101111000101111010111100010111 ["
b0 6$
b0 B$
#751
1l
b1 6$
b1 B$
#758
b11111 b
1m
b10 B$
#759
b1000100010001000000000000000000000000000000000 "
b11111111 b
0m
b1 B$
#760
b110101111000011010011110000000000010001000100010000000000000000 "
#761
b110101111000011011010111100001101101011110000110110101111000011 "
#763
0l
b111 =#
1H#
b0 6$
b0 B$
b10 H$
#764
b1000100010001000000000000000000000000000000000 ["
b11111111 =#
0H#
b1 H$
#765
b1010111100011000011111010000000000010001000100010000000000000000 ["
#766
1l
b1010111100011000101011110001100010101111000110001010111100011000 ["
b1 6$
b1 B$
#773
b11111 b
1m
b10 B$
#774
b1000100010001000000000000000000000000000000000 "
b11111111 b
0m
b1 B$
#775
b110101111000100010011110000000000010001000100010000000000000000 "
#776
b110101111000100011010111100010001101011110001000110101111000100 "
#778
0l
b0 6$
b0 B$
#781
1l
b111 =#
1H#
b1 6$
b1 B$
b10 H$
#782
b1000100010001000000000000000000000000000000000 ["
b11111111 =#
0H#
b1 H$
