kcu105_10gbaser_trd/hardware/vivado/runs/impl_run/.Xil/Vivado-1636-DESKTOP-4A374NS/hw_ila_data_1/zip_work/waveform.vcd
$date
        2019-Nov-21 14:57:53
$end
$version
        Vivado v2019.2 (64-bit)
$end
$timescale
        1ps
$end
$scope module dut $end
$var reg 64 " axi_stream_gen_mon_0/axi_stream_interface/tx_axis_tdata [63:0] $end
$var reg 8 b axi_stream_gen_mon_0/axi_stream_interface/tx_axis_tkeep [7:0] $end
$var reg 1 j axi_stream_gen_mon_0/axi_stream_interface/tx_axis_tvalid $end
$var reg 1 k axi_stream_gen_mon_0/axi_stream_interface/tx_axis_tlast $end
$var reg 1 l axi_stream_gen_mon_0/axi_stream_interface/tx_axis_tuser $end
$var reg 1 m axi_stream_gen_mon_0/axi_stream_interface/tx_axis_tready $end
$var reg 64 n axi_stream_gen_mon_0/axi_stream_interface/rx_axis_tdata [63:0] $end
$var reg 8 P" axi_stream_gen_mon_0/axi_stream_interface/rx_axis_tkeep [7:0] $end
$var reg 1 X" axi_stream_gen_mon_0/axi_stream_interface/rx_axis_tvalid $end
$var reg 1 Y" axi_stream_gen_mon_0/axi_stream_interface/rx_axis_tlast $end
$var reg 1 Z" axi_stream_gen_mon_0/axi_stream_interface/rx_axis_tuser $end
$var reg 1 [" axi_stream_gen_mon_0/axi_stream_interface/rx_axis_tready $end
$var reg 64 \" axi_stream_gen_mon_0/axi_stream_interface/bb_rx_axis_tdata [63:0] $end
$var reg 8 ># axi_stream_gen_mon_0/axi_stream_interface/bb_rx_axis_tkeep [7:0] $end
$var reg 1 F# axi_stream_gen_mon_0/axi_stream_interface/bb_rx_axis_tvalid $end
$var reg 1 G# axi_stream_gen_mon_0/axi_stream_interface/bb_rx_axis_tlast $end
$var reg 1 H# axi_stream_gen_mon_0/axi_stream_interface/bb_rx_axis_tuser $end
$var reg 1 I# axi_stream_gen_mon_0/axi_stream_interface/n_0_0 $end
$var reg 64 J# axi_stream_gen_mon_0/axi_stream_interface/bb_tx_axis_tdata [63:0] $end
$var reg 8 ,$ axi_stream_gen_mon_0/axi_stream_interface/bb_tx_axis_tkeep [7:0] $end
$var reg 1 4$ axi_stream_gen_mon_0/axi_stream_interface/bb_tx_axis_tvalid $end
$var reg 1 5$ axi_stream_gen_mon_0/axi_stream_interface/bb_tx_axis_tlast $end
$var reg 1 6$ axi_stream_gen_mon_0/axi_stream_interface/bb_tx_axis_tuser $end
$var reg 1 7$ axi_stream_gen_mon_0/axi_stream_interface/bb_tx_axis_tready $end
$var reg 1 8$ _TRIGGER $end
$var reg 1 9$ _WINDOW $end
$var reg 1 :$ _GAP $end
$upscope $end
$enddefinitions $end
#0
$dumpvars
b1110001110011100111000111001110011100011100111001110001110011100 "
b11111111 b
1j
0k
0l
1m
b0 n
b0 P"
0X"
0Y"
0Z"
1["
b0 \"
b0 >#
0F#
0G#
0H#
1I#
b1110010001000111111001000100011111100100010001111110010001000111 J#
b11111111 ,$
14$
05$
06$
17$
08$
19$
0:$
$end
#1
b11111 b
1k
#2
b1000100010001000000000000000000000000000000000 "
b11111111 b
0k
#3
b1110001110011101010011110000000000010001000100010000000000000000 "
#4
b1110001110011101111000111001110111100011100111011110001110011101 "
b11111 ,$
15$
#5
b1000100010001000000000000000000000000000000000 J#
b11111111 ,$
05$
#6
0m
b1110010001001000010011110000000000010001000100010000000000000000 J#
#7
b1110010001001000111001000100100011100100010010001110010001001000 J#
07$
#9
1m
#10
17$
#16
b11111 b
1k
#17
b1000100010001000000000000000000000000000000000 "
b11111111 b
0k
#18
b1110001110011110010011110000000000010001000100010000000000000000 "
#19
b1110001110011110111000111001111011100011100111101110001110011110 "
b11111 ,$
15$
#20
b1000100010001000000000000000000000000000000000 J#
b11111111 ,$
05$
#21
0m
b1110010001001001010011110000000000010001000100010000000000000000 J#
#22
b1110010001001001111001000100100111100100010010011110010001001001 J#
07$
#24
1m
#25
17$
#31
b11111 b
1k
#32
b1000100010001000000000000000000000000000000000 "
b11111111 b
0k
#33
b1110001110011111010011110000000000010001000100010000000000000000 "
#34
b1110001110011111111000111001111111100011100111111110001110011111 "
b11111 ,$
15$
#35
b1000100010001000000000000000000000000000000000 J#
b11111111 ,$
05$
#36
0m
b1110010001001010010011110000000000010001000100010000000000000000 J#
#37
b1110010001001010111001000100101011100100010010101110010001001010 J#
07$
#39
1m
#40
17$
#46
b11111 b
1k
#47
b1000100010001000000000000000000000000000000000 "
b11111111 b
0k
#48
b1110001110100000010011110000000000010001000100010000000000000000 "
#49
b1110001110100000111000111010000011100011101000001110001110100000 "
b11111 ,$
15$
#50
b1000100010001000000000000000000000000000000000 J#
b11111111 ,$
05$
#51
0m
b1110010001001011010011110000000000010001000100010000000000000000 J#
#52
b1110010001001011111001000100101111100100010010111110010001001011 J#
07$
#54
1m
#55
17$
#61
b11111 b
1k
#62
b1000100010001000000000000000000000000000000000 "
b11111111 b
0k
#63
b1110001110100001010011110000000000010001000100010000000000000000 "
#64
b1110001110100001111000111010000111100011101000011110001110100001 "
b11111 ,$
15$
#65
b1000100010001000000000000000000000000000000000 J#
b11111111 ,$
05$
#66
0m
b1110010001001100010011110000000000010001000100010000000000000000 J#
#67
b1110010001001100111001000100110011100100010011001110010001001100 J#
07$
#69
1m
#70
17$
#76
b11111 b
1k
#77
b1000100010001000000000000000000000000000000000 "
b11111111 b
0k
#78
b1110001110100010010011110000000000010001000100010000000000000000 "
#79
b1110001110100010111000111010001011100011101000101110001110100010 "
b11111 ,$
15$
#80
b1000100010001000000000000000000000000000000000 J#
b11111111 ,$
05$
#81
0m
b1110010001001101010011110000000000010001000100010000000000000000 J#
#82
b1110010001001101111001000100110111100100010011011110010001001101 J#
07$
#84
1m
#85
17$
#91
b11111 b
1k
#92
b1000100010001000000000000000000000000000000000 "
b11111111 b
0k
#93
b1110001110100011010011110000000000010001000100010000000000000000 "
#94
b1110001110100011111000111010001111100011101000111110001110100011 "
b11111 ,$
15$
#95
b1000100010001000000000000000000000000000000000 J#
b11111111 ,$
05$
#96
0m
b1110010001001110010011110000000000010001000100010000000000000000 J#
#97
b1110010001001110111001000100111011100100010011101110010001001110 J#
07$
#99
1m
#100
17$
#106
b11111 b
1k
#107
b1000100010001000000000000000000000000000000000 "
b11111111 b
0k
#108
b1110001110100100010011110000000000010001000100010000000000000000 "
#109
b1110001110100100111000111010010011100011101001001110001110100100 "
b11111 ,$
15$
#110
b1000100010001000000000000000000000000000000000 J#
b11111111 ,$
05$
#111
0m
b1110010001001111010011110000000000010001000100010000000000000000 J#
#112
b1110010001001111111001000100111111100100010011111110010001001111 J#
07$
#114
1m
#115
17$
#121
b11111 b
1k
#122
b1000100010001000000000000000000000000000000000 "
b11111111 b
0k
#123
b1110001110100101010011110000000000010001000100010000000000000000 "
#124
b1110001110100101111000111010010111100011101001011110001110100101 "
b11111 ,$
15$
#125
b1000100010001000000000000000000000000000000000 J#
b11111111 ,$
05$
#126
0m
b1110010001010000010011110000000000010001000100010000000000000000 J#
#127
b1110010001010000111001000101000011100100010100001110010001010000 J#
07$
#129
1m
#130
17$
#136
b11111 b
1k
#137
b1000100010001000000000000000000000000000000000 "
b11111111 b
0k
#138
b1110001110100110010011110000000000010001000100010000000000000000 "
#139
b1110001110100110111000111010011011100011101001101110001110100110 "
b11111 ,$
15$
#140
b1000100010001000000000000000000000000000000000 J#
b11111111 ,$
05$
#141
0m
b1110010001010001010011110000000000010001000100010000000000000000 J#
#142
b1110010001010001111001000101000111100100010100011110010001010001 J#
07$
#144
1m
#145
17$
#151
b11111 b
1k
#152
b1000100010001000000000000000000000000000000000 "
b11111111 b
0k
#153
b1110001110100111010011110000000000010001000100010000000000000000 "
#154
b1110001110100111111000111010011111100011101001111110001110100111 "
b11111 ,$
15$
#155
b1000100010001000000000000000000000000000000000 J#
b11111111 ,$
05$
#156
0m
b1110010001010010010011110000000000010001000100010000000000000000 J#
#157
b1110010001010010111001000101001011100100010100101110010001010010 J#
07$
#159
1m
#160
17$
#166
b11111 b
1k
#167
b1000100010001000000000000000000000000000000000 "
b11111111 b
0k
#168
b1110001110101000010011110000000000010001000100010000000000000000 "
#169
b1110001110101000111000111010100011100011101010001110001110101000 "
b11111 ,$
15$
#170
b1000100010001000000000000000000000000000000000 J#
b11111111 ,$
05$
#171
0m
b1110010001010011010011110000000000010001000100010000000000000000 J#
#172
b1110010001010011111001000101001111100100010100111110010001010011 J#
07$
#174
1m
#175
17$
#181
b11111 b
1k
#182
b1000100010001000000000000000000000000000000000 "
b11111111 b
0k
#183
b1110001110101001010011110000000000010001000100010000000000000000 "
#184
b1110001110101001111000111010100111100011101010011110001110101001 "
b11111 ,$
15$
#185
b1000100010001000000000000000000000000000000000 J#
b11111111 ,$
05$
#186
0m
b1110010001010100010011110000000000010001000100010000000000000000 J#
#187
b1110010001010100111001000101010011100100010101001110010001010100 J#
07$
#189
1m
#190
17$
#196
b11111 b
1k
#197
b1000100010001000000000000000000000000000000000 "
b11111111 b
0k
#198
b1110001110101010010011110000000000010001000100010000000000000000 "
#199
b1110001110101010111000111010101011100011101010101110001110101010 "
b11111 ,$
15$
#200
b1000100010001000000000000000000000000000000000 J#
b11111111 ,$
05$
#201
0m
b1110010001010101010011110000000000010001000100010000000000000000 J#
#202
b1110010001010101111001000101010111100100010101011110010001010101 J#
07$
#204
1m
#205
17$
#211
b11111 b
1k
#212
b1000100010001000000000000000000000000000000000 "
b11111111 b
0k
#213
b1110001110101011010011110000000000010001000100010000000000000000 "
#214
b1110001110101011111000111010101111100011101010111110001110101011 "
b11111 ,$
15$
#215
b1000100010001000000000000000000000000000000000 J#
b11111111 ,$
05$
#216
0m
b1110010001010110010011110000000000010001000100010000000000000000 J#
#217
b1110010001010110111001000101011011100100010101101110010001010110 J#
07$
#219
1m
#220
17$
#226
b11111 b
1k
#227
b1000100010001000000000000000000000000000000000 "
b11111111 b
0k
#228
b1110001110101100010011110000000000010001000100010000000000000000 "
#229
b1110001110101100111000111010110011100011101011001110001110101100 "
b11111 ,$
15$
#230
b1000100010001000000000000000000000000000000000 J#
b11111111 ,$
05$
#231
0m
b1110010001010111010011110000000000010001000100010000000000000000 J#
#232
b1110010001010111111001000101011111100100010101111110010001010111 J#
07$
#234
1m
#235
17$
#241
b11111 b
1k
#242
b1000100010001000000000000000000000000000000000 "
b11111111 b
0k
#243
b1110001110101101010011110000000000010001000100010000000000000000 "
#244
b1110001110101101111000111010110111100011101011011110001110101101 "
b11111 ,$
15$
#245
b1000100010001000000000000000000000000000000000 J#
b11111111 ,$
05$
#246
0m
b1110010001011000010011110000000000010001000100010000000000000000 J#
#247
b1110010001011000111001000101100011100100010110001110010001011000 J#
07$
#249
1m
#250
17$
#256
b11111 b
1k
#257
b1000100010001000000000000000000000000000000000 "
b11111111 b
0k
#258
b1110001110101110010011110000000000010001000100010000000000000000 "
#259
b1110001110101110111000111010111011100011101011101110001110101110 "
b11111 ,$
15$
#260
b1000100010001000000000000000000000000000000000 J#
b11111111 ,$
05$
#261
0m
b1110010001011001010011110000000000010001000100010000000000000000 J#
#262
b1110010001011001111001000101100111100100010110011110010001011001 J#
07$
#264
1m
#265
17$
#271
b11111 b
1k
#272
b1000100010001000000000000000000000000000000000 "
b11111111 b
0k
#273
b1110001110101111010011110000000000010001000100010000000000000000 "
#274
b1110001110101111111000111010111111100011101011111110001110101111 "
b11111 ,$
15$
#275
b1000100010001000000000000000000000000000000000 J#
b11111111 ,$
05$
#276
0m
b1110010001011010010011110000000000010001000100010000000000000000 J#
#277
b1110010001011010111001000101101011100100010110101110010001011010 J#
07$
#279
1m
#280
17$
#286
b11111 b
1k
#287
b1000100010001000000000000000000000000000000000 "
b11111111 b
0k
#288
b1110001110110000010011110000000000010001000100010000000000000000 "
#289
b1110001110110000111000111011000011100011101100001110001110110000 "
b11111 ,$
15$
#290
b1000100010001000000000000000000000000000000000 J#
b11111111 ,$
05$
#291
0m
b1110010001011011010011110000000000010001000100010000000000000000 J#
#292
b1110010001011011111001000101101111100100010110111110010001011011 J#
07$
#294
1m
#295
17$
#301
b11111 b
1k
#302
b1000100010001000000000000000000000000000000000 "
b11111111 b
0k
#303
b1110001110110001010011110000000000010001000100010000000000000000 "
#304
b1110001110110001111000111011000111100011101100011110001110110001 "
b11111 ,$
15$
#305
b1000100010001000000000000000000000000000000000 J#
b11111111 ,$
05$
#306
0m
b1110010001011100010011110000000000010001000100010000000000000000 J#
#307
b1110010001011100111001000101110011100100010111001110010001011100 J#
07$
#309
1m
#310
17$
#316
b11111 b
1k
#317
b1000100010001000000000000000000000000000000000 "
b11111111 b
0k
#318
b1110001110110010010011110000000000010001000100010000000000000000 "
#319
b1110001110110010111000111011001011100011101100101110001110110010 "
b11111 ,$
15$
#320
b1000100010001000000000000000000000000000000000 J#
b11111111 ,$
05$
#321
0m
b1110010001011101010011110000000000010001000100010000000000000000 J#
#322
b1110010001011101111001000101110111100100010111011110010001011101 J#
07$
#324
1m
#325
17$
#331
b11111 b
1k
#332
b1000100010001000000000000000000000000000000000 "
b11111111 b
0k
#333
b1110001110110011010011110000000000010001000100010000000000000000 "
#334
b1110001110110011111000111011001111100011101100111110001110110011 "
b11111 ,$
15$
#335
b1000100010001000000000000000000000000000000000 J#
b11111111 ,$
05$
#336
0m
b1110010001011110010011110000000000010001000100010000000000000000 J#
#337
b1110010001011110111001000101111011100100010111101110010001011110 J#
07$
#339
1m
#340
17$
#346
b11111 b
1k
#347
b1000100010001000000000000000000000000000000000 "
b11111111 b
0k
#348
b1110001110110100010011110000000000010001000100010000000000000000 "
#349
b1110001110110100111000111011010011100011101101001110001110110100 "
b11111 ,$
15$
#350
b1000100010001000000000000000000000000000000000 J#
b11111111 ,$
05$
#351
0m
b1110010001011111010011110000000000010001000100010000000000000000 J#
#352
b1110010001011111111001000101111111100100010111111110010001011111 J#
07$
#354
1m
#355
17$
#361
b11111 b
1k
#362
b1000100010001000000000000000000000000000000000 "
b11111111 b
0k
#363
b1110001110110101010011110000000000010001000100010000000000000000 "
#364
b1110001110110101111000111011010111100011101101011110001110110101 "
b11111 ,$
15$
#365
b1000100010001000000000000000000000000000000000 J#
b11111111 ,$
05$
#366
0m
b1110010001100000010011110000000000010001000100010000000000000000 J#
#367
b1110010001100000111001000110000011100100011000001110010001100000 J#
07$
#369
1m
#370
17$
#376
b11111 b
1k
#377
b1000100010001000000000000000000000000000000000 "
b11111111 b
0k
#378
b1110001110110110010011110000000000010001000100010000000000000000 "
#379
b1110001110110110111000111011011011100011101101101110001110110110 "
b11111 ,$
15$
#380
b1000100010001000000000000000000000000000000000 J#
b11111111 ,$
05$
#381
0m
b1110010001100001010011110000000000010001000100010000000000000000 J#
#382
b1110010001100001111001000110000111100100011000011110010001100001 J#
07$
#384
1m
#385
17$
#391
b11111 b
1k
#392
b1000100010001000000000000000000000000000000000 "
b11111111 b
0k
#393
b1110001110110111010011110000000000010001000100010000000000000000 "
#394
b1110001110110111111000111011011111100011101101111110001110110111 "
b11111 ,$
15$
#395
b1000100010001000000000000000000000000000000000 J#
b11111111 ,$
05$
#396
0m
b1110010001100010010011110000000000010001000100010000000000000000 J#
#397
b1110010001100010111001000110001011100100011000101110010001100010 J#
07$
#399
1m
#400
17$
#406
b11111 b
1k
#407
b1000100010001000000000000000000000000000000000 "
b11111111 b
0k
#408
b1110001110111000010011110000000000010001000100010000000000000000 "
#409
b1110001110111000111000111011100011100011101110001110001110111000 "
b11111 ,$
15$
#410
b1000100010001000000000000000000000000000000000 J#
b11111111 ,$
05$
#411
0m
b1110010001100011010011110000000000010001000100010000000000000000 J#
#412
b1110010001100011111001000110001111100100011000111110010001100011 J#
07$
#414
1m
#415
17$
#421
b11111 b
1k
#422
b1000100010001000000000000000000000000000000000 "
b11111111 b
0k
#423
b1110001110111001010011110000000000010001000100010000000000000000 "
#424
b1110001110111001111000111011100111100011101110011110001110111001 "
b11111 ,$
15$
#425
b1000100010001000000000000000000000000000000000 J#
b11111111 ,$
05$
#426
0m
b1110010001100100010011110000000000010001000100010000000000000000 J#
#427
b1110010001100100111001000110010011100100011001001110010001100100 J#
07$
#429
1m
#430
17$
#436
b11111 b
1k
#437
b1000100010001000000000000000000000000000000000 "
b11111111 b
0k
#438
b1110001110111010010011110000000000010001000100010000000000000000 "
#439
b1110001110111010111000111011101011100011101110101110001110111010 "
b11111 ,$
15$
#440
b1000100010001000000000000000000000000000000000 J#
b11111111 ,$
05$
#441
0m
b1110010001100101010011110000000000010001000100010000000000000000 J#
#442
b1110010001100101111001000110010111100100011001011110010001100101 J#
07$
#444
1m
#445
17$
#451
b11111 b
1k
#452
b1000100010001000000000000000000000000000000000 "
b11111111 b
0k
#453
b1110001110111011010011110000000000010001000100010000000000000000 "
#454
b1110001110111011111000111011101111100011101110111110001110111011 "
b11111 ,$
15$
#455
b1000100010001000000000000000000000000000000000 J#
b11111111 ,$
05$
#456
0m
b1110010001100110010011110000000000010001000100010000000000000000 J#
#457
b1110010001100110111001000110011011100100011001101110010001100110 J#
07$
#459
1m
#460
17$
#466
b11111 b
1k
#467
b1000100010001000000000000000000000000000000000 "
b11111111 b
0k
#468
b1110001110111100010011110000000000010001000100010000000000000000 "
#469
b1110001110111100111000111011110011100011101111001110001110111100 "
b11111 ,$
15$
#470
b1000100010001000000000000000000000000000000000 J#
b11111111 ,$
05$
#471
0m
b1110010001100111010011110000000000010001000100010000000000000000 J#
#472
b1110010001100111111001000110011111100100011001111110010001100111 J#
07$
#474
1m
#475
17$
#481
b11111 b
1k
#482
b1000100010001000000000000000000000000000000000 "
b11111111 b
0k
#483
b1110001110111101010011110000000000010001000100010000000000000000 "
#484
b1110001110111101111000111011110111100011101111011110001110111101 "
b11111 ,$
15$
#485
b1000100010001000000000000000000000000000000000 J#
b11111111 ,$
05$
#486
0m
b1110010001101000010011110000000000010001000100010000000000000000 J#
#487
b1110010001101000111001000110100011100100011010001110010001101000 J#
07$
#489
1m
#490
17$
#496
b11111 b
1k
#497
b1000100010001000000000000000000000000000000000 "
b11111111 b
0k
#498
b1110001110111110010011110000000000010001000100010000000000000000 "
#499
b1110001110111110111000111011111011100011101111101110001110111110 "
b11111 ,$
15$
#500
b1000100010001000000000000000000000000000000000 J#
b11111111 ,$
05$
#501
0m
b1110010001101001010011110000000000010001000100010000000000000000 J#
#502
b1110010001101001111001000110100111100100011010011110010001101001 J#
07$
#504
1m
#505
17$
#511
b11111 b
1k
#512
b1000100010001000000000000000000000000000000000 "
b11111111 b
0k
#513
b1110001110111111010011110000000000010001000100010000000000000000 "
#514
b1110001110111111111000111011111111100011101111111110001110111111 "
b11111 ,$
15$
#515
b1000100010001000000000000000000000000000000000 J#
b11111111 ,$
05$
#516
0m
b1110010001101010010011110000000000010001000100010000000000000000 J#
#517
b1110010001101010111001000110101011100100011010101110010001101010 J#
07$
#519
1m
#520
17$
#526
b11111 b
1k
#527
b1000100010001000000000000000000000000000000000 "
b11111111 b
0k
#528
b1110001111000000010011110000000000010001000100010000000000000000 "
#529
b1110001111000000111000111100000011100011110000001110001111000000 "
b11111 ,$
15$
#530
b1000100010001000000000000000000000000000000000 J#
b11111111 ,$
05$
#531
0m
b1110010001101011010011110000000000010001000100010000000000000000 J#
#532
b1110010001101011111001000110101111100100011010111110010001101011 J#
07$
#534
1m
#535
17$
#541
b11111 b
1k
#542
b1000100010001000000000000000000000000000000000 "
b11111111 b
0k
#543
b1110001111000001010011110000000000010001000100010000000000000000 "
#544
b1110001111000001111000111100000111100011110000011110001111000001 "
b11111 ,$
15$
#545
b1000100010001000000000000000000000000000000000 J#
b11111111 ,$
05$
#546
0m
b1110010001101100010011110000000000010001000100010000000000000000 J#
#547
b1110010001101100111001000110110011100100011011001110010001101100 J#
07$
#549
1m
#550
17$
#556
b11111 b
1k
#557
b1000100010001000000000000000000000000000000000 "
b11111111 b
0k
#558
b1110001111000010010011110000000000010001000100010000000000000000 "
#559
b1110001111000010111000111100001011100011110000101110001111000010 "
b11111 ,$
15$
#560
b1000100010001000000000000000000000000000000000 J#
b11111111 ,$
05$
#561
0m
b1110010001101101010011110000000000010001000100010000000000000000 J#
#562
b1110010001101101111001000110110111100100011011011110010001101101 J#
07$
#564
1m
#565
17$
#571
b11111 b
1k
#572
b1000100010001000000000000000000000000000000000 "
b11111111 b
0k
#573
b1110001111000011010011110000000000010001000100010000000000000000 "
#574
b1110001111000011111000111100001111100011110000111110001111000011 "
b11111 ,$
15$
#575
b1000100010001000000000000000000000000000000000 J#
b11111111 ,$
05$
#576
0m
b1110010001101110010011110000000000010001000100010000000000000000 J#
#577
b1110010001101110111001000110111011100100011011101110010001101110 J#
07$
#579
1m
#580
17$
#586
b11111 b
1k
#587
b1000100010001000000000000000000000000000000000 "
b11111111 b
0k
#588
b1110001111000100010011110000000000010001000100010000000000000000 "
#589
b1110001111000100111000111100010011100011110001001110001111000100 "
b11111 ,$
15$
#590
b1000100010001000000000000000000000000000000000 J#
b11111111 ,$
05$
#591
0m
b1110010001101111010011110000000000010001000100010000000000000000 J#
#592
b1110010001101111111001000110111111100100011011111110010001101111 J#
07$
#594
1m
#595
17$
#601
b11111 b
1k
#602
b1000100010001000000000000000000000000000000000 "
b11111111 b
0k
#603
b1110001111000101010011110000000000010001000100010000000000000000 "
#604
b1110001111000101111000111100010111100011110001011110001111000101 "
b11111 ,$
15$
#605
b1000100010001000000000000000000000000000000000 J#
b11111111 ,$
05$
#606
0m
b1110010001110000010011110000000000010001000100010000000000000000 J#
#607
b1110010001110000111001000111000011100100011100001110010001110000 J#
07$
#609
1m
#610
17$
#616
b11111 b
1k
#617
b1000100010001000000000000000000000000000000000 "
b11111111 b
0k
#618
b1110001111000110010011110000000000010001000100010000000000000000 "
#619
b1110001111000110111000111100011011100011110001101110001111000110 "
b11111 ,$
15$
#620
b1000100010001000000000000000000000000000000000 J#
b11111111 ,$
05$
#621
0m
b1110010001110001010011110000000000010001000100010000000000000000 J#
#622
b1110010001110001111001000111000111100100011100011110010001110001 J#
07$
#624
1m
#625
17$
#631
b11111 b
1k
#632
b1000100010001000000000000000000000000000000000 "
b11111111 b
0k
#633
b1110001111000111010011110000000000010001000100010000000000000000 "
#634
b1110001111000111111000111100011111100011110001111110001111000111 "
b11111 ,$
15$
#635
b1000100010001000000000000000000000000000000000 J#
b11111111 ,$
05$
#636
0m
b1110010001110010010011110000000000010001000100010000000000000000 J#
#637
b1110010001110010111001000111001011100100011100101110010001110010 J#
07$
#639
1m
#640
17$
#646
b11111 b
1k
#647
b1000100010001000000000000000000000000000000000 "
b11111111 b
0k
#648
b1110001111001000010011110000000000010001000100010000000000000000 "
#649
b1110001111001000111000111100100011100011110010001110001111001000 "
b11111 ,$
15$
#650
b1000100010001000000000000000000000000000000000 J#
b11111111 ,$
05$
#651
0m
b1110010001110011010011110000000000010001000100010000000000000000 J#
#652
b1110010001110011111001000111001111100100011100111110010001110011 J#
07$
#654
1m
#655
17$
#661
b11111 b
1k
#662
b1000100010001000000000000000000000000000000000 "
b11111111 b
0k
#663
b1110001111001001010011110000000000010001000100010000000000000000 "
#664
b1110001111001001111000111100100111100011110010011110001111001001 "
b11111 ,$
15$
#665
b1000100010001000000000000000000000000000000000 J#
b11111111 ,$
05$
#666
0m
b1110010001110100010011110000000000010001000100010000000000000000 J#
#667
b1110010001110100111001000111010011100100011101001110010001110100 J#
07$
#669
1m
#670
17$
#676
b11111 b
1k
#677
b1000100010001000000000000000000000000000000000 "
b11111111 b
0k
#678
b1110001111001010010011110000000000010001000100010000000000000000 "
#679
b1110001111001010111000111100101011100011110010101110001111001010 "
b11111 ,$
15$
#680
b1000100010001000000000000000000000000000000000 J#
b11111111 ,$
05$
#681
0m
b1110010001110101010011110000000000010001000100010000000000000000 J#
#682
b1110010001110101111001000111010111100100011101011110010001110101 J#
07$
#684
1m
#685
17$
#691
b11111 b
1k
#692
b1000100010001000000000000000000000000000000000 "
b11111111 b
0k
#693
b1110001111001011010011110000000000010001000100010000000000000000 "
#694
b1110001111001011111000111100101111100011110010111110001111001011 "
b11111 ,$
15$
#695
b1000100010001000000000000000000000000000000000 J#
b11111111 ,$
05$
#696
0m
b1110010001110110010011110000000000010001000100010000000000000000 J#
#697
b1110010001110110111001000111011011100100011101101110010001110110 J#
07$
#699
1m
#700
17$
#706
b11111 b
1k
#707
b1000100010001000000000000000000000000000000000 "
b11111111 b
0k
#708
b1110001111001100010011110000000000010001000100010000000000000000 "
#709
b1110001111001100111000111100110011100011110011001110001111001100 "
b11111 ,$
15$
#710
b1000100010001000000000000000000000000000000000 J#
b11111111 ,$
05$
#711
0m
b1110010001110111010011110000000000010001000100010000000000000000 J#
#712
b1110010001110111111001000111011111100100011101111110010001110111 J#
07$
#714
1m
#715
17$
#721
b11111 b
1k
#722
b1000100010001000000000000000000000000000000000 "
b11111111 b
0k
#723
b1110001111001101010011110000000000010001000100010000000000000000 "
#724
b1110001111001101111000111100110111100011110011011110001111001101 "
b11111 ,$
15$
#725
b1000100010001000000000000000000000000000000000 J#
b11111111 ,$
05$
#726
0m
b1110010001111000010011110000000000010001000100010000000000000000 J#
#727
b1110010001111000111001000111100011100100011110001110010001111000 J#
07$
#729
1m
#730
17$
#736
b11111 b
1k
#737
b1000100010001000000000000000000000000000000000 "
b11111111 b
0k
#738
b1110001111001110010011110000000000010001000100010000000000000000 "
#739
b1110001111001110111000111100111011100011110011101110001111001110 "
b11111 ,$
15$
#740
b1000100010001000000000000000000000000000000000 J#
b11111111 ,$
05$
#741
0m
b1110010001111001010011110000000000010001000100010000000000000000 J#
#742
b1110010001111001111001000111100111100100011110011110010001111001 J#
07$
#744
1m
#745
17$
#751
b11111 b
1k
#752
b1000100010001000000000000000000000000000000000 "
b11111111 b
0k
#753
b1110001111001111010011110000000000010001000100010000000000000000 "
#754
b1110001111001111111000111100111111100011110011111110001111001111 "
b11111 ,$
15$
#755
b1000100010001000000000000000000000000000000000 J#
b11111111 ,$
05$
#756
0m
b1110010001111010010011110000000000010001000100010000000000000000 J#
#757
b1110010001111010111001000111101011100100011110101110010001111010 J#
07$
#759
1m
#760
17$
#766
b11111 b
1k
#767
b1000100010001000000000000000000000000000000000 "
b11111111 b
0k
#768
b1110001111010000010011110000000000010001000100010000000000000000 "
#769
b1110001111010000111000111101000011100011110100001110001111010000 "
b11111 ,$
15$
#770
b1000100010001000000000000000000000000000000000 J#
b11111111 ,$
05$
#771
0m
b1110010001111011010011110000000000010001000100010000000000000000 J#
#772
b1110010001111011111001000111101111100100011110111110010001111011 J#
07$
#774
1m
#775
17$
#781
b11111 b
1k
#782
b1000100010001000000000000000000000000000000000 "
b11111111 b
0k
#783
b1110001111010001010011110000000000010001000100010000000000000000 "
#784
b1110001111010001111000111101000111100011110100011110001111010001 "
b11111 ,$
15$
#785
b1000100010001000000000000000000000000000000000 J#
b11111111 ,$
05$
#786
0m
b1110010001111100010011110000000000010001000100010000000000000000 J#
#787
b1110010001111100111001000111110011100100011111001110010001111100 J#
07$
#789
1m
#790
17$
#796
b11111 b
1k
#797
b1000100010001000000000000000000000000000000000 "
b11111111 b
0k
#798
b1110001111010010010011110000000000010001000100010000000000000000 "
#799
b1110001111010010111000111101001011100011110100101110001111010010 "
b11111 ,$
15$
#800
b1000100010001000000000000000000000000000000000 J#
b11111111 ,$
05$
#801
0m
b1110010001111101010011110000000000010001000100010000000000000000 J#
#802
b1110010001111101111001000111110111100100011111011110010001111101 J#
07$
#804
1m
#805
17$
#811
b11111 b
1k
#812
b1000100010001000000000000000000000000000000000 "
b11111111 b
0k
#813
b1110001111010011010011110000000000010001000100010000000000000000 "
#814
b1110001111010011111000111101001111100011110100111110001111010011 "
b11111 ,$
15$
#815
b1000100010001000000000000000000000000000000000 J#
b11111111 ,$
05$
#816
0m
b1110010001111110010011110000000000010001000100010000000000000000 J#
#817
b1110010001111110111001000111111011100100011111101110010001111110 J#
07$
#819
1m
#820
17$
#826
b11111 b
1k
#827
b1000100010001000000000000000000000000000000000 "
b11111111 b
0k
#828
b1110001111010100010011110000000000010001000100010000000000000000 "
#829
b1110001111010100111000111101010011100011110101001110001111010100 "
b11111 ,$
15$
#830
b1000100010001000000000000000000000000000000000 J#
b11111111 ,$
05$
#831
0m
b1110010001111111010011110000000000010001000100010000000000000000 J#
#832
b1110010001111111111001000111111111100100011111111110010001111111 J#
07$
#834
1m
#835
17$
#841
b11111 b
1k
#842
b1000100010001000000000000000000000000000000000 "
b11111111 b
0k
#843
b1110001111010101010011110000000000010001000100010000000000000000 "
#844
b1110001111010101111000111101010111100011110101011110001111010101 "
b11111 ,$
15$
#845
b1000100010001000000000000000000000000000000000 J#
b11111111 ,$
05$
#846
0m
b1110010010000000010011110000000000010001000100010000000000000000 J#
#847
b1110010010000000111001001000000011100100100000001110010010000000 J#
07$
#849
1m
#850
17$
#856
b11111 b
1k
#857
b1000100010001000000000000000000000000000000000 "
b11111111 b
0k
#858
b1110001111010110010011110000000000010001000100010000000000000000 "
#859
b1110001111010110111000111101011011100011110101101110001111010110 "
b11111 ,$
15$
#860
b1000100010001000000000000000000000000000000000 J#
b11111111 ,$
05$
#861
0m
b1110010010000001010011110000000000010001000100010000000000000000 J#
#862
b1110010010000001111001001000000111100100100000011110010010000001 J#
07$
#864
1m
#865
17$
#871
b11111 b
1k
#872
b1000100010001000000000000000000000000000000000 "
b11111111 b
0k
#873
b1110001111010111010011110000000000010001000100010000000000000000 "
#874
b1110001111010111111000111101011111100011110101111110001111010111 "
b11111 ,$
15$
#875
b1000100010001000000000000000000000000000000000 J#
b11111111 ,$
05$
#876
0m
b1110010010000010010011110000000000010001000100010000000000000000 J#
#877
b1110010010000010111001001000001011100100100000101110010010000010 J#
07$
#879
1m
#880
17$
#886
b11111 b
1k
