kcu105_10gbaser_trd/hardware/vivado/runs/impl_run/.Xil/Vivado-15056-DESKTOP-4A374NS/hw_ila_data_5/zip_work/waveform.vcd
$date
        2019-Nov-21 17:47:06
$end
$version
        Vivado v2019.2 (64-bit)
$end
$timescale
        1ps
$end
$scope module dut $end
$var reg 64 " mac_phy_wrapper_i/mac_phy_i/system_ila_mac_phy2/inst/net_slot_0_axis_tdata [63:0] $end
$var reg 8 b mac_phy_wrapper_i/mac_phy_i/system_ila_mac_phy2/inst/net_slot_0_axis_tkeep [7:0] $end
$var reg 1 j mac_phy_wrapper_i/mac_phy_i/system_ila_mac_phy2/inst/net_slot_0_axis_tuser $end
$var reg 1 k mac_phy_wrapper_i/mac_phy_i/system_ila_mac_phy2/inst/net_slot_0_axis_tvalid $end
$var reg 1 l mac_phy_wrapper_i/mac_phy_i/system_ila_mac_phy2/inst/net_slot_0_axis_tready $end
$var reg 1 m mac_phy_wrapper_i/mac_phy_i/system_ila_mac_phy2/inst/net_slot_0_axis_tlast $end
$var reg 64 n mac_phy_wrapper_i/mac_phy_i/system_ila_mac_phy2/inst/net_slot_1_axis_tdata [63:0] $end
$var reg 8 P" mac_phy_wrapper_i/mac_phy_i/system_ila_mac_phy2/inst/net_slot_1_axis_tkeep [7:0] $end
$var reg 1 X" mac_phy_wrapper_i/mac_phy_i/system_ila_mac_phy2/inst/net_slot_1_axis_tuser $end
$var reg 1 Y" mac_phy_wrapper_i/mac_phy_i/system_ila_mac_phy2/inst/net_slot_1_axis_tvalid $end
$var reg 1 Z" mac_phy_wrapper_i/mac_phy_i/system_ila_mac_phy2/inst/net_slot_1_axis_tlast $end
$var reg 64 [" mac_phy_wrapper_i/mac_phy_i/system_ila_mac_phy2/inst/net_slot_2_axis_tdata [63:0] $end
$var reg 8 =# mac_phy_wrapper_i/mac_phy_i/system_ila_mac_phy2/inst/net_slot_2_axis_tkeep [7:0] $end
$var reg 1 E# mac_phy_wrapper_i/mac_phy_i/system_ila_mac_phy2/inst/net_slot_2_axis_tuser $end
$var reg 1 F# mac_phy_wrapper_i/mac_phy_i/system_ila_mac_phy2/inst/net_slot_2_axis_tvalid $end
$var reg 1 G# mac_phy_wrapper_i/mac_phy_i/system_ila_mac_phy2/inst/net_slot_2_axis_tready $end
$var reg 1 H# mac_phy_wrapper_i/mac_phy_i/system_ila_mac_phy2/inst/net_slot_2_axis_tlast $end
$var reg 64 I# mac_phy_wrapper_i/mac_phy_i/system_ila_mac_phy2/inst/net_slot_3_axis_tdata [63:0] $end
$var reg 8 +$ mac_phy_wrapper_i/mac_phy_i/system_ila_mac_phy2/inst/net_slot_3_axis_tkeep [7:0] $end
$var reg 1 3$ mac_phy_wrapper_i/mac_phy_i/system_ila_mac_phy2/inst/net_slot_3_axis_tuser $end
$var reg 1 4$ mac_phy_wrapper_i/mac_phy_i/system_ila_mac_phy2/inst/net_slot_3_axis_tvalid $end
$var reg 1 5$ mac_phy_wrapper_i/mac_phy_i/system_ila_mac_phy2/inst/net_slot_3_axis_tlast $end
$var reg 3 6$ Interface__i5_s0___s_axis_tx_0_1_ [2:0] $end
$var reg 3 9$ Interface__i5_s1___mac_phy_ch0_m_axis_rx_ [2:0] $end
$var reg 3 <$ Interface__i5_s2___s_axis_tx_1_1_ [2:0] $end
$var reg 3 ?$ Interface__i5_s3___mac_phy_ch1_m_axis_rx_ [2:0] $end
$var reg 3 B$ T_Channel__i5_s0___s_axis_tx_0_1_ [2:0] $end
$var reg 3 E$ T_Channel__i5_s1___mac_phy_ch0_m_axis_rx_ [2:0] $end
$var reg 3 H$ T_Channel__i5_s2___s_axis_tx_1_1_ [2:0] $end
$var reg 3 K$ T_Channel__i5_s3___mac_phy_ch1_m_axis_rx_ [2:0] $end
$var reg 1 N$ _TRIGGER $end
$var reg 1 O$ _WINDOW $end
$var reg 1 P$ _GAP $end
$upscope $end
$enddefinitions $end
#0
$dumpvars
b1111101001010101010011110000000000010001000100010000000000000000 "
b11111111 b
0j
1k
1l
0m
b1001011111011001100101111101100110010111110110011001011111011001 n
b11111111 P"
0X"
1Y"
0Z"
b1001011111011100100101111101110010010111110111001001011111011100 ["
b11111111 =#
0E#
1F#
0G#
0H#
b10100100 I#
b11111 +$
03$
04$
05$
b0 6$
b0 9$
b0 <$
b0 ?$
b0 B$
b0 E$
b0 H$
b0 K$
0N$
1O$
0P$
$end
#1
b1111101001010101111110100101010111111010010101011111101001010101 "
b1000100010001000000000000000000000000000000000 I#
b11111111 +$
14$
b1 6$
b1 9$
b1 ?$
b1 B$
b1 E$
b1 K$
#2
b1111101001010001010011110000000000010001000100010000000000000000 I#
#3
0l
1G#
b1111101001010001111110100101000111111010010100011111101001010001 I#
b0 6$
b1 <$
b0 B$
b1 H$
#6
1l
b1 6$
b1 B$
#12
b11011010101000100000100010011001110110011001011111011001 n
b111 P"
1X"
1Z"
b110111010100011011111110101000111111010010100011111101001010001 I#
b11111 +$
13$
15$
b10 E$
b10 K$
#13
b11111 b
1m
b0 n
0X"
0Y"
0Z"
b10011101 I#
03$
04$
05$
b0 9$
b0 ?$
b10 B$
b0 E$
b0 K$
#14
b1000100010001000000000000000000000000000000000 "
b11111111 b
0m
b1 B$
#15
b1111101001010110010011110000000000010001000100010000000000000000 "
#16
b1111101001010110111110100101011011111010010101101111101001010110 "
b1000100010001000000000000000000000000000000000 n
b11111111 P"
1Y"
b111 =#
1H#
b1000100010001000000000000000000000000000000000 I#
b11111111 +$
14$
b1 9$
b1 ?$
b1 E$
b10 H$
b1 K$
#17
b1001011111011010011111010000000000010001000100010000000000000000 n
b1000100010001000000000000000000000000000000000 ["
b11111111 =#
0H#
b1111101001010010010011110000000000010001000100010000000000000000 I#
b1 H$
#18
0l
b1001011111011010100101111101101010010111110110101001011111011010 n
b1001011111011101011111010000000000010001000100010000000000000000 ["
b1111101001010010111110100101001011111010010100101111101001010010 I#
b0 6$
b0 B$
#19
b1001011111011101100101111101110110010111110111011001011111011101 ["
#21
1l
0G#
b1 6$
b0 <$
b1 B$
b0 H$
#23
1G#
b1 <$
b1 H$
#27
b1111011000100010011000100101001011111010010100101111101001010010 I#
b11111 +$
13$
15$
b10 K$
#28
b11111 b
1m
b11010111 I#
03$
04$
05$
b0 ?$
b10 B$
b0 K$
#29
b1000100010001000000000000000000000000000000000 "
b11111111 b
0m
b1 B$
#30
b1111101001010111010011110000000000010001000100010000000000000000 "
#31
b1111101001010111111110100101011111111010010101111111101001010111 "
b1000100010001000000000000000000000000000000000 I#
b11111111 +$
14$
b1 ?$
b1 K$
#32
b1111101001010011010011110000000000010001000100010000000000000000 I#
#33
0l
b11011101110000011111001000001110110101001011111011010 n
b111 P"
1X"
1Z"
b1111101001010011111110100101001111111010010100111111101001010011 I#
b0 6$
b0 B$
b10 E$
#34
b101010101010101010101010000000000000000000000000000000000000000 n
b1 P"
0X"
0Y"
0Z"
b0 9$
b0 E$
#36
1l
b1000100010001000000000000000000000000000000000 n
b11111111 P"
1Y"
b111 =#
1H#
b1 6$
b1 9$
b1 B$
b1 E$
b10 H$
#37
b1001011111011011011111010000000000010001000100010000000000000000 n
b1000100010001000000000000000000000000000000000 ["
b11111111 =#
0H#
b1 H$
#38
b1001011111011011100101111101101110010111110110111001011111011011 n
b1001011111011110011111010000000000010001000100010000000000000000 ["
#39
b1001011111011110100101111101111010010111110111101001011111011110 ["
#41
0G#
b0 <$
b0 H$
#42
b111111001011101011010010101001111111010010100111111101001010011 I#
b11111 +$
13$
15$
b10 K$
#43
b11111 b
1m
b11101110 I#
03$
04$
05$
b0 ?$
b10 B$
b0 K$
#44
b1000100010001000000000000000000000000000000000 "
b11111111 b
0m
1G#
b1 <$
b1 B$
b1 H$
#45
b1111101001011000010011110000000000010001000100010000000000000000 "
#46
b1111101001011000111110100101100011111010010110001111101001011000 "
b1000100010001000000000000000000000000000000000 I#
b11111111 +$
14$
b1 ?$
b1 K$
#47
b1111101001010100010011110000000000010001000100010000000000000000 I#
#48
0l
b1111101001010100111110100101010011111010010101001111101001010100 I#
b0 6$
b0 B$
#51
1l
b1 6$
b1 B$
#53
b1011011010011100010110000001001110110111001011111011011 n
b111 P"
1X"
1Z"
b10 E$
#54
b0 n
0X"
0Y"
0Z"
b0 9$
b0 E$
#57
b1000100010001000000000000000000000000000000000 n
b11111111 P"
1Y"
b111 =#
1H#
b1100011100100000010110000101010011111010010101001111101001010100 I#
b11111 +$
13$
15$
b1 9$
b1 E$
b10 H$
b10 K$
#58
b11111 b
1m
b1001011111011100011111010000000000010001000100010000000000000000 n
b1000100010001000000000000000000000000000000000 ["
b11111111 =#
0H#
b1000010 I#
03$
04$
05$
b0 ?$
b10 B$
b1 H$
b0 K$
#59
b1000100010001000000000000000000000000000000000 "
b11111111 b
0m
b1001011111011100100101111101110010010111110111001001011111011100 n
b1001011111011111011111010000000000010001000100010000000000000000 ["
b1 B$
#60
b1111101001011001010011110000000000010001000100010000000000000000 "
b1001011111011111100101111101111110010111110111111001011111011111 ["
#61
b1111101001011001111110100101100111111010010110011111101001011001 "
#62
0G#
b1000100010001000000000000000000000000000000000 I#
b11111111 +$
14$
b0 <$
b1 ?$
b0 H$
b1 K$
#63
0l
b1111101001010101010011110000000000010001000100010000000000000000 I#
b0 6$
b0 B$
#64
1G#
b1111101001010101111110100101010111111010010101011111101001010101 I#
b1 <$
b1 H$
#66
1l
b1 6$
b1 B$
#73
b11111 b
1m
b100111101011111010100110101010111111010010101011111101001010101 I#
b11111 +$
13$
15$
b10 B$
b10 K$
#74
b1000100010001000000000000000000000000000000000 "
b11111111 b
0m
b1000010111111010101010110110000110111001001011111011100 n
b111 P"
1X"
1Z"
b1111011 I#
b1 +$
03$
04$
05$
b0 ?$
b1 B$
b10 E$
b0 K$
#75
b1111101001011010010011110000000000010001000100010000000000000000 "
b0 n
0X"
0Y"
0Z"
b0 9$
b0 E$
#76
b1111101001011010111110100101101011111010010110101111101001011010 "
b1000100010001000000000000000000000000000000000 I#
b11111111 +$
14$
b1 ?$
b1 K$
#77
b111 =#
1H#
b1111101001010110010011110000000000010001000100010000000000000000 I#
b10 H$
#78
0l
b1000100010001000000000000000000000000000000000 n
b11111111 P"
1Y"
b1000100010001000000000000000000000000000000000 ["
b11111111 =#
0H#
b1111101001010110111110100101011011111010010101101111101001010110 I#
b0 6$
b1 9$
b0 B$
b1 E$
b1 H$
#79
b1001011111011101011111010000000000010001000100010000000000000000 n
b1001011111100000011111010000000000010001000100010000000000000000 ["
#80
b1001011111011101100101111101110110010111110111011001011111011101 n
b1001011111100000100101111110000010010111111000001001011111100000 ["
#81
1l
b1 6$
b1 B$
#82
0G#
b0 <$
b0 H$
#85
1G#
b1 <$
b1 H$
#87
b1101011111011110010011100101011011111010010101101111101001010110 I#
b11111 +$
13$
15$
b10 K$
#88
b11111 b
1m
b110001 I#
03$
04$
05$
b0 ?$
b10 B$
b0 K$
#89
b1000100010001000000000000000000000000000000000 "
b11111111 b
0m
b1 B$
#90
b1111101001011011010011110000000000010001000100010000000000000000 "
#91
b1111101001011011111110100101101111111010010110111111101001011011 "
b1000100010001000000000000000000000000000000000 I#
b11111111 +$
14$
b1 ?$
b1 K$
#92
b1111101001010111010011110000000000010001000100010000000000000000 I#
#93
0l
b1111101001010111111110100101011111111010010101111111101001010111 I#
b0 6$
b0 B$
#95
b10000010110100011111111000110111011001011111011101 n
b111 P"
1X"
1Z"
b10 E$
#96
1l
b101010101010101010101010000000000000000000000000000000000000000 n
b1 P"
0X"
0Y"
0Z"
b1 6$
b0 9$
b1 B$
b0 E$
#98
b1000100010001000000000000000000000000000000000 n
b11111111 P"
1Y"
b111 =#
1H#
b1 9$
b1 E$
b10 H$
#99
b1001011111011110011111010000000000010001000100010000000000000000 n
b1000100010001000000000000000000000000000000000 ["
b11111111 =#
0H#
b1 H$
#100
b1001011111011110100101111101111010010111110111101001011111011110 n
b1001011111100001011111010000000000010001000100010000000000000000 ["
#101
b1001011111100001100101111110000110010111111000011001011111100001 ["
#102
b101111110100001010001010101011111111010010101111111101001010111 I#
b11111 +$
13$
15$
b10 K$
#103
b11111 b
1m
0G#
b1000 I#
b1 +$
03$
04$
05$
b0 <$
b0 ?$
b10 B$
b0 H$
b0 K$
#104
b1000100010001000000000000000000000000000000000 "
b11111111 b
0m
b1 B$
#105
b1111101001011100010011110000000000010001000100010000000000000000 "
1G#
b1000100010001000000000000000000000000000000000 I#
b11111111 +$
14$
b1 <$
b1 ?$
b1 H$
b1 K$
#106
b1111101001011100111110100101110011111010010111001111101001011100 "
b1111101001011000010011110000000000010001000100010000000000000000 I#
#107
b1111101001011000111110100101100011111010010110001111101001011000 I#
#108
0l
b0 6$
b0 B$
#111
1l
b1 6$
b1 B$
#115
b11000011000100010111000100100000110111101001011111011110 n
b111 P"
1X"
1Z"
b10 E$
#116
b0 n
b1 P"
0X"
0Y"
0Z"
b1101010000100010011011010101100011111010010110001111101001011000 I#
b11111 +$
13$
15$
b0 9$
b0 E$
b10 K$
#117
b10110011 I#
03$
04$
05$
b0 ?$
b0 K$
#118
b11111 b
1m
b1000100010001000000000000000000000000000000000 n
b11111111 P"
1Y"
b111 =#
1H#
b1 9$
b10 B$
b1 E$
b10 H$
#119
b1000100010001000000000000000000000000000000000 "
b11111111 b
0m
b1001011111011111011111010000000000010001000100010000000000000000 n
b1000100010001000000000000000000000000000000000 ["
b11111111 =#
0H#
b1 B$
b1 H$
#120
b1111101001011101010011110000000000010001000100010000000000000000 "
b1001011111011111100101111101111110010111110111111001011111011111 n
b1001011111100010011111010000000000010001000100010000000000000000 ["
b1000100010001000000000000000000000000000000000 I#
b11111111 +$
14$
b1 ?$
b1 K$
#121
b1111101001011101111110100101110111111010010111011111101001011101 "
b1001011111100010100101111110001010010111111000101001011111100010 ["
b1111101001011001010011110000000000010001000100010000000000000000 I#
#122
b1111101001011001111110100101100111111010010110011111101001011001 I#
#123
0l
0G#
b0 6$
b0 <$
b0 B$
b0 H$
#126
1l
1G#
b1 6$
b1 <$
b1 B$
b1 H$
#131
b101110001011101011001100101100111111010010110011111101001011001 I#
b11111 +$
13$
15$
b10 K$
#132
b10001010 I#
03$
04$
05$
b0 ?$
b0 K$
#133
b11111 b
1m
b10 B$
#134
b1000100010001000000000000000000000000000000000 "
b11111111 b
0m
b1 B$
#135
b1111101001011110010011110000000000010001000100010000000000000000 "
b10000011111001110110001101101000110111111001011111011111 n
b111 P"
1X"
1Z"
b10 E$
#136
b1111101001011110111110100101111011111010010111101111101001011110 "
b0 n
0X"
0Y"
0Z"
b1000100010001000000000000000000000000000000000 I#
b11111111 +$
14$
b0 9$
b1 ?$
b0 E$
b1 K$
#137
b1111101001011010010011110000000000010001000100010000000000000000 I#
#138
0l
b1111101001011010111110100101101011111010010110101111101001011010 I#
b0 6$
b0 B$
#139
b1000100010001000000000000000000000000000000000 n
b11111111 P"
1Y"
b111 =#
1H#
b1 9$
b1 E$
b10 H$
#140
b1001011111100000011111010000000000010001000100010000000000000000 n
b1000100010001000000000000000000000000000000000 ["
b11111111 =#
0H#
b1 H$
#141
1l
b1001011111100000100101111110000010010111111000001001011111100000 n
b1001011111100011011111010000000000010001000100010000000000000000 ["
b1 6$
b1 B$
#142
b1001011111100011100101111110001110010111111000111001011111100011 ["
#144
0G#
b0 <$
b0 H$
#146
1G#
b1 <$
b1 H$
#147
b1100010011011100011110110101101011111010010110101111101001011010 I#
b11111 +$
13$
15$
b10 K$
#148
b11111 b
1m
b11000000 I#
03$
04$
05$
b0 ?$
b10 B$
b0 K$
#149
b1000100010001000000000000000000000000000000000 "
b11111111 b
0m
b1 B$
#150
b1111101001011111010011110000000000010001000100010000000000000000 "
#151
b1111101001011111111110100101111111111010010111111111101001011111 "
b1000100010001000000000000000000000000000000000 I#
b11111111 +$
14$
b1 ?$
b1 K$
#152
b1111101001011011010011110000000000010001000100010000000000000000 I#
#153
0l
b1111101001011011111110100101101111111010010110111111101001011011 I#
b0 6$
b0 B$
#156
1l
b1010111110011111101011100011001111000001001011111100000 n
b111 P"
1X"
1Z"
b1 6$
b1 B$
b10 E$
#157
b101010101010101010101010000000000000000000000000000000000000000 n
b1 P"
0X"
0Y"
0Z"
b0 9$
b0 E$
#159
b1000100010001000000000000000000000000000000000 n
b11111111 P"
1Y"
b111 =#
1H#
b1 9$
b1 E$
b10 H$
#160
b1001011111100001011111010000000000010001000100010000000000000000 n
b1000100010001000000000000000000000000000000000 ["
b11111111 =#
0H#
b1 H$
#161
b1001011111100001100101111110000110010111111000011001011111100001 n
b1001011111100100011111010000000000010001000100010000000000000000 ["
#162
b1001011111100100100101111110010010010111111001001001011111100100 ["
b100110010100011011100000101101111111010010110111111101001011011 I#
b11111 +$
13$
15$
b10 K$
#163
b11111 b
1m
b11111001 I#
03$
04$
05$
b0 ?$
b10 B$
b0 K$
#164
b1000100010001000000000000000000000000000000000 "
b11111111 b
0m
0G#
b0 <$
b1 B$
b0 H$
#165
b1111101001100000010011110000000000010001000100010000000000000000 "
#166
b1111101001100000111110100110000011111010011000001111101001100000 "
b1000100010001000000000000000000000000000000000 I#
b11111111 +$
14$
b1 ?$
b1 K$
#167
1G#
b1111101001011100010011110000000000010001000100010000000000000000 I#
b1 <$
b1 H$
#168
0l
b1111101001011100111110100101110011111010010111001111101001011100 I#
b0 6$
b0 B$
#171
1l
b1 6$
b1 B$
#176
b10111001110011100010101010001111000011001011111100001 n
b111 P"
1X"
1Z"
b10 E$
#177
b0 n
0X"
0Y"
0Z"
b1111010111011110010000010101110011111010010111001111101001011100 I#
b11111 +$
13$
15$
b0 9$
b0 E$
b10 K$
#178
b11111 b
1m
b1010101 I#
03$
04$
05$
b0 ?$
b10 B$
b0 K$
#179
b1000100010001000000000000000000000000000000000 "
b11111111 b
0m
b1 B$
#180
b1111101001100001010011110000000000010001000100010000000000000000 "
b1000100010001000000000000000000000000000000000 n
b11111111 P"
1Y"
b111 =#
1H#
b1 9$
b1 E$
b10 H$
#181
b1111101001100001111110100110000111111010011000011111101001100001 "
b1001011111100010011111010000000000010001000100010000000000000000 n
b1000100010001000000000000000000000000000000000 ["
b11111111 =#
0H#
b1000100010001000000000000000000000000000000000 I#
b11111111 +$
14$
b1 ?$
b1 H$
b1 K$
#182
b1001011111100010100101111110001010010111111000101001011111100010 n
b1001011111100101011111010000000000010001000100010000000000000000 ["
b1111101001011101010011110000000000010001000100010000000000000000 I#
#183
0l
b1001011111100101100101111110010110010111111001011001011111100101 ["
b1111101001011101111110100101110111111010010111011111101001011101 I#
b0 6$
b0 B$
#185
0G#
b0 <$
b0 H$
#186
1l
b1 6$
b1 B$
#187
1G#
b1 <$
b1 H$
#192
b111110110100001010010100101110111111010010111011111101001011101 I#
b11111 +$
13$
15$
b10 K$
#193
b11111 b
1m
b1101100 I#
03$
04$
05$
b0 ?$
b10 B$
b0 K$
#194
b1000100010001000000000000000000000000000000000 "
b11111111 b
0m
b1 B$
#195
b1111101001100010010011110000000000010001000100010000000000000000 "
#196
b1111101001100010111110100110001011111010011000101111101001100010 "
#197
b11010110001000111111001110001001111000101001011111100010 n
b111 P"
1X"
1Z"
b1000100010001000000000000000000000000000000000 I#
b11111111 +$
14$
b1 ?$
b10 E$
b1 K$
#198
0l
b0 n
0X"
0Y"
0Z"
b1111101001011110010011110000000000010001000100010000000000000000 I#
b0 6$
b0 9$
b0 B$
b0 E$
#199
b1111101001011110111110100101111011111010010111101111101001011110 I#
#200
b111 =#
1H#
b10 H$
#201
1l
b1000100010001000000000000000000000000000000000 n
b11111111 P"
1Y"
b1000100010001000000000000000000000000000000000 ["
b11111111 =#
0H#
b1 6$
b1 9$
b1 B$
b1 E$
b1 H$
#202
b1001011111100011011111010000000000010001000100010000000000000000 n
b1001011111100110011111010000000000010001000100010000000000000000 ["
#203
b1001011111100011100101111110001110010111111000111001011111100011 n
b1001011111100110100101111110011010010111111001101001011111100110 ["
#205
0G#
b0 <$
b0 H$
#208
b11111 b
1m
1G#
b1110010100100000010101110101111011111010010111101111101001011110 I#
b11111 +$
13$
15$
b1 <$
b10 B$
b1 H$
b10 K$
#209
b1000100010001000000000000000000000000000000000 "
b11111111 b
0m
b100110 I#
b1 +$
03$
04$
05$
b0 ?$
b1 B$
b0 K$
#210
b1111101001100011010011110000000000010001000100010000000000000000 "
#211
b1111101001100011111110100110001111111010011000111111101001100011 "
b1000100010001000000000000000000000000000000000 I#
b11111111 +$
14$
b1 ?$
b1 K$
#212
b1111101001011111010011110000000000010001000100010000000000000000 I#
#213
0l
b1111101001011111111110100101111111111010010111111111101001011111 I#
b0 6$
b0 B$
#216
1l
b1 6$
b1 B$
#218
b10010110110101011110000111000001111000111001011111100011 n
b111 P"
1X"
1Z"
b10 E$
#219
b101010101010101010101010000000000000000000000000000000000000000 n
b1 P"
0X"
0Y"
0Z"
b0 9$
b0 E$
#221
b1000100010001000000000000000000000000000000000 n
b11111111 P"
1Y"
b111 =#
1H#
b1 9$
b1 E$
b10 H$
#222
b1001011111100100011111010000000000010001000100010000000000000000 n
b1000100010001000000000000000000000000000000000 ["
b11111111 =#
0H#
b110110101011111010111000101111111111010010111111111101001011111 I#
b11111 +$
13$
15$
b1 H$
b10 K$
#223
b11111 b
1m
b1001011111100100100101111110010010010111111001001001011111100100 n
b1001011111100111011111010000000000010001000100010000000000000000 ["
b11111 I#
03$
04$
05$
b0 ?$
b10 B$
b0 K$
#224
b1000100010001000000000000000000000000000000000 "
b11111111 b
0m
b1001011111100111100101111110011110010111111001111001011111100111 ["
b1 B$
#225
b1111101001100100010011110000000000010001000100010000000000000000 "
#226
b1111101001100100111110100110010011111010011001001111101001100100 "
0G#
b1000100010001000000000000000000000000000000000 I#
b11111111 +$
14$
b0 <$
b1 ?$
b0 H$
b1 K$
#227
b1111101001100000010011110000000000010001000100010000000000000000 I#
#228
0l
1G#
b1111101001100000111110100110000011111010011000001111101001100000 I#
b0 6$
b1 <$
b0 B$
b1 H$
#231
1l
b1 6$
b1 B$
#237
b100100011011000001000100110000011111010011000001111101001100000 I#
b11111 +$
13$
15$
b10 K$
#238
b11111 b
1m
b10001111011001101001100001111000111001001001011111100100 n
b111 P"
1X"
1Z"
b11010110 I#
b1 +$
03$
04$
05$
b0 ?$
b10 B$
b10 E$
b0 K$
#239
b1000100010001000000000000000000000000000000000 "
b11111111 b
0m
b0 n
b1 P"
0X"
0Y"
0Z"
b0 9$
b1 B$
b0 E$
#240
b1111101001100101010011110000000000010001000100010000000000000000 "
b1000100010001000000000000000000000000000000000 I#
b11111111 +$
14$
b1 ?$
b1 K$
#241
b1111101001100101111110100110010111111010011001011111101001100101 "
b1000100010001000000000000000000000000000000000 n
b11111111 P"
1Y"
b111 =#
1H#
b1111101001100001010011110000000000010001000100010000000000000000 I#
b1 9$
b1 E$
b10 H$
#242
b1001011111100101011111010000000000010001000100010000000000000000 n
b1000100010001000000000000000000000000000000000 ["
b11111111 =#
0H#
b1111101001100001111110100110000111111010011000011111101001100001 I#
b1 H$
#243
0l
b1001011111100101100101111110010110010111111001011001011111100101 n
b1001011111101000011111010000000000010001000100010000000000000000 ["
b0 6$
b0 B$
#244
b1001011111101000100101111110100010010111111010001001011111101000 ["
#246
1l
0G#
b1 6$
b0 <$
b1 B$
b0 H$
#249
1G#
b1 <$
b1 H$
#251
b1100000010100111001010010110000111111010011000011111101001100001 I#
b11111 +$
13$
15$
b10 K$
#252
b11101111 I#
03$
04$
05$
b0 ?$
b0 K$
#253
b11111 b
1m
b10 B$
#254
b1000100010001000000000000000000000000000000000 "
b11111111 b
0m
b1 B$
#255
b1111101001100110010011110000000000010001000100010000000000000000 "
b1000100010001000000000000000000000000000000000 I#
b11111111 +$
14$
b1 ?$
b1 K$
#256
b1111101001100110111110100110011011111010011001101111101001100110 "
b1111101001100010010011110000000000010001000100010000000000000000 I#
#257
b1111101001100010111110100110001011111010011000101111101001100010 I#
#258
0l
b11001111100100001000101000110000111001011001011111100101 n
b111 P"
1X"
1Z"
b0 6$
b0 B$
b10 E$
#259
b0 n
0X"
0Y"
0Z"
b0 9$
b0 E$
#261
1l
b1 6$
b1 B$
#262
b1000100010001000000000000000000000000000000000 n
b11111111 P"
1Y"
b111 =#
1H#
b1 9$
b1 E$
b10 H$
#263
b1001011111100110011111010000000000010001000100010000000000000000 n
b1000100010001000000000000000000000000000000000 ["
b11111111 =#
0H#
b1 H$
#264
b1001011111100110100101111110011010010111111001101001011111100110 n
b1001011111101001011111010000000000010001000100010000000000000000 ["
#265
b1001011111101001100101111110100110010111111010011001011111101001 ["
#266
b101100000100110001101000110001011111010011000101111101001100010 I#
b11111 +$
13$
15$
b10 K$
#267
0G#
b10100101 I#
03$
04$
05$
b0 <$
b0 ?$
b0 H$
b0 K$
#268
b11111 b
1m
b10 B$
#269
b1000100010001000000000000000000000000000000000 "
b11111111 b
0m
1G#
b1 <$
b1 B$
b1 H$
#270
b1111101001100111010011110000000000010001000100010000000000000000 "
#271
b1111101001100111111110100110011111111010011001111111101001100111 "
b1000100010001000000000000000000000000000000000 I#
b11111111 +$
14$
b1 ?$
b1 K$
#272
b1111101001100011010011110000000000010001000100010000000000000000 I#
#273
0l
b1111101001100011111110100110001111111010011000111111101001100011 I#
b0 6$
b0 B$
#276
1l
b1 6$
b1 B$
#279
b1110100010101011110011101000111001101001011111100110 n
b111 P"
1X"
1Z"
b10 E$
#280
b101010101010101010101010000000000000000000000000000000000000000 n
b1 P"
0X"
0Y"
0Z"
b0 9$
b0 E$
#282
b1000100010001000000000000000000000000000000000 n
b11111111 P"
1Y"
b111 =#
1H#
b1101000001011001001111110110001111111010011000111111101001100011 I#
b11111 +$
13$
15$
b1 9$
b1 E$
b10 H$
b10 K$
#283
b11111 b
1m
b1001011111100111011111010000000000010001000100010000000000000000 n
b1000100010001000000000000000000000000000000000 ["
b11111111 =#
0H#
b10011100 I#
03$
04$
05$
b0 ?$
b10 B$
b1 H$
b0 K$
#284
b1000100010001000000000000000000000000000000000 "
b11111111 b
0m
b1001011111100111100101111110011110010111111001111001011111100111 n
b1001011111101010011111010000000000010001000100010000000000000000 ["
b1 B$
#285
b1111101001101000010011110000000000010001000100010000000000000000 "
b1001011111101010100101111110101010010111111010101001011111101010 ["
#286
b1111101001101000111110100110100011111010011010001111101001101000 "
b1000100010001000000000000000000000000000000000 I#
b11111111 +$
14$
b1 ?$
b1 K$
#287
0G#
b1111101001100100010011110000000000010001000100010000000000000000 I#
b0 <$
b0 H$
#288
0l
b1111101001100100111110100110010011111010011001001111101001100100 I#
b0 6$
b0 B$
#290
1G#
b1 <$
b1 H$
#291
1l
b1 6$
b1 B$
#297
b110100100100100000011100110010011111010011001001111101001100100 I#
b11111 +$
13$
15$
b10 K$
#298
b11111 b
1m
b110000 I#
03$
04$
05$
b0 ?$
b10 B$
b0 K$
#299
b1000100010001000000000000000000000000000000000 "
b11111111 b
0m
b1001110011111001010111010100000111001111001011111100111 n
b111 P"
1X"
1Z"
b1 B$
b10 E$
#300
b1111101001101001010011110000000000010001000100010000000000000000 "
b0 n
0X"
0Y"
0Z"
b0 9$
b0 E$
#301
b1111101001101001111110100110100111111010011010011111101001101001 "
b1000100010001000000000000000000000000000000000 I#
b11111111 +$
14$
b1 ?$
b1 K$
#302
b1111101001100101010011110000000000010001000100010000000000000000 I#
#303
0l
b1000100010001000000000000000000000000000000000 n
b11111111 P"
1Y"
b111 =#
1H#
b1111101001100101111110100110010111111010011001011111101001100101 I#
b0 6$
b1 9$
b0 B$
b1 E$
b10 H$
#304
b1001011111101000011111010000000000010001000100010000000000000000 n
b1000100010001000000000000000000000000000000000 ["
b11111111 =#
0H#
b1 H$
#305
b1001011111101000100101111110100010010111111010001001011111101000 n
b1001011111101011011111010000000000010001000100010000000000000000 ["
#306
1l
b1001011111101011100101111110101110010111111010111001011111101011 ["
b1 6$
b1 B$
#308
0G#
b0 <$
b0 H$
#310
1G#
b1 <$
b1 H$
#312
b1110000101011011000001010110010111111010011001011111101001100101 I#
b11111 +$
13$
15$
b10 K$
#313
b11111 b
1m
b1001 I#
03$
04$
05$
b0 ?$
b10 B$
b0 K$
#314
b1000100010001000000000000000000000000000000000 "
b11111111 b
0m
b1 B$
#315
b1111101001101010010011110000000000010001000100010000000000000000 "
#316
b1111101001101010111110100110101011111010011010101111101001101010 "
b1000100010001000000000000000000000000000000000 I#
b11111111 +$
14$
b1 ?$
b1 K$
#317
b1111101001100110010011110000000000010001000100010000000000000000 I#
#318
0l
b1111101001100110111110100110011011111010011001101111101001100110 I#
b0 6$
b0 B$
#320
b111101111011000100111110011010111010001001011111101000 n
b111 P"
1X"
1Z"
b10 E$
#321
1l
b0 n
0X"
0Y"
0Z"
b1 6$
b0 9$
b1 B$
b0 E$
#323
b111 =#
1H#
b10 H$
#324
b1000100010001000000000000000000000000000000000 n
b11111111 P"
1Y"
b1000100010001000000000000000000000000000000000 ["
b11111111 =#
0H#
b1 9$
b1 E$
b1 H$
#325
b1001011111101001011111010000000000010001000100010000000000000000 n
b1001011111101100011111010000000000010001000100010000000000000000 ["
#326
b1001011111101001100101111110100110010111111010011001011111101001 n
b1001011111101100100101111110110010010111111011001001011111101100 ["
#327
b111100111011010000110000110011011111010011001101111101001100110 I#
b11111 +$
13$
15$
b10 K$
#328
b11111 b
1m
0G#
b1000011 I#
03$
04$
05$
b0 <$
b0 ?$
b10 B$
b0 H$
b0 K$
#329
b1000100010001000000000000000000000000000000000 "
b11111111 b
0m
b1 B$
#330
b1111101001101011010011110000000000010001000100010000000000000000 "
#331
b1111101001101011111110100110101111111010011010111111101001101011 "
1G#
b1 <$
b1 H$
#332
b1000100010001000000000000000000000000000000000 I#
b11111111 +$
14$
b1 ?$
b1 K$
