kcu105_10gbaser_trd/hardware/vivado/runs/impl_run/.Xil/Vivado-23532-DESKTOP-I48MRRI/hw_ila_data_4/zip_work/waveform.vcd
$date
        2019-Nov-05 19:11:51
$end
$version
        Vivado v2018.3 (64-bit)
$end
$timescale
        1ps
$end
$scope module dut $end
$var reg 64 " mac_phy_wrapper_i/mac_phy_i/system_ila_mac_phy2/inst/net_slot_0_axis_tdata [63:0] $end
$var reg 8 b mac_phy_wrapper_i/mac_phy_i/system_ila_mac_phy2/inst/net_slot_0_axis_tkeep [7:0] $end
$var reg 1 j mac_phy_wrapper_i/mac_phy_i/system_ila_mac_phy2/inst/net_slot_0_axis_tuser $end
$var reg 1 k mac_phy_wrapper_i/mac_phy_i/system_ila_mac_phy2/inst/net_slot_0_axis_tvalid $end
$var reg 1 l mac_phy_wrapper_i/mac_phy_i/system_ila_mac_phy2/inst/net_slot_0_axis_tready $end
$var reg 1 m mac_phy_wrapper_i/mac_phy_i/system_ila_mac_phy2/inst/net_slot_0_axis_tlast $end
$var reg 64 n mac_phy_wrapper_i/mac_phy_i/system_ila_mac_phy2/inst/net_slot_1_axis_tdata [63:0] $end
$var reg 8 P" mac_phy_wrapper_i/mac_phy_i/system_ila_mac_phy2/inst/net_slot_1_axis_tkeep [7:0] $end
$var reg 1 X" mac_phy_wrapper_i/mac_phy_i/system_ila_mac_phy2/inst/net_slot_1_axis_tuser $end
$var reg 1 Y" mac_phy_wrapper_i/mac_phy_i/system_ila_mac_phy2/inst/net_slot_1_axis_tvalid $end
$var reg 1 Z" mac_phy_wrapper_i/mac_phy_i/system_ila_mac_phy2/inst/net_slot_1_axis_tlast $end
$var reg 64 [" mac_phy_wrapper_i/mac_phy_i/system_ila_mac_phy2/inst/net_slot_2_axis_tdata [63:0] $end
$var reg 8 =# mac_phy_wrapper_i/mac_phy_i/system_ila_mac_phy2/inst/net_slot_2_axis_tkeep [7:0] $end
$var reg 1 E# mac_phy_wrapper_i/mac_phy_i/system_ila_mac_phy2/inst/net_slot_2_axis_tuser $end
$var reg 1 F# mac_phy_wrapper_i/mac_phy_i/system_ila_mac_phy2/inst/net_slot_2_axis_tvalid $end
$var reg 1 G# mac_phy_wrapper_i/mac_phy_i/system_ila_mac_phy2/inst/net_slot_2_axis_tready $end
$var reg 1 H# mac_phy_wrapper_i/mac_phy_i/system_ila_mac_phy2/inst/net_slot_2_axis_tlast $end
$var reg 64 I# mac_phy_wrapper_i/mac_phy_i/system_ila_mac_phy2/inst/net_slot_3_axis_tdata [63:0] $end
$var reg 8 +$ mac_phy_wrapper_i/mac_phy_i/system_ila_mac_phy2/inst/net_slot_3_axis_tkeep [7:0] $end
$var reg 1 3$ mac_phy_wrapper_i/mac_phy_i/system_ila_mac_phy2/inst/net_slot_3_axis_tuser $end
$var reg 1 4$ mac_phy_wrapper_i/mac_phy_i/system_ila_mac_phy2/inst/net_slot_3_axis_tvalid $end
$var reg 1 5$ mac_phy_wrapper_i/mac_phy_i/system_ila_mac_phy2/inst/net_slot_3_axis_tlast $end
$var reg 3 6$ Interface__i4_s0___s_axis_tx_0_1_ [2:0] $end
$var reg 3 9$ Interface__i4_s1___mac_phy_ch0_m_axis_rx_ [2:0] $end
$var reg 3 <$ Interface__i4_s2___s_axis_tx_1_1_ [2:0] $end
$var reg 3 ?$ Interface__i4_s3___mac_phy_ch1_m_axis_rx_ [2:0] $end
$var reg 3 B$ T_Channel__i4_s0___s_axis_tx_0_1_ [2:0] $end
$var reg 3 E$ T_Channel__i4_s1___mac_phy_ch0_m_axis_rx_ [2:0] $end
$var reg 3 H$ T_Channel__i4_s2___s_axis_tx_1_1_ [2:0] $end
$var reg 3 K$ T_Channel__i4_s3___mac_phy_ch1_m_axis_rx_ [2:0] $end
$var reg 1 N$ _TRIGGER $end
$var reg 1 O$ _WINDOW $end
$var reg 1 P$ _GAP $end
$upscope $end
$enddefinitions $end
#0
$dumpvars
b11000000110000001100000011000000110000001100000011000000110000 "
b11111111 b
0j
1k
1l
0m
b11000000101101001100000010110100110000001011010011000000101101 n
b11111111 P"
0X"
1Y"
0Z"
b11000000110100001100000011010000110000001101000011000000110100 ["
b11111111 =#
0E#
1F#
1G#
0H#
b11000000110001001100000011000100110000001100010011000000110001 I#
b11111111 +$
03$
14$
05$
b0 6$
b0 9$
b0 <$
b0 ?$
b0 B$
b0 E$
b0 H$
b0 K$
0N$
1O$
0P$
$end
#1
b1 6$
b1 9$
b1 <$
b1 ?$
b1 B$
b1 E$
b1 H$
b1 K$
#2
b11001010110011100010101001000110001011010011000000101101 n
b111 P"
1X"
1Z"
b1000001111110101001011100010010001100010011000000110001 I#
b111 +$
13$
15$
b10 E$
b10 K$
#3
b0 n
0X"
0Y"
0Z"
b101010101010101010101010000000000000000000000000000000000000000 I#
b1 +$
03$
04$
05$
b0 9$
b0 ?$
b0 E$
b0 K$
#4
b111 =#
1H#
b10 H$
#5
b1000011001000010101011010001100000011000000110000 "
b111 b
1m
b1000100010001000000000000000000000000000000000 ["
b11111111 =#
0H#
b1000100010001000000000000000000000000000000000 I#
b11111111 +$
14$
b1 ?$
b10 B$
b1 H$
b1 K$
#6
b1100110011001100000000000000000000000000000000 "
b11111111 b
0m
b1100110011001100000000000000000000000000000000 n
b11111111 P"
1Y"
b11000000110101011111010000000000010001000100010000000000000000 ["
b11000000110010011111010000000000010001000100010000000000000000 I#
b1 9$
b1 B$
b1 E$
#7
b11000000110001011111010000000000010001000100010000000000000000 "
b11000000101110011111010000000000010001000100010000000000000000 n
b11000000110101001100000011010100110000001101010011000000110101 ["
b11000000110010001100000011001000110000001100100011000000110010 I#
#8
b11000000110001001100000011000100110000001100010011000000110001 "
b11000000101110001100000010111000110000001011100011000000101110 n
#9
0G#
b0 <$
b0 H$
#10
0l
b0 6$
b0 B$
#11
1G#
b1 <$
b1 H$
#12
1l
b1 6$
b1 B$
#22
b10000000111000001010000111001010001100100011000000110010 I#
b111 +$
13$
15$
b10 K$
#23
b1011110101000001110010011110001011100011000000101110 n
b111 P"
1X"
1Z"
b0 I#
b1 +$
03$
04$
05$
b0 ?$
b10 E$
b0 K$
#24
b101010101010101010101010000000000000000000000000000000000000000 n
b1 P"
0X"
0Y"
0Z"
b111 =#
1H#
b0 9$
b0 E$
b10 H$
#25
b1000001111110101001011100010010001100010011000000110001 "
b111 b
1m
b1000100010001000000000000000000000000000000000 ["
b11111111 =#
0H#
b1000100010001000000000000000000000000000000000 I#
b11111111 +$
14$
b1 ?$
b10 B$
b1 H$
b1 K$
#26
b1100110011001100000000000000000000000000000000 "
b11111111 b
0m
b1100110011001100000000000000000000000000000000 n
b11111111 P"
1Y"
b11000000110110011111010000000000010001000100010000000000000000 ["
b11000000110011011111010000000000010001000100010000000000000000 I#
b1 9$
b1 B$
b1 E$
#27
b11000000110010011111010000000000010001000100010000000000000000 "
b11000000101111011111010000000000010001000100010000000000000000 n
b11000000110110001100000011011000110000001101100011000000110110 ["
b11000000110011001100000011001100110000001100110011000000110011 I#
#28
b11000000110010001100000011001000110000001100100011000000110010 "
b11000000101111001100000010111100110000001011110011000000101111 n
#29
0G#
b0 <$
b0 H$
#30
0l
b0 6$
b0 B$
#32
1G#
b1 <$
b1 H$
#33
1l
b1 6$
b1 B$
#42
b11000000000101101011001110000010001100110011000000110011 I#
b111 +$
13$
15$
b10 K$
#43
b1001011001000100000111011010110001011110011000000101111 n
b111 P"
1X"
1Z"
b0 I#
03$
04$
05$
b0 ?$
b10 E$
b0 K$
#44
b0 n
0X"
0Y"
0Z"
b0 9$
b0 E$
#45
b111 =#
1H#
b10 H$
#46
b10000000111000001010000111001010001100100011000000110010 "
b111 b
1m
b1000100010001000000000000000000000000000000000 ["
b11111111 =#
0H#
b1000100010001000000000000000000000000000000000 I#
b11111111 +$
14$
b1 ?$
b10 B$
b1 H$
b1 K$
#47
b1100110011001100000000000000000000000000000000 "
b11111111 b
0m
b1100110011001100000000000000000000000000000000 n
b11111111 P"
1Y"
b11000000110111011111010000000000010001000100010000000000000000 ["
b11000000110100011111010000000000010001000100010000000000000000 I#
b1 9$
b1 B$
b1 E$
#48
b11000000110011011111010000000000010001000100010000000000000000 "
b11000000110000011111010000000000010001000100010000000000000000 n
b11000000110111001100000011011100110000001101110011000000110111 ["
b11000000110100001100000011010000110000001101000011000000110100 I#
#49
b11000000110011001100000011001100110000001100110011000000110011 "
b11000000110000001100000011000000110000001100000011000000110000 n
#50
0G#
b0 <$
b0 H$
#51
0l
b0 6$
b0 B$
#52
1G#
b1 <$
b1 H$
#53
1l
b1 6$
b1 B$
#63
b11011001101001011100101000111011001101000011000000110100 I#
b111 +$
13$
15$
b10 K$
#64
b11101100111101011101111011101010001100000011000000110000 n
b111 P"
1X"
1Z"
b101010101010101010101010000000000000000000000000000000000000000 I#
b1 +$
03$
04$
05$
b0 ?$
b10 E$
b0 K$
#65
b0 n
0X"
0Y"
0Z"
b111 =#
1H#
b0 9$
b0 E$
b10 H$
#66
b11000000000101101011001110000010001100110011000000110011 "
b111 b
1m
b1000100010001000000000000000000000000000000000 ["
b11111111 =#
0H#
b1000100010001000000000000000000000000000000000 I#
b11111111 +$
14$
b1 ?$
b10 B$
b1 H$
b1 K$
#67
b1100110011001100000000000000000000000000000000 "
b11111111 b
0m
b11000000111000011111010000000000010001000100010000000000000000 ["
b11000000110101011111010000000000010001000100010000000000000000 I#
b1 B$
#68
b11000000110100011111010000000000010001000100010000000000000000 "
b1100110011001100000000000000000000000000000000 n
b11111111 P"
1Y"
b11000000111000001100000011100000110000001110000011000000111000 ["
b11000000110101001100000011010100110000001101010011000000110101 I#
b1 9$
b1 E$
#69
b11000000110100001100000011010000110000001101000011000000110100 "
b11000000110001011111010000000000010001000100010000000000000000 n
#70
b11000000110001001100000011000100110000001100010011000000110001 n
0G#
b0 <$
b0 H$
#71
0l
b0 6$
b0 B$
#73
1G#
b1 <$
b1 H$
#74
1l
b1 6$
b1 B$
#83
b10011001010100111101100001110011001101010011000000110101 I#
b111 +$
13$
15$
b10 K$
#84
b0 I#
03$
04$
05$
b0 ?$
b0 K$
#85
b10101100000000111100110010100010001100010011000000110001 n
b111 P"
1X"
1Z"
b10 E$
#86
b101010101010101010101010000000000000000000000000000000000000000 n
b1 P"
0X"
0Y"
0Z"
b111 =#
1H#
b0 9$
b0 E$
b10 H$
#87
b11011001101001011100101000111011001101000011000000110100 "
b111 b
1m
b1000100010001000000000000000000000000000000000 ["
b11111111 =#
0H#
b1000100010001000000000000000000000000000000000 I#
b11111111 +$
14$
b1 ?$
b10 B$
b1 H$
b1 K$
#88
b1100110011001100000000000000000000000000000000 "
b11111111 b
0m
b1100110011001100000000000000000000000000000000 n
b11111111 P"
1Y"
b11000000111001011111010000000000010001000100010000000000000000 ["
b11000000110110011111010000000000010001000100010000000000000000 I#
b1 9$
b1 B$
b1 E$
#89
b11000000110101011111010000000000010001000100010000000000000000 "
b11000000110010011111010000000000010001000100010000000000000000 n
b11000000111001001100000011100100110000001110010011000000111001 ["
b11000000110110001100000011011000110000001101100011000000110110 I#
#90
b11000000110101001100000011010100110000001101010011000000110101 "
b11000000110010001100000011001000110000001100100011000000110010 n
#91
0G#
b0 <$
b0 H$
#92
0l
b0 6$
b0 B$
#93
1G#
b1 <$
b1 H$
#94
1l
b1 6$
b1 B$
#104
b1011000010010011110111010101011001101100011000000110110 I#
b111 +$
13$
15$
b10 K$
#105
b1101101000110011111101001111010001100100011000000110010 n
b111 P"
1X"
1Z"
b0 I#
03$
04$
05$
b0 ?$
b10 E$
b0 K$
#106
b0 n
b1 P"
0X"
0Y"
0Z"
b111 =#
1H#
b0 9$
b0 E$
b10 H$
#107
b10011001010100111101100001110011001101010011000000110101 "
b111 b
1m
b1000100010001000000000000000000000000000000000 ["
b11111111 =#
0H#
b10 B$
b1 H$
#108
b1100110011001100000000000000000000000000000000 "
b11111111 b
0m
b1100110011001100000000000000000000000000000000 n
b11111111 P"
1Y"
b11000000111010011111010000000000010001000100010000000000000000 ["
b1000100010001000000000000000000000000000000000 I#
b11111111 +$
14$
b1 9$
b1 ?$
b1 B$
b1 E$
b1 K$
#109
b11000000110110011111010000000000010001000100010000000000000000 "
b11000000110011011111010000000000010001000100010000000000000000 n
b11000000111010001100000011101000110000001110100011000000111010 ["
b11000000110111011111010000000000010001000100010000000000000000 I#
#110
b11000000110110001100000011011000110000001101100011000000110110 "
b11000000110011001100000011001100110000001100110011000000110011 n
b11000000110111001100000011011100110000001101110011000000110111 I#
#111
0G#
b0 <$
b0 H$
#112
0l
b0 6$
b0 B$
#114
1G#
b1 <$
b1 H$
#115
1l
b1 6$
b1 B$
#125
b101101111011111110100000110010001100110011000000110011 n
b111 P"
1X"
1Z"
b11000101111111111110011100011001101110011000000110111 I#
b111 +$
13$
15$
b10 E$
b10 K$
#126
b0 n
0X"
0Y"
0Z"
b101010101010101010101010000000000000000000000000000000000000000 I#
b1 +$
03$
04$
05$
b0 9$
b0 ?$
b0 E$
b0 K$
#127
b111 =#
1H#
b10 H$
#128
b1011000010010011110111010101011001101100011000000110110 "
b111 b
1m
b1000100010001000000000000000000000000000000000 ["
b11111111 =#
0H#
b1000100010001000000000000000000000000000000000 I#
b11111111 +$
14$
b1 ?$
b10 B$
b1 H$
b1 K$
#129
b1100110011001100000000000000000000000000000000 "
b11111111 b
0m
b1100110011001100000000000000000000000000000000 n
b11111111 P"
1Y"
b11000000111011011111010000000000010001000100010000000000000000 ["
b11000000111000011111010000000000010001000100010000000000000000 I#
b1 9$
b1 B$
b1 E$
#130
b11000000110111011111010000000000010001000100010000000000000000 "
b11000000110100011111010000000000010001000100010000000000000000 n
b11000000111011001100000011101100110000001110110011000000111011 ["
b11000000111000001100000011100000110000001110000011000000111000 I#
#131
b11000000110111001100000011011100110000001101110011000000110111 "
b11000000110100001100000011010000110000001101000011000000110100 n
#132
0G#
b0 <$
b0 H$
#133
0l
b0 6$
b0 B$
#134
1G#
b1 <$
b1 H$
#135
1l
b1 6$
b1 B$
#145
b1101011001011110001110111011001001110000011000000111000 I#
b111 +$
13$
15$
b10 K$
#146
b110100010111001001000110001011001101000011000000110100 n
b111 P"
1X"
1Z"
b0 I#
b1 +$
03$
04$
05$
b0 ?$
b10 E$
b0 K$
#147
b101010101010101010101010000000000000000000000000000000000000000 n
b1 P"
0X"
0Y"
0Z"
b111 =#
1H#
b0 9$
b0 E$
b10 H$
#148
b11000101111111111110011100011001101110011000000110111 "
b111 b
1m
b1000100010001000000000000000000000000000000000 ["
b11111111 =#
0H#
b1000100010001000000000000000000000000000000000 I#
b11111111 +$
14$
b1 ?$
b10 B$
b1 H$
b1 K$
#149
b1100110011001100000000000000000000000000000000 "
b11111111 b
0m
b1100110011001100000000000000000000000000000000 n
b11111111 P"
1Y"
b11000000111100011111010000000000010001000100010000000000000000 ["
b11000000111001011111010000000000010001000100010000000000000000 I#
b1 9$
b1 B$
b1 E$
#150
b11000000111000011111010000000000010001000100010000000000000000 "
b11000000110101011111010000000000010001000100010000000000000000 n
b11000000111100001100000011110000110000001111000011000000111100 ["
b11000000111001001100000011100100110000001110010011000000111001 I#
#151
b11000000111000001100000011100000110000001110000011000000111000 "
b11000000110101001100000011010100110000001101010011000000110101 n
#152
0G#
b0 <$
b0 H$
#153
0l
b0 6$
b0 B$
#155
1G#
b1 <$
b1 H$
#156
1l
b1 6$
b1 B$
#165
b101011110110010000111110010001001110010011000000111001 I#
b111 +$
13$
15$
b10 K$
#166
b1110100101010101000001111000011001101010011000000110101 n
b111 P"
1X"
1Z"
b0 I#
03$
04$
05$
b0 ?$
b10 E$
b0 K$
#167
b0 n
0X"
0Y"
0Z"
b0 9$
b0 E$
#168
b111 =#
1H#
b10 H$
#169
b1101011001011110001110111011001001110000011000000111000 "
b111 b
1m
b1000100010001000000000000000000000000000000000 ["
b11111111 =#
0H#
b1000100010001000000000000000000000000000000000 I#
b11111111 +$
14$
b1 ?$
b10 B$
b1 H$
b1 K$
#170
b1100110011001100000000000000000000000000000000 "
b11111111 b
0m
b1100110011001100000000000000000000000000000000 n
b11111111 P"
1Y"
b11000000111101011111010000000000010001000100010000000000000000 ["
b11000000111010011111010000000000010001000100010000000000000000 I#
b1 9$
b1 B$
b1 E$
#171
b11000000111001011111010000000000010001000100010000000000000000 "
b11000000110110011111010000000000010001000100010000000000000000 n
b11000000111101001100000011110100110000001111010011000000111101 ["
b11000000111010001100000011101000110000001110100011000000111010 I#
#172
b11000000111001001100000011100100110000001110010011000000111001 "
b11000000110110001100000011011000110000001101100011000000110110 n
#173
0G#
b0 <$
b0 H$
#174
0l
b0 6$
b0 B$
#175
1G#
b1 <$
b1 H$
#176
1l
b1 6$
b1 B$
#186
b11101010110000110011100101001001001110100011000000111010 I#
b111 +$
13$
15$
b10 K$
#187
b10110101101100001011010100011011001101100011000000110110 n
b111 P"
1X"
1Z"
b101010101010101010101010000000000000000000000000000000000000000 I#
b1 +$
03$
04$
05$
b0 ?$
b10 E$
b0 K$
#188
b0 n
0X"
0Y"
0Z"
b111 =#
1H#
b0 9$
b0 E$
b10 H$
#189
b101011110110010000111110010001001110010011000000111001 "
b111 b
1m
b1000100010001000000000000000000000000000000000 ["
b11111111 =#
0H#
b1000100010001000000000000000000000000000000000 I#
b11111111 +$
14$
b1 ?$
b10 B$
b1 H$
b1 K$
#190
b1100110011001100000000000000000000000000000000 "
b11111111 b
0m
b11000000111110011111010000000000010001000100010000000000000000 ["
b11000000111011011111010000000000010001000100010000000000000000 I#
b1 B$
#191
b11000000111010011111010000000000010001000100010000000000000000 "
b1100110011001100000000000000000000000000000000 n
b11111111 P"
1Y"
b11000000111110001100000011111000110000001111100011000000111110 ["
b11000000111011001100000011101100110000001110110011000000111011 I#
b1 9$
b1 E$
#192
b11000000111010001100000011101000110000001110100011000000111010 "
b11000000110111011111010000000000010001000100010000000000000000 n
#193
b11000000110111001100000011011100110000001101110011000000110111 n
0G#
b0 <$
b0 H$
#194
0l
b0 6$
b0 B$
#196
1G#
b1 <$
b1 H$
#197
1l
b1 6$
b1 B$
#206
b10101010001101010010101100000001001110110011000000111011 I#
b111 +$
13$
15$
b10 K$
#207
b0 I#
03$
04$
05$
b0 ?$
b0 K$
#208
b11110101010001101010011101010011001101110011000000110111 n
b111 P"
1X"
1Z"
b10 E$
#209
b101010101010101010101010000000000000000000000000000000000000000 n
b1 P"
0X"
0Y"
0Z"
b111 =#
1H#
b0 9$
b0 E$
b10 H$
#210
b11101010110000110011100101001001001110100011000000111010 "
b111 b
1m
b1000100010001000000000000000000000000000000000 ["
b11111111 =#
0H#
b1000100010001000000000000000000000000000000000 I#
b11111111 +$
14$
b1 ?$
b10 B$
b1 H$
b1 K$
#211
b1100110011001100000000000000000000000000000000 "
b11111111 b
0m
b1100110011001100000000000000000000000000000000 n
b11111111 P"
1Y"
b11000000111111011111010000000000010001000100010000000000000000 ["
b11000000111100011111010000000000010001000100010000000000000000 I#
b1 9$
b1 B$
b1 E$
#212
b11000000111011011111010000000000010001000100010000000000000000 "
b11000000111000011111010000000000010001000100010000000000000000 n
b11000000111111001100000011111100110000001111110011000000111111 ["
b11000000111100001100000011110000110000001111000011000000111100 I#
#213
b11000000111011001100000011101100110000001110110011000000111011 "
b11000000111000001100000011100000110000001110000011000000111000 n
#214
0G#
b0 <$
b0 H$
#215
0l
b0 6$
b0 B$
#216
1G#
b1 <$
b1 H$
#217
1l
b1 6$
b1 B$
#227
b10110011100001100101001010111000001111000011000000111100 I#
b111 +$
13$
15$
b10 K$
#228
b10000110110101100100011001101001001110000011000000111000 n
b111 P"
1X"
1Z"
b0 I#
03$
04$
05$
b0 ?$
b10 E$
b0 K$
#229
b0 n
b1 P"
0X"
0Y"
0Z"
b111 =#
1H#
b0 9$
b0 E$
b10 H$
#230
b10101010001101010010101100000001001110110011000000111011 "
b111 b
1m
b1000100010001000000000000000000000000000000000 ["
b11111111 =#
0H#
b10 B$
b1 H$
#231
b1100110011001100000000000000000000000000000000 "
b11111111 b
0m
b1100110011001100000000000000000000000000000000 n
b11111111 P"
1Y"
b11000001000000011111010000000000010001000100010000000000000000 ["
b1000100010001000000000000000000000000000000000 I#
b11111111 +$
14$
b1 9$
b1 ?$
b1 B$
b1 E$
b1 K$
#232
b11000000111100011111010000000000010001000100010000000000000000 "
b11000000111001011111010000000000010001000100010000000000000000 n
b11000001000000001100000100000000110000010000000011000001000000 ["
b11000000111101011111010000000000010001000100010000000000000000 I#
#233
b11000000111100001100000011110000110000001111000011000000111100 "
b11000000111001001100000011100100110000001110010011000000111001 n
b11000000111101001100000011110100110000001111010011000000111101 I#
#234
0G#
b0 <$
b0 H$
#235
0l
b0 6$
b0 B$
#237
1G#
b1 <$
b1 H$
#238
1l
b1 6$
b1 B$
#248
b11000110001000000101010000100001001110010011000000111001 n
b111 P"
1X"
1Z"
b11110011011100000100000011110000001111010011000000111101 I#
b111 +$
13$
15$
b10 E$
b10 K$
#249
b0 n
0X"
0Y"
0Z"
b101010101010101010101010000000000000000000000000000000000000000 I#
b1 +$
03$
04$
05$
b0 9$
b0 ?$
b0 E$
b0 K$
#250
b111 =#
1H#
b10 H$
#251
b10110011100001100101001010111000001111000011000000111100 "
b111 b
1m
b1000100010001000000000000000000000000000000000 ["
b11111111 =#
0H#
b1000100010001000000000000000000000000000000000 I#
b11111111 +$
14$
b1 ?$
b10 B$
b1 H$
b1 K$
#252
b1100110011001100000000000000000000000000000000 "
b11111111 b
0m
b1100110011001100000000000000000000000000000000 n
b11111111 P"
1Y"
b11000001000001011111010000000000010001000100010000000000000000 ["
b11000000111110011111010000000000010001000100010000000000000000 I#
b1 9$
b1 B$
b1 E$
#253
b11000000111101011111010000000000010001000100010000000000000000 "
b11000000111010011111010000000000010001000100010000000000000000 n
b11000001000001001100000100000100110000010000010011000001000001 ["
b11000000111110001100000011111000110000001111100011000000111110 I#
#254
b11000000111101001100000011110100110000001111010011000000111101 "
b11000000111010001100000011101000110000001110100011000000111010 n
#255
0G#
b0 <$
b0 H$
#256
0l
b0 6$
b0 B$
#257
1G#
b1 <$
b1 H$
#258
1l
b1 6$
b1 B$
#268
b110010011010100111011000101000001111100011000000111110 I#
b111 +$
13$
15$
b10 K$
#269
b111001110100110001011111001001110100011000000111010 n
b111 P"
1X"
1Z"
b0 I#
b1 +$
03$
04$
05$
b0 ?$
b10 E$
b0 K$
#270
b101010101010101010101010000000000000000000000000000000000000000 n
b1 P"
0X"
0Y"
0Z"
b111 =#
1H#
b0 9$
b0 E$
b10 H$
#271
b11110011011100000100000011110000001111010011000000111101 "
b111 b
1m
b1000100010001000000000000000000000000000000000 ["
b11111111 =#
0H#
b1000100010001000000000000000000000000000000000 I#
b11111111 +$
14$
b1 ?$
b10 B$
b1 H$
b1 K$
#272
b1100110011001100000000000000000000000000000000 "
b11111111 b
0m
b1100110011001100000000000000000000000000000000 n
b11111111 P"
1Y"
b11000001000010011111010000000000010001000100010000000000000000 ["
b11000000111111011111010000000000010001000100010000000000000000 I#
b1 9$
b1 B$
b1 E$
#273
b11000000111110011111010000000000010001000100010000000000000000 "
b11000000111011011111010000000000010001000100010000000000000000 n
b11000001000010001100000100001000110000010000100011000001000010 ["
b11000000111111001100000011111100110000001111110011000000111111 I#
#274
b11000000111110001100000011111000110000001111100011000000111110 "
b11000000111011001100000011101100110000001110110011000000111011 n
#275
0G#
b0 <$
b0 H$
#276
0l
b0 6$
b0 B$
#278
1G#
b1 <$
b1 H$
#279
1l
b1 6$
b1 B$
#288
b1110010100111000110010001100000001111110011000000111111 I#
b111 +$
13$
15$
b10 K$
#289
b1000111110011000111000010110001001110110011000000111011 n
b111 P"
1X"
1Z"
b0 I#
03$
04$
05$
b0 ?$
b10 E$
b0 K$
#290
b0 n
0X"
0Y"
0Z"
b0 9$
b0 E$
#291
b111 =#
1H#
b10 H$
#292
b110010011010100111011000101000001111100011000000111110 "
b111 b
1m
b1000100010001000000000000000000000000000000000 ["
b11111111 =#
0H#
b1000100010001000000000000000000000000000000000 I#
b11111111 +$
14$
b1 ?$
b10 B$
b1 H$
b1 K$
#293
b1100110011001100000000000000000000000000000000 "
b11111111 b
0m
b1100110011001100000000000000000000000000000000 n
b11111111 P"
1Y"
b11000001000011011111010000000000010001000100010000000000000000 ["
b11000001000000011111010000000000010001000100010000000000000000 I#
b1 9$
b1 B$
b1 E$
#294
b11000000111111011111010000000000010001000100010000000000000000 "
b11000000111100011111010000000000010001000100010000000000000000 n
b11000001000011001100000100001100110000010000110011000001000011 ["
b11000001000000001100000100000000110000010000000011000001000000 I#
#295
b11000000111111001100000011111100110000001111110011000000111111 "
b11000000111100001100000011110000110000001111000011000000111100 n
#296
0G#
b0 <$
b0 H$
#297
0l
b0 6$
b0 B$
#298
1G#
b1 <$
b1 H$
#299
1l
b1 6$
b1 B$
#309
b1000001010010100001100010001011010000000011000001000000 I#
b111 +$
13$
15$
b10 K$
#310
b1011110011111110000100100001000001111000011000000111100 n
b111 P"
1X"
1Z"
b101010101010101010101010000000000000000000000000000000000000000 I#
b1 +$
03$
04$
05$
b0 ?$
b10 E$
b0 K$
#311
b0 n
0X"
0Y"
0Z"
b111 =#
1H#
b0 9$
b0 E$
b10 H$
#312
b1110010100111000110010001100000001111110011000000111111 "
b111 b
1m
b1000100010001000000000000000000000000000000000 ["
b11111111 =#
0H#
b1000100010001000000000000000000000000000000000 I#
b11111111 +$
14$
b1 ?$
b10 B$
b1 H$
b1 K$
#313
b1100110011001100000000000000000000000000000000 "
b11111111 b
0m
b11000001000100011111010000000000010001000100010000000000000000 ["
b11000001000001011111010000000000010001000100010000000000000000 I#
b1 B$
#314
b11000001000000011111010000000000010001000100010000000000000000 "
b1100110011001100000000000000000000000000000000 n
b11111111 P"
1Y"
b11000001000100001100000100010000110000010001000011000001000100 ["
b11000001000001001100000100000100110000010000010011000001000001 I#
b1 9$
b1 E$
#315
b11000001000000001100000100000000110000010000000011000001000000 "
b11000000111101011111010000000000010001000100010000000000000000 n
#316
b11000000111101001100000011110100110000001111010011000000111101 n
0G#
b0 <$
b0 H$
#317
0l
b0 6$
b0 B$
#319
1G#
b1 <$
b1 H$
#320
1l
b1 6$
b1 B$
#329
b1101111000000101011000011010000010011000001000001 I#
b111 +$
13$
15$
b10 K$
#330
b0 I#
03$
04$
05$
b0 ?$
b0 K$
#331
b11110100010010001101101000000001111010011000000111101 n
b111 P"
1X"
1Z"
b10 E$
#332
b101010101010101010101010000000000000000000000000000000000000000 n
b1 P"
0X"
0Y"
0Z"
b111 =#
1H#
b0 9$
b0 E$
b10 H$
#333
b1000001010010100001100010001011010000000011000001000000 "
b111 b
1m
b1000100010001000000000000000000000000000000000 ["
b11111111 =#
0H#
b1000100010001000000000000000000000000000000000 I#
b11111111 +$
14$
b1 ?$
b10 B$
b1 H$
b1 K$
#334
b1100110011001100000000000000000000000000000000 "
b11111111 b
0m
b1100110011001100000000000000000000000000000000 n
b11111111 P"
1Y"
b11000001000101011111010000000000010001000100010000000000000000 ["
b11000001000010011111010000000000010001000100010000000000000000 I#
b1 9$
b1 B$
b1 E$
#335
b11000001000001011111010000000000010001000100010000000000000000 "
b11000000111110011111010000000000010001000100010000000000000000 n
b11000001000101001100000100010100110000010001010011000001000101 ["
b11000001000010001100000100001000110000010000100011000001000010 I#
#336
b11000001000001001100000100000100110000010000010011000001000001 "
b11000000111110001100000011111000110000001111100011000000111110 n
#337
0G#
b0 <$
b0 H$
#338
0l
b0 6$
b0 B$
#339
1G#
b1 <$
b1 H$
#340
1l
b1 6$
b1 B$
#350
b11000000101001100011110000011011010000100011000001000010 I#
b111 +$
13$
15$
b10 K$
#351
b11011111100100110010110110011000001111100011000000111110 n
b111 P"
1X"
1Z"
b0 I#
03$
04$
05$
b0 ?$
b10 E$
b0 K$
#352
b0 n
b1 P"
0X"
0Y"
0Z"
b111 =#
1H#
b0 9$
b0 E$
b10 H$
#353
b1101111000000101011000011010000010011000001000001 "
b111 b
1m
b1000100010001000000000000000000000000000000000 ["
b11111111 =#
0H#
b10 B$
b1 H$
#354
b1100110011001100000000000000000000000000000000 "
b11111111 b
0m
b1100110011001100000000000000000000000000000000 n
b11111111 P"
1Y"
b11000001000110011111010000000000010001000100010000000000000000 ["
b1000100010001000000000000000000000000000000000 I#
b11111111 +$
14$
b1 9$
b1 ?$
b1 B$
b1 E$
b1 K$
#355
b11000001000010011111010000000000010001000100010000000000000000 "
b11000000111111011111010000000000010001000100010000000000000000 n
b11000001000110001100000100011000110000010001100011000001000110 ["
b11000001000011011111010000000000010001000100010000000000000000 I#
#356
b11000001000010001100000100001000110000010000100011000001000010 "
b11000000111111001100000011111100110000001111110011000000111111 n
b11000001000011001100000100001100110000010000110011000001000011 I#
#357
0G#
b0 <$
b0 H$
#358
0l
b0 6$
b0 B$
#360
1G#
b1 <$
b1 H$
#361
1l
b1 6$
b1 B$
#371
b10011111011001010011111111010000001111110011000000111111 n
b111 P"
1X"
1Z"
b10000000010100000010111001010011010000110011000001000011 I#
b111 +$
13$
15$
b10 E$
b10 K$
#372
b0 n
0X"
0Y"
0Z"
b101010101010101010101010000000000000000000000000000000000000000 I#
b1 +$
03$
04$
05$
b0 9$
b0 ?$
b0 E$
b0 K$
#373
b111 =#
1H#
b10 H$
#374
b11000000101001100011110000011011010000100011000001000010 "
b111 b
1m
b1000100010001000000000000000000000000000000000 ["
b11111111 =#
0H#
b1000100010001000000000000000000000000000000000 I#
b11111111 +$
14$
b1 ?$
b10 B$
b1 H$
b1 K$
#375
b1100110011001100000000000000000000000000000000 "
b11111111 b
0m
b1100110011001100000000000000000000000000000000 n
b11111111 P"
1Y"
b11000001000111011111010000000000010001000100010000000000000000 ["
b11000001000100011111010000000000010001000100010000000000000000 I#
b1 9$
b1 B$
b1 E$
