kcu105_10gbaser_trd/hardware/vivado/runs/impl_run/.Xil/Vivado-11460-DESKTOP-I48MRRI/hw_ila_data_1/zip_work/waveform.vcd
$date
        2019-Oct-23 15:21:09
$end
$version
        Vivado v2017.3 (64-bit)
$end
$timescale
        1ps
$end
$scope module dut $end
$var reg 64 " axi_stream_gen_mon_0/rx_axis_tdata [63:0] $end
$var reg 8 b axi_stream_gen_mon_0/rx_axis_tkeep [7:0] $end
$var reg 1 j axi_stream_gen_mon_0/rx_axis_tvalid $end
$var reg 1 k axi_stream_gen_mon_0/rx_axis_tlast $end
$var reg 1 l axi_stream_gen_mon_0/rx_axis_tuser $end
$var reg 1 m axi_stream_gen_mon_0/rx_axis_tready $end
$var reg 64 n axi_stream_gen_mon_0/tx_axis_tdata [63:0] $end
$var reg 8 P" axi_stream_gen_mon_0/tx_axis_tkeep [7:0] $end
$var reg 1 X" axi_stream_gen_mon_0/tx_axis_tvalid $end
$var reg 1 Y" axi_stream_gen_mon_0/tx_axis_tlast $end
$var reg 1 Z" axi_stream_gen_mon_0/tx_axis_tuser $end
$var reg 1 [" axi_stream_gen_mon_0/tx_axis_tready_1 $end
$var reg 64 \" axi_stream_gen_mon_0/tx_axis_tdata_lb [63:0] $end
$var reg 8 ># axi_stream_gen_mon_0/tx_axis_tkeep_lb [7:0] $end
$var reg 1 F# axi_stream_gen_mon_0/tx_axis_tvalid_lb $end
$var reg 1 G# axi_stream_gen_mon_0/tx_axis_tlast_lb $end
$var reg 1 H# axi_stream_gen_mon_0/tx_axis_tuser_lb $end
$var reg 1 I# axi_stream_gen_mon_0/rx_axis_tready_lb $end
$var reg 64 J# axi_stream_gen_mon_0/tx_axis_tdata_g [63:0] $end
$var reg 8 ,$ axi_stream_gen_mon_0/tx_axis_tkeep_g [7:0] $end
$var reg 1 4$ axi_stream_gen_mon_0/tx_axis_tvalid_g $end
$var reg 1 5$ axi_stream_gen_mon_0/tx_axis_tlast_g $end
$var reg 1 6$ axi_stream_gen_mon_0/tx_axis_tuser_g $end
$var reg 1 7$ axi_stream_gen_mon_0/tx_axis_tready $end
$var reg 1 8$ _TRIGGER $end
$var reg 1 9$ _WINDOW $end
$var reg 1 :$ _GAP $end
$upscope $end
$enddefinitions $end
#0
$dumpvars
b1111001101001001111100110100100111110011010010011111001101001001 "
b11111111 b
1j
0k
0l
1m
b1111001101001000111100110100100011110011010010001111001101001000 n
b11111111 P"
1X"
0Y"
0Z"
1["
b1111001101001000111100110100100011110011010010001111001101001000 \"
b11111111 >#
1F#
0G#
0H#
1I#
b1000100010001000000000000000000000000000000000 J#
b11111111 ,$
04$
05$
06$
17$
08$
19$
0:$
$end
#6
b11011011100110100100011010101111010010011111001101001001 "
b111 b
1k
1l
#7
b101010101010101010101010000000000000000000000000000000000000000 "
b1 b
0j
0k
0l
#9
b1000100010001000000000000000000000000000000000 "
b11111111 b
1j
b10011011011011000101010011100111010010001111001101001000 n
b111 P"
1Y"
b10011011011011000101010011100111010010001111001101001000 \"
b111 >#
1G#
#10
b1111001101001010011111010000000000010001000100010000000000000000 "
b1100110011001100000000000000000000000000000000 n
b11111111 P"
0Y"
b1100110011001100000000000000000000000000000000 \"
b11111111 >#
0G#
#11
b1111001101001010111100110100101011110011010010101111001101001010 "
b1111001101001001011111010000000000010001000100010000000000000000 n
b1111001101001001011111010000000000010001000100010000000000000000 \"
#12
b1111001101001001111100110100100111110011010010011111001101001001 n
b1111001101001001111100110100100111110011010010011111001101001001 \"
#14
0["
07$
#17
1["
17$
#26
b11010100000000111000001110111010010101111001101001010 "
b111 b
1k
1l
#27
b0 "
b1 b
0j
0k
0l
#29
b1000100010001000000000000000000000000000000000 "
b11111111 b
1j
#30
b1111001101001011011111010000000000010001000100010000000000000000 "
b11011011100110100100011010101111010010011111001101001001 n
b111 P"
1Y"
b11011011100110100100011010101111010010011111001101001001 \"
b111 >#
1G#
#31
b1111001101001011111100110100101111110011010010111111001101001011 "
b1100110011001100000000000000000000000000000000 n
b11111111 P"
0Y"
b1100110011001100000000000000000000000000000000 \"
b11111111 >#
0G#
#32
b1111001101001010011111010000000000010001000100010000000000000000 n
b1111001101001010011111010000000000010001000100010000000000000000 \"
#33
b1111001101001010111100110100101011110011010010101111001101001010 n
b1111001101001010111100110100101011110011010010101111001101001010 \"
#35
0["
07$
#37
1["
17$
#46
b1011010011101100110001000111111010010111111001101001011 "
b111 b
1k
1l
#47
b0 "
0j
0k
0l
#50
b1000100010001000000000000000000000000000000000 "
b11111111 b
1j
b11010100000000111000001110111010010101111001101001010 n
b111 P"
1Y"
b11010100000000111000001110111010010101111001101001010 \"
b111 >#
1G#
#51
b1111001101001100011111010000000000010001000100010000000000000000 "
b1100110011001100000000000000000000000000000000 n
b11111111 P"
0Y"
b1100110011001100000000000000000000000000000000 \"
b11111111 >#
0G#
#52
b1111001101001100111100110100110011110011010011001111001101001100 "
b1111001101001011011111010000000000010001000100010000000000000000 n
b1111001101001011011111010000000000010001000100010000000000000000 \"
#53
b1111001101001011111100110100101111110011010010111111001101001011 n
b1111001101001011111100110100101111110011010010111111001101001011 \"
#55
0["
07$
#58
1["
17$
#67
b1000011110001010001101110000110010011001111001101001100 "
b111 b
1k
1l
#68
b101010101010101010101010000000000000000000000000000000000000000 "
b1 b
0j
0k
0l
#70
b1000100010001000000000000000000000000000000000 "
b11111111 b
1j
#71
b1111001101001101011111010000000000010001000100010000000000000000 "
b1011010011101100110001000111111010010111111001101001011 n
b111 P"
1Y"
b1011010011101100110001000111111010010111111001101001011 \"
b111 >#
1G#
#72
b1111001101001101111100110100110111110011010011011111001101001101 "
b1100110011001100000000000000000000000000000000 n
b11111111 P"
0Y"
b1100110011001100000000000000000000000000000000 \"
b11111111 >#
0G#
#73
b1111001101001100011111010000000000010001000100010000000000000000 n
b1111001101001100011111010000000000010001000100010000000000000000 \"
#74
b1111001101001100111100110100110011110011010011001111001101001100 n
b1111001101001100111100110100110011110011010011001111001101001100 \"
#76
0["
07$
#78
1["
17$
#87
b11001100110000100111001110010011011111001101001101 "
b111 b
1k
1l
#88
b0 "
0j
0k
0l
#91
b1000100010001000000000000000000000000000000000 "
b11111111 b
1j
b1000011110001010001101110000110010011001111001101001100 n
b111 P"
1Y"
b1000011110001010001101110000110010011001111001101001100 \"
b111 >#
1G#
#92
b1111001101001110011111010000000000010001000100010000000000000000 "
b1100110011001100000000000000000000000000000000 n
b11111111 P"
0Y"
b1100110011001100000000000000000000000000000000 \"
b11111111 >#
0G#
#93
b1111001101001110111100110100111011110011010011101111001101001110 "
b1111001101001101011111010000000000010001000100010000000000000000 n
b1111001101001101011111010000000000010001000100010000000000000000 \"
#94
b1111001101001101111100110100110111110011010011011111001101001101 n
b1111001101001101111100110100110111110011010011011111001101001101 \"
#96
0["
07$
#99
1["
17$
#108
b11000010001010010011111100010110010011101111001101001110 "
b111 b
1k
1l
#109
b0 "
0j
0k
0l
#112
b1000100010001000000000000000000000000000000000 "
b11111111 b
1j
b11001100110000100111001110010011011111001101001101 n
b111 P"
1Y"
b11001100110000100111001110010011011111001101001101 \"
b111 >#
1G#
#113
b1111001101001111011111010000000000010001000100010000000000000000 "
b1100110011001100000000000000000000000000000000 n
b11111111 P"
0Y"
b1100110011001100000000000000000000000000000000 \"
b11111111 >#
0G#
#114
b1111001101001111111100110100111111110011010011111111001101001111 "
b1111001101001110011111010000000000010001000100010000000000000000 n
b1111001101001110011111010000000000010001000100010000000000000000 \"
#115
b1111001101001110111100110100111011110011010011101111001101001110 n
b1111001101001110111100110100111011110011010011101111001101001110 \"
#117
0["
07$
#119
1["
17$
#129
b10000010110111110010110101011110010011111111001101001111 "
b111 b
1k
1l
#130
b101010101010101010101010000000000000000000000000000000000000000 "
b1 b
0j
0k
0l
#132
b1000100010001000000000000000000000000000000000 "
b11111111 b
1j
b11000010001010010011111100010110010011101111001101001110 n
b111 P"
1Y"
b11000010001010010011111100010110010011101111001101001110 \"
b111 >#
1G#
#133
b1111001101010000011111010000000000010001000100010000000000000000 "
b1100110011001100000000000000000000000000000000 n
b11111111 P"
0Y"
b1100110011001100000000000000000000000000000000 \"
b11111111 >#
0G#
#134
b1111001101010000111100110101000011110011010100001111001101010000 "
b1111001101001111011111010000000000010001000100010000000000000000 n
b1111001101001111011111010000000000010001000100010000000000000000 \"
#135
b1111001101001111111100110100111111110011010011111111001101001111 n
b1111001101001111111100110100111111110011010011111111001101001111 \"
#137
0["
07$
#140
1["
17$
#149
b100101000010001111110101100010010100001111001101010000 "
b111 b
1k
1l
#150
b0 "
b1 b
0j
0k
0l
#152
b1000100010001000000000000000000000000000000000 "
b11111111 b
1j
#153
b1111001101010001011111010000000000010001000100010000000000000000 "
b10000010110111110010110101011110010011111111001101001111 n
b111 P"
1Y"
b10000010110111110010110101011110010011111111001101001111 \"
b111 >#
1G#
#154
b1111001101010001111100110101000111110011010100011111001101010001 "
b1100110011001100000000000000000000000000000000 n
b11111111 P"
0Y"
b1100110011001100000000000000000000000000000000 \"
b11111111 >#
0G#
#155
b1111001101010000011111010000000000010001000100010000000000000000 n
b1111001101010000011111010000000000010001000100010000000000000000 \"
#156
b1111001101010000111100110101000011110011010100001111001101010000 n
b1111001101010000111100110101000011110011010100001111001101010000 \"
#158
0["
07$
#160
1["
17$
#169
b1100101111111101110111100101010010100011111001101010001 "
b111 b
1k
1l
#170
b0 "
0j
0k
0l
#173
b1000100010001000000000000000000000000000000000 "
b11111111 b
1j
b100101000010001111110101100010010100001111001101010000 n
b111 P"
1Y"
b100101000010001111110101100010010100001111001101010000 \"
b111 >#
1G#
#174
b1111001101010010011111010000000000010001000100010000000000000000 "
b1100110011001100000000000000000000000000000000 n
b11111111 P"
0Y"
b1100110011001100000000000000000000000000000000 \"
b11111111 >#
0G#
#175
b1111001101010010111100110101001011110011010100101111001101010010 "
b1111001101010001011111010000000000010001000100010000000000000000 n
b1111001101010001011111010000000000010001000100010000000000000000 \"
#176
b1111001101010001111100110101000111110011010100011111001101010001 n
b1111001101010001111100110101000111110011010100011111001101010001 \"
#178
0["
07$
#181
1["
17$
#190
b10100100111001001101100111110010010100101111001101010010 "
b111 b
1k
1l
#191
b101010101010101010101010000000000000000000000000000000000000000 "
b1 b
0j
0k
0l
#193
b1000100010001000000000000000000000000000000000 "
b11111111 b
1j
#194
b1111001101010011011111010000000000010001000100010000000000000000 "
b1100101111111101110111100101010010100011111001101010001 n
b111 P"
1Y"
b1100101111111101110111100101010010100011111001101010001 \"
b111 >#
1G#
#195
b1111001101010011111100110101001111110011010100111111001101010011 "
b1100110011001100000000000000000000000000000000 n
b11111111 P"
0Y"
b1100110011001100000000000000000000000000000000 \"
b11111111 >#
0G#
#196
b1111001101010010011111010000000000010001000100010000000000000000 n
b1111001101010010011111010000000000010001000100010000000000000000 \"
#197
b1111001101010010111100110101001011110011010100101111001101010010 n
b1111001101010010111100110101001011110011010100101111001101010010 \"
#199
0["
07$
#201
1["
17$
#210
b11100100000100101100101110111010010100111111001101010011 "
b111 b
1k
1l
#211
b0 "
0j
0k
0l
#214
b1000100010001000000000000000000000000000000000 "
b11111111 b
1j
b10100100111001001101100111110010010100101111001101010010 n
b111 P"
1Y"
b10100100111001001101100111110010010100101111001101010010 \"
b111 >#
1G#
#215
b1111001101010100011111010000000000010001000100010000000000000000 "
b1100110011001100000000000000000000000000000000 n
b11111111 P"
0Y"
b1100110011001100000000000000000000000000000000 \"
b11111111 >#
0G#
#216
b1111001101010100111100110101010011110011010101001111001101010100 "
b1111001101010011011111010000000000010001000100010000000000000000 n
b1111001101010011011111010000000000010001000100010000000000000000 \"
#217
b1111001101010011111100110101001111110011010100111111001101010011 n
b1111001101010011111100110101001111110011010100111111001101010011 \"
#219
0["
07$
#222
1["
17$
#231
b11111101101000011011001000000011010101001111001101010100 "
b111 b
1k
1l
#232
b0 "
0j
0k
0l
#235
b1000100010001000000000000000000000000000000000 "
b11111111 b
1j
b11100100000100101100101110111010010100111111001101010011 n
b111 P"
1Y"
b11100100000100101100101110111010010100111111001101010011 \"
b111 >#
1G#
#236
b1111001101010101011111010000000000010001000100010000000000000000 "
b1100110011001100000000000000000000000000000000 n
b11111111 P"
0Y"
b1100110011001100000000000000000000000000000000 \"
b11111111 >#
0G#
#237
b1111001101010101111100110101010111110011010101011111001101010101 "
b1111001101010100011111010000000000010001000100010000000000000000 n
b1111001101010100011111010000000000010001000100010000000000000000 \"
#238
b1111001101010100111100110101010011110011010101001111001101010100 n
b1111001101010100111100110101010011110011010101001111001101010100 \"
#240
0["
07$
#242
1["
17$
#252
b10111101010101111010000001001011010101011111001101010101 "
b111 b
1k
1l
#253
b101010101010101010101010000000000000000000000000000000000000000 "
b1 b
0j
0k
0l
#255
b1000100010001000000000000000000000000000000000 "
b11111111 b
1j
b11111101101000011011001000000011010101001111001101010100 n
b111 P"
1Y"
b11111101101000011011001000000011010101001111001101010100 \"
b111 >#
1G#
#256
b1111001101010110011111010000000000010001000100010000000000000000 "
b1100110011001100000000000000000000000000000000 n
b11111111 P"
0Y"
b1100110011001100000000000000000000000000000000 \"
b11111111 >#
0G#
#257
b1111001101010110111100110101011011110011010101101111001101010110 "
b1111001101010101011111010000000000010001000100010000000000000000 n
b1111001101010101011111010000000000010001000100010000000000000000 \"
#258
b1111001101010101111100110101010111110011010101011111001101010101 n
b1111001101010101111100110101010111110011010101011111001101010101 \"
#260
0["
07$
#263
1["
17$
#272
b1111100010011011001011010010011010101101111001101010110 "
b111 b
1k
1l
#273
b0 "
b1 b
0j
0k
0l
#275
b1000100010001000000000000000000000000000000000 "
b11111111 b
1j
#276
b1111001101010111011111010000000000010001000100010000000000000000 "
b10111101010101111010000001001011010101011111001101010101 n
b111 P"
1Y"
b10111101010101111010000001001011010101011111001101010101 \"
b111 >#
1G#
#277
b1111001101010111111100110101011111110011010101111111001101010111 "
b1100110011001100000000000000000000000000000000 n
b11111111 P"
0Y"
b1100110011001100000000000000000000000000000000 \"
b11111111 >#
0G#
#278
b1111001101010110011111010000000000010001000100010000000000000000 n
b1111001101010110011111010000000000010001000100010000000000000000 \"
#279
b1111001101010110111100110101011011110011010101101111001101010110 n
b1111001101010110111100110101011011110011010101101111001101010110 \"
#281
0["
07$
#283
1["
17$
#292
b111100101110111000010011011011010101111111001101010111 "
b111 b
1k
1l
#293
b0 "
0j
0k
0l
#296
b1000100010001000000000000000000000000000000000 "
b11111111 b
1j
b1111100010011011001011010010011010101101111001101010110 n
b111 P"
1Y"
b1111100010011011001011010010011010101101111001101010110 \"
b111 >#
1G#
#297
b1111001101011000011111010000000000010001000100010000000000000000 "
b1100110011001100000000000000000000000000000000 n
b11111111 P"
0Y"
b1100110011001100000000000000000000000000000000 \"
b11111111 >#
0G#
#298
b1111001101011000111100110101100011110011010110001111001101011000 "
b1111001101010111011111010000000000010001000100010000000000000000 n
b1111001101010111011111010000000000010001000100010000000000000000 \"
#299
b1111001101010111111100110101011111110011010101111111001101010111 n
b1111001101010111111100110101011111110011010101111111001101010111 \"
#301
0["
07$
#304
1["
17$
#313
b1001111001010110110010111100001010110001111001101011000 "
b111 b
1k
1l
#314
b101010101010101010101010000000000000000000000000000000000000000 "
b1 b
0j
0k
0l
#316
b1000100010001000000000000000000000000000000000 "
b11111111 b
1j
#317
b1111001101011001011111010000000000010001000100010000000000000000 "
b111100101110111000010011011011010101111111001101010111 n
b111 P"
1Y"
b111100101110111000010011011011010101111111001101010111 \"
b111 >#
1G#
#318
b1111001101011001111100110101100111110011010110011111001101011001 "
b1100110011001100000000000000000000000000000000 n
b11111111 P"
0Y"
b1100110011001100000000000000000000000000000000 \"
b11111111 >#
0G#
#319
b1111001101011000011111010000000000010001000100010000000000000000 n
b1111001101011000011111010000000000010001000100010000000000000000 \"
#320
b1111001101011000111100110101100011110011010110001111001101011000 n
b1111001101011000111100110101100011110011010110001111001101011000 \"
#322
0["
07$
#324
1["
17$
#333
b1111110111010111011110101001010110011111001101011001 "
b111 b
1k
1l
#334
b0 "
0j
0k
0l
#337
b1000100010001000000000000000000000000000000000 "
b11111111 b
1j
b1001111001010110110010111100001010110001111001101011000 n
b111 P"
1Y"
b1001111001010110110010111100001010110001111001101011000 \"
b111 >#
1G#
#338
b1111001101011010011111010000000000010001000100010000000000000000 "
b1100110011001100000000000000000000000000000000 n
b11111111 P"
0Y"
b1100110011001100000000000000000000000000000000 \"
b11111111 >#
0G#
#339
b1111001101011010111100110101101011110011010110101111001101011010 "
b1111001101011001011111010000000000010001000100010000000000000000 n
b1111001101011001011111010000000000010001000100010000000000000000 \"
#340
b1111001101011001111100110101100111110011010110011111001101011001 n
b1111001101011001111100110101100111110011010110011111001101011001 \"
#342
0["
07$
#345
1["
17$
#354
b11001110110001110100000101110001010110101111001101011010 "
b111 b
1k
1l
#355
b0 "
0j
0k
0l
#358
b1000100010001000000000000000000000000000000000 "
b11111111 b
1j
b1111110111010111011110101001010110011111001101011001 n
b111 P"
1Y"
b1111110111010111011110101001010110011111001101011001 \"
b111 >#
1G#
#359
b1111001101011011011111010000000000010001000100010000000000000000 "
b1100110011001100000000000000000000000000000000 n
b11111111 P"
0Y"
b1100110011001100000000000000000000000000000000 \"
b11111111 >#
0G#
#360
b1111001101011011111100110101101111110011010110111111001101011011 "
b1111001101011010011111010000000000010001000100010000000000000000 n
b1111001101011010011111010000000000010001000100010000000000000000 \"
#361
b1111001101011010111100110101101011110011010110101111001101011010 n
b1111001101011010111100110101101011110011010110101111001101011010 \"
#363
0["
07$
#365
1["
17$
#375
b10001110001100010101001100111001010110111111001101011011 "
b111 b
1k
1l
#376
b101010101010101010101010000000000000000000000000000000000000000 "
b1 b
0j
0k
0l
#378
b1000100010001000000000000000000000000000000000 "
b11111111 b
1j
b11001110110001110100000101110001010110101111001101011010 n
b111 P"
1Y"
b11001110110001110100000101110001010110101111001101011010 \"
b111 >#
1G#
#379
b1111001101011100011111010000000000010001000100010000000000000000 "
b1100110011001100000000000000000000000000000000 n
b11111111 P"
0Y"
b1100110011001100000000000000000000000000000000 \"
b11111111 >#
0G#
#380
b1111001101011100111100110101110011110011010111001111001101011100 "
b1111001101011011011111010000000000010001000100010000000000000000 n
b1111001101011011011111010000000000010001000100010000000000000000 \"
#381
b1111001101011011111100110101101111110011010110111111001101011011 n
b1111001101011011111100110101101111110011010110111111001101011011 \"
#383
0["
07$
#386
1["
17$
#395
b10010111100000100010101010000000010111001111001101011100 "
b111 b
1k
1l
#396
b0 "
b1 b
0j
0k
0l
#398
b1000100010001000000000000000000000000000000000 "
b11111111 b
1j
#399
b1111001101011101011111010000000000010001000100010000000000000000 "
b10001110001100010101001100111001010110111111001101011011 n
b111 P"
1Y"
b10001110001100010101001100111001010110111111001101011011 \"
b111 >#
1G#
#400
b1111001101011101111100110101110111110011010111011111001101011101 "
b1100110011001100000000000000000000000000000000 n
b11111111 P"
0Y"
b1100110011001100000000000000000000000000000000 \"
b11111111 >#
0G#
#401
b1111001101011100011111010000000000010001000100010000000000000000 n
b1111001101011100011111010000000000010001000100010000000000000000 \"
#402
b1111001101011100111100110101110011110011010111001111001101011100 n
b1111001101011100111100110101110011110011010111001111001101011100 \"
#404
0["
07$
#406
1["
17$
#415
b11010111011101000011100011001000010111011111001101011101 "
b111 b
1k
1l
#416
b0 "
0j
0k
0l
#419
b1000100010001000000000000000000000000000000000 "
b11111111 b
1j
b10010111100000100010101010000000010111001111001101011100 n
b111 P"
1Y"
b10010111100000100010101010000000010111001111001101011100 \"
b111 >#
1G#
#420
b1111001101011110011111010000000000010001000100010000000000000000 "
b1100110011001100000000000000000000000000000000 n
b11111111 P"
0Y"
b1100110011001100000000000000000000000000000000 \"
b11111111 >#
0G#
#421
b1111001101011110111100110101111011110011010111101111001101011110 "
b1111001101011101011111010000000000010001000100010000000000000000 n
b1111001101011101011111010000000000010001000100010000000000000000 \"
#422
b1111001101011101111100110101110111110011010111011111001101011101 n
b1111001101011101111100110101110111110011010111011111001101011101 \"
#424
0["
07$
#427
1["
17$
#436
b10110011011100000111000010000010111101111001101011110 "
b111 b
1k
1l
#437
b101010101010101010101010000000000000000000000000000000000000000 "
b1 b
0j
0k
0l
#439
b1000100010001000000000000000000000000000000000 "
b11111111 b
1j
#440
b1111001101011111011111010000000000010001000100010000000000000000 "
b11010111011101000011100011001000010111011111001101011101 n
b111 P"
1Y"
b11010111011101000011100011001000010111011111001101011101 \"
b111 >#
1G#
#441
b1111001101011111111100110101111111110011010111111111001101011111 "
b1100110011001100000000000000000000000000000000 n
b11111111 P"
0Y"
b1100110011001100000000000000000000000000000000 \"
b11111111 >#
0G#
#442
b1111001101011110011111010000000000010001000100010000000000000000 n
b1111001101011110011111010000000000010001000100010000000000000000 \"
#443
b1111001101011110111100110101111011110011010111101111001101011110 n
b1111001101011110111100110101111011110011010111101111001101011110 \"
#445
0["
07$
#447
1["
17$
#456
b1010110100110000001110001011000010111111111001101011111 "
b111 b
1k
1l
#457
b0 "
0j
0k
0l
#460
b1000100010001000000000000000000000000000000000 "
b11111111 b
1j
b10110011011100000111000010000010111101111001101011110 n
b111 P"
1Y"
b10110011011100000111000010000010111101111001101011110 \"
b111 >#
1G#
#461
b1111001101100000011111010000000000010001000100010000000000000000 "
b1100110011001100000000000000000000000000000000 n
b11111111 P"
0Y"
b1100110011001100000000000000000000000000000000 \"
b11111111 >#
0G#
#462
b1111001101100000111100110110000011110011011000001111001101100000 "
b1111001101011111011111010000000000010001000100010000000000000000 n
b1111001101011111011111010000000000010001000100010000000000000000 \"
#463
b1111001101011111111100110101111111110011010111111111001101011111 n
b1111001101011111111100110101111111110011010111111111001101011111 \"
#465
0["
07$
#468
1["
17$
#477
b10000010101100001010100000101001011000001111001101100000 "
b111 b
1k
1l
#478
b0 "
0j
0k
0l
#481
b1000100010001000000000000000000000000000000000 "
b11111111 b
1j
b1010110100110000001110001011000010111111111001101011111 n
b111 P"
1Y"
b1010110100110000001110001011000010111111111001101011111 \"
b111 >#
1G#
#482
b1111001101100001011111010000000000010001000100010000000000000000 "
b1100110011001100000000000000000000000000000000 n
b11111111 P"
0Y"
b1100110011001100000000000000000000000000000000 \"
b11111111 >#
0G#
#483
b1111001101100001111100110110000111110011011000011111001101100001 "
b1111001101100000011111010000000000010001000100010000000000000000 n
b1111001101100000011111010000000000010001000100010000000000000000 \"
#484
b1111001101100000111100110110000011110011011000001111001101100000 n
b1111001101100000111100110110000011110011011000001111001101100000 \"
#486
0["
07$
#488
1["
17$
#498
b11000010010001101011101001100001011000011111001101100001 "
b111 b
1k
1l
#499
b101010101010101010101010000000000000000000000000000000000000000 "
b1 b
0j
0k
0l
#501
b1000100010001000000000000000000000000000000000 "
b11111111 b
1j
b10000010101100001010100000101001011000001111001101100000 n
b111 P"
1Y"
b10000010101100001010100000101001011000001111001101100000 \"
b111 >#
1G#
#502
b1111001101100010011111010000000000010001000100010000000000000000 "
b1100110011001100000000000000000000000000000000 n
b11111111 P"
0Y"
b1100110011001100000000000000000000000000000000 \"
b11111111 >#
0G#
#503
b1111001101100010111100110110001011110011011000101111001101100010 "
b1111001101100001011111010000000000010001000100010000000000000000 n
b1111001101100001011111010000000000010001000100010000000000000000 \"
#504
b1111001101100001111100110110000111110011011000011111001101100001 n
b1111001101100001111100110110000111110011011000011111001101100001 \"
#506
0["
07$
#509
1["
17$
#518
b11010111001000110010111001011000101111001101100010 "
b111 b
1k
1l
#519
b0 "
b1 b
0j
0k
0l
#521
b1000100010001000000000000000000000000000000000 "
b11111111 b
1j
#522
b1111001101100011011111010000000000010001000100010000000000000000 "
b11000010010001101011101001100001011000011111001101100001 n
b111 P"
1Y"
b11000010010001101011101001100001011000011111001101100001 \"
b111 >#
1G#
#523
b1111001101100011111100110110001111110011011000111111001101100011 "
b1100110011001100000000000000000000000000000000 n
b11111111 P"
0Y"
b1100110011001100000000000000000000000000000000 \"
b11111111 >#
0G#
#524
b1111001101100010011111010000000000010001000100010000000000000000 n
b1111001101100010011111010000000000010001000100010000000000000000 \"
#525
b1111001101100010111100110110001011110011011000101111001101100010 n
b1111001101100010111100110110001011110011011000101111001101100010 \"
#527
0["
07$
#529
1["
17$
#538
b1000011101010101001111011110001011000111111001101100011 "
b111 b
1k
1l
#539
b0 "
0j
0k
0l
#542
b1000100010001000000000000000000000000000000000 "
b11111111 b
1j
b11010111001000110010111001011000101111001101100010 n
b111 P"
1Y"
b11010111001000110010111001011000101111001101100010 \"
b111 >#
1G#
#543
b1111001101100100011111010000000000010001000100010000000000000000 "
b1100110011001100000000000000000000000000000000 n
b11111111 P"
0Y"
b1100110011001100000000000000000000000000000000 \"
b11111111 >#
0G#
#544
b1111001101100100111100110110010011110011011001001111001101100100 "
b1111001101100011011111010000000000010001000100010000000000000000 n
b1111001101100011011111010000000000010001000100010000000000000000 \"
#545
b1111001101100011111100110110001111110011011000111111001101100011 n
b1111001101100011111100110110001111110011011000111111001101100011 \"
#547
0["
07$
#550
1["
17$
#559
b1011010000110011110011101001000011001001111001101100100 "
b111 b
1k
1l
#560
b101010101010101010101010000000000000000000000000000000000000000 "
b1 b
0j
0k
0l
#562
b1000100010001000000000000000000000000000000000 "
b11111111 b
1j
#563
b1111001101100101011111010000000000010001000100010000000000000000 "
b1000011101010101001111011110001011000111111001101100011 n
b111 P"
1Y"
b1000011101010101001111011110001011000111111001101100011 \"
b111 >#
1G#
#564
b1111001101100101111100110110010111110011011001011111001101100101 "
b1100110011001100000000000000000000000000000000 n
b11111111 P"
0Y"
b1100110011001100000000000000000000000000000000 \"
b11111111 >#
0G#
#565
b1111001101100100011111010000000000010001000100010000000000000000 n
b1111001101100100011111010000000000010001000100010000000000000000 \"
#566
b1111001101100100111100110110010011110011011001001111001101100100 n
b1111001101100100111100110110010011110011011001001111001101100100 \"
#568
0["
07$
#570
1["
17$
#579
b11010111011111111010100000000011001011111001101100101 "
b111 b
1k
1l
#580
b0 "
0j
0k
0l
#583
b1000100010001000000000000000000000000000000000 "
b11111111 b
1j
b1011010000110011110011101001000011001001111001101100100 n
b111 P"
1Y"
b1011010000110011110011101001000011001001111001101100100 \"
b111 >#
1G#
#584
b1111001101100110011111010000000000010001000100010000000000000000 "
b1100110011001100000000000000000000000000000000 n
b11111111 P"
0Y"
b1100110011001100000000000000000000000000000000 \"
b11111111 >#
0G#
#585
b1111001101100110111100110110011011110011011001101111001101100110 "
b1111001101100101011111010000000000010001000100010000000000000000 n
b1111001101100101011111010000000000010001000100010000000000000000 \"
#586
b1111001101100101111100110110010111110011011001011111001101100101 n
b1111001101100101111100110110010111110011011001011111001101100101 \"
#588
0["
07$
#591
1["
17$
#600
b11011011111101011100001111011000011001101111001101100110 "
b111 b
1k
1l
#601
b0 "
0j
0k
0l
#604
b1000100010001000000000000000000000000000000000 "
b11111111 b
1j
b11010111011111111010100000000011001011111001101100101 n
b111 P"
1Y"
b11010111011111111010100000000011001011111001101100101 \"
b111 >#
1G#
#605
b1111001101100111011111010000000000010001000100010000000000000000 "
b1100110011001100000000000000000000000000000000 n
b11111111 P"
0Y"
b1100110011001100000000000000000000000000000000 \"
b11111111 >#
0G#
#606
b1111001101100111111100110110011111110011011001111111001101100111 "
b1111001101100110011111010000000000010001000100010000000000000000 n
b1111001101100110011111010000000000010001000100010000000000000000 \"
#607
b1111001101100110111100110110011011110011011001101111001101100110 n
b1111001101100110111100110110011011110011011001101111001101100110 \"
#609
0["
07$
#611
1["
17$
#621
b10011011000000111101000110010000011001111111001101100111 "
b111 b
1k
1l
#622
b101010101010101010101010000000000000000000000000000000000000000 "
b1 b
0j
0k
0l
#624
b1000100010001000000000000000000000000000000000 "
b11111111 b
1j
b11011011111101011100001111011000011001101111001101100110 n
b111 P"
1Y"
b11011011111101011100001111011000011001101111001101100110 \"
b111 >#
1G#
#625
b1111001101101000011111010000000000010001000100010000000000000000 "
b1100110011001100000000000000000000000000000000 n
b11111111 P"
0Y"
b1100110011001100000000000000000000000000000000 \"
b11111111 >#
0G#
#626
b1111001101101000111100110110100011110011011010001111001101101000 "
b1111001101100111011111010000000000010001000100010000000000000000 n
b1111001101100111011111010000000000010001000100010000000000000000 \"
#627
b1111001101100111111100110110011111110011011001111111001101100111 n
b1111001101100111111100110110011111110011011001111111001101100111 \"
#629
0["
07$
#632
1["
17$
#641
b11101000100100110011000010101010011010001111001101101000 "
b111 b
1k
1l
#642
b0 "
b1 b
0j
0k
0l
#644
b1000100010001000000000000000000000000000000000 "
b11111111 b
1j
#645
b1111001101101001011111010000000000010001000100010000000000000000 "
b10011011000000111101000110010000011001111111001101100111 n
b111 P"
1Y"
b10011011000000111101000110010000011001111111001101100111 \"
b111 >#
1G#
#646
b1111001101101001111100110110100111110011011010011111001101101001 "
b1100110011001100000000000000000000000000000000 n
b11111111 P"
0Y"
b1100110011001100000000000000000000000000000000 \"
b11111111 >#
0G#
#647
b1111001101101000011111010000000000010001000100010000000000000000 n
b1111001101101000011111010000000000010001000100010000000000000000 \"
#648
b1111001101101000111100110110100011110011011010001111001101101000 n
b1111001101101000111100110110100011110011011010001111001101101000 \"
#650
0["
07$
#652
1["
17$
#661
b10101000011001010010001011100010011010011111001101101001 "
b111 b
1k
1l
#662
b0 "
0j
0k
0l
#665
b1000100010001000000000000000000000000000000000 "
b11111111 b
1j
b11101000100100110011000010101010011010001111001101101000 n
b111 P"
1Y"
b11101000100100110011000010101010011010001111001101101000 \"
b111 >#
1G#
#666
b1111001101101010011111010000000000010001000100010000000000000000 "
b1100110011001100000000000000000000000000000000 n
b11111111 P"
0Y"
b1100110011001100000000000000000000000000000000 \"
b11111111 >#
0G#
#667
b1111001101101010111100110110101011110011011010101111001101101010 "
b1111001101101001011111010000000000010001000100010000000000000000 n
b1111001101101001011111010000000000010001000100010000000000000000 \"
